country,flag,color,1990,1991,1992,1993,1994,1995,1996,1997,1998,1999,2000,2001,2002,2003,2004,2005,2006,2007,2008,2009,2010,2011,2012,2013,2014,2015,2016,2017,2018,2019,2020
Argentina,argentina,#79bee8,0.718,0.725,0.73,0.735,0.739,0.741,0.748,0.757,0.763,0.774,0.781,0.786,0.781,0.786,0.787,0.788,0.812,0.817,0.821,0.821,0.829,0.835,0.834,0.835,0.836,0.84,0.839,0.843,0.842,0.845,0.845
Brasil,brazil,#009d2e,0.613,0.621,0.627,0.635,0.642,0.651,0.658,0.665,0.67,0.676,0.685,0.691,0.699,0.695,0.698,0.7,0.702,0.706,0.717,0.719,0.727,0.731,0.735,0.753,0.756,0.756,0.758,0.761,0.762,0.765,0.765
Chile,chile,#ff4b5c,0.706,0.715,0.722,0.715,0.72,0.728,0.735,0.742,0.743,0.75,0.756,0.767,0.769,0.776,0.785,0.791,0.791,0.804,0.814,0.822,0.803,0.815,0.821,0.826,0.837,0.842,0.845,0.847,0.849,0.851,0.851
México,mexico,#006843,0.656,0.66,0.664,0.668,0.675,0.677,0.683,0.689,0.695,0.699,0.708,0.712,0.718,0.722,0.731,0.737,0.745,0.746,0.748,0.748,0.748,0.755,0.759,0.756,0.761,0.766,0.768,0.771,0.776,0.779,0.779
