Country,,,1990,1991,1992,1993,1994,1995,1996,1997,1998,1999,2000,2001,2002,2003,2004,2005,2006,2007,2008,2009,2010,2011,2012,2013,2014,2015,2016,2017,2018,2019,2020
Chile,chile,#ff4b5c,8372.7,8941.5,10007.4,9198.7,11604,16024,16627,17870.2,16323,17162,19210,18272,18180,21664,32520.3,41266.9,58680.1,67971.6,64510.1,55462.7,71108.5,81437.8,77790.6,76769.9,75064.7,62035.1,60718.3,68859,75451.8,69681.9,71728
México,mexico,#006843,40711,42688,46196,51886,60882,79542,96000,110431,117460,136391,166367,158547,160682,165396,187980.4,214207,249960.5,271821.2,291264.8,229712.3,298305.1,349569,370769.9,380015.1,396911.7,380550.2,373948.3,409432.6,450684.5,461115.6,417670.3
Argentina,argentina,#79bee8,12353,11978,12235,13118,15659,20967,23811,26370,26441,23333,26341,26543,25650,29566,34575.7,40351,46546,55778.8,70018.3,55672.1,68187.3,84051.1,79982.4,75963.1,68405,56784,57910,58644,61781,65116,60254
Brasil,brazil,#009d2e,31414,31620,35793,38555,43545,46506,47747,52994,51140,48012.8,55118.9,58286.6,60438.7,73203.2,96677.8,118529,137807,160649,197942,152994.7,201915,256039.9,242577.9,242033.5,225100.7,191134.3,185185.4,217825.8,239284.1,222644,201354
