Country,,,1990,1991,1992,1993,1994,1995,1996,1997,1998,1999,2000,2001,2002,2003,2004,2005,2006,2007,2008,2009,2010,2011,2012,2013,2014,2015,2016,2017,2018,2019,2020
Chile,chile,#ff4b5c,19.1,17.8,16.4,15.1,14,13.1,12.5,12.2,11.9,11.5,9.12,8.72,8.1,8.18,8.75,8.29,7.96,8.21,8,7.85,7.71,7.53,7.36,7.19,7.02,6.86,6.72,6.58,6.44,6.31,6.17
México,mexico,#006843,45.4,43.3,41.1,39.1,37.2,35.3,33.5,31.8,30,28.3,24.1,22.84,21.65,20.53,19.46,18.44,17.48,16.57,15.7,14.88,14.1,13.7,13.32,12.94,12.58,12.23,11.89,11.57,11.26,10.95,10.65
Argentina,argentina,#79bee8,28.8,28.3,27.6,26.5,25.5,24.4,23.4,22.4,21.5,20.6,18.06,17.53,17.04,16.28,14.43,12.85,12.63,13.32,12.91,12.21,11.92,11.71,10.89,10.93,10.63,10.33,10.05,9.77,9.51,9.25,9
Brasil,brazil,#009d2e,63.1,60.2,57.2,54.1,51,47.9,44.9,42.1,39.5,37,30.1,29.16,28.26,27.38,26.53,25.7,24.9,24.1,23.32,22.57,21.84,21.15,20.48,19.83,19.21,18.6,18.02,17.46,16.92,16.39,15.88
