country,flag,color,1995,1996,1997,1998,1999,2000,2001,2002,2003,2004,2005,2006,2007,2008,2009,2010,2011,2012,2013,2014,2015,2016
China,china,#ff2405,20034000,22765000,23770000,25073000,27047000,31229000,33167000,36803000,32970000,41761000,46809000,49913000,54720000,53049000,50875000,55664000,57581000,57725000,55686000,55622000,56886000,59270000
Francia,france,#283c99,60033000,62406000,66591000,70109000,73147000,77190000,75202000,77012000,75048000,74433000,74988000,77916000,80853000,79218000,76764000,76647000,80499000,81980000,83634000,83701000,84452000,82570000
Italia,italy,#3d9348,31052000,32943000,34692000,34933000,36516000,41181000,39563000,39799000,39604000,37071000,36513000,41058000,43654000,42734000,43239000,43626000,46119000,46360000,47704000,48576000,50732000,52372000
España,spain,#ffc500,32971000,34027000,39553000,41892000,45440000,46403000,48565000,50331000,50854000,52430000,55914000,58004000,58666000,57192000,52178000,52677000,56177000,57464000,60675000,64939000,68175000,75315000
Estados Unidos,united-states,#1f3261,43318000,46489000,47767000,46377000,48509000,51238000,46927000,43581000,41218000,46086000,49206000,50977000,56135000,58007000,55103000,60010000,62821000,66657000,69995000,75022000,77465000,75608000
