country,flag,color,1995,1996,1997,1998,1999,2000,2001,2002,2003,2004,2005,2006,2007,2008,2009,2010,2011,2012,2013,2014,2015,2016
Argentina,argentina,#79bee8,2289000,2614000,2764000,3012000,2898000,2909000,2620000,2820000,2995000,3457000,3823000,4173000,4562000,4700000,4308000,5325000,5705000,5587000,5246000,5931000,5736000,5559000
Bolivia,bolivia,#0e7a3e,284000,313000,355000,387000,342000,319000,316000,334000,427000,480000,524000,521000,573000,594000,599000,679000,711000,798000,798000,871000,882000,959000
Brasil,brazil,#009d2e,1991000,2666000,2850000,4818000,5107000,5313000,4773000,3785000,4133000,4794000,5358000,5017000,5026000,5050000,4802000,5161000,5433000,5677000,5813000,6430000,6306000,6578000
Colombia,colombia,#ffdb2d,1399000,631000,639000,674000,546000,557000,616000,567000,625000,791000,933000,2045000,2254000,2317000,2364000,1405000,2042000,2175000,2288000,2552000,2978000,3317000
Costa Rica,costa-rica,#f93f52,785000,781000,811000,943000,1032000,1088000,1131000,1113000,1239000,1453000,1679000,1725000,1980000,2089000,1923000,2100000,2192000,2343000,2428000,2527000,2660000,2925000
Cuba,cuba,#f10d29,742000,999000,1153000,1390000,1561000,1741000,1736000,1656000,1847000,2017000,2261000,2150000,2119000,2316000,2405000,2507000,2688000,2815000,2829000,2970000,3491000,3968000
República Dominicana,dominicana,#042d61,1776000,1926000,2211000,2309000,2649000,2978000,2882000,2811000,3282000,3450000,3691000,3965000,3980000,3980000,3992000,4125000,4306000,4563000,4690000,5141400,5600000,5959300
Ecuador,ecuador,#ffc300,440000,494000,529000,511000,518000,627000,641000,683000,761000,819000,860000,841000,937000,1005000,968000,1047000,1141000,1272000,1364000,1557000,1544000,1418000
El Salvador,salvador,#008cc3,235000,283000,387000,542000,658000,795000,735000,798000,720000,951000,1127000,1279000,1339000,1385000,1091000,1150000,1184000,1255000,1283000,1345000,1402000,1434000
Guatemala,guatemala,#0098d3,563000,520000,576000,636000,823000,826000,835000,884000,880000,1182000,1316000,1502000,1628000,1715000,1393000,1384000,1434000,1491000,1516000,1739000,1865000,1906000
Haití,haiti,#f42f4b,145000,150000,149000,147000,143000,140000,142000,140000,136000,96000,112000,108000,386000,258000,387000,255000,349000,349000,420000,465200,516000,516000
Honduras,honduras,#0074d2,271000,263000,307000,321000,371000,471000,518000,550000,611000,641000,673000,739000,804000,869000,836000,863000,871000,895000,863000,868000,880000,880000
México,mexico,#006843,20241000,21395000,19351000,19392000,19043000,20641000,19810000,19667000,18665000,20618000,21915000,21353000,21606000,22931000,22346000,23290000,23403000,23403000,24151000,29346000,32093000,35079000
Nicaragua,nicaragua,#0067ca,281000,303000,358000,406000,468000,486000,483000,472000,526000,615000,712000,749000,800000,858000,932000,1011000,1060000,1180000,1229000,1330000,1386000,1504000
Panamá,panama,#0051b9,345000,362000,421000,431000,457000,484000,519000,534000,566000,621000,702000,843000,1103000,1247000,1200000,1324000,1473000,1606000,1658000,1745000,2110000,2007000
Paraguay,paraguay,#008cc3,438000,426000,395000,350000,269000,289000,279000,250000,268000,309000,341000,388000,416000,428000,439000,465000,524000,579000,610000,649000,1215000,1308000
Perú,peru,#fc0023,479000,584000,649000,726000,694000,800000,901000,1064000,1136000,1350000,1571000,1721000,1916000,2058000,2140000,2299000,2598000,2846000,3164000,3215000,3456000,3744000
Uruguay,uruguay,#0035ab,2022000,2152000,2316000,2163000,2073000,1968000,1892000,1258000,1420000,1756000,1808000,1749000,1753000,1938000,2055000,2353000,2857000,2695000,2683000,2682000,2773000,3037000
Venezuela,venezuela,#fc0023,700000,759000,814000,685000,587000,469000,584000,432000,337000,486000,706000,748000,756000,699000,562000,526000,595000,988000,986000,857000,789000,601000
Chile,chile,#ff4b5c,1540000,1450000,1644000,1759000,1632000,1742000,1723000,1412000,1614000,1785000,2027000,2253000,2507000,2710000,2760000,2801000,3137000,3554000,3576000,3674000,4478000,5641000
