country,flag,color,1990,1991,1992,1993,1994,1995,1996,1997,1998,1999,2000,2001,2002,2003,2004,2005,2006,2007,2008,2009,2010,2011,2012,2013,2014,2015,2016,2017
Argentina,argentina,#79bee8,45,45,45,44,42,42,43,44,44,45,42,43,43,43,41,39,39,40,38,37,37,37,36,35,33,33,31,31
Bolivia,bolivia,#0e7a3e,139,135,130,125,120,115,110,106,101,97,92,89,86,84,81,79,77,75,73,71,69,66,63,62,59,56,54,53
Brasil,brazil,#009d2e,74,71,69,69,66,63,60,57,55,53,50,49,48,46,45,42,41,40,39,38,37,37,35,33,32,31,30,30
Colombia,colombia,#ffdb2d,52,54,53,52,51,51,50,45,43,42,40,39,41,39,38,36,36,34,33,32,30,28,26,25,23,23,22,22
Costa Rica,costa-rica,#f93f52,40,39,38,37,38,38,36,34,34,33,31,30,28,28,27,25,24,21,21,20,22,21,21,20,20,20,21,21
Cuba,cuba,#f10d29,51,51,52,53,52,51,50,49,48,46,43,43,40,40,40,40,38,37,37,37,36,34,34,34,33,33,32,32
República Dominicana,dominicana,#042d61,47,45,43,42,40,38,38,38,37,36,35,35,35,35,36,36,37,37,36,36,36,36,36,37,37,38,37,36
Ecuador,ecuador,#ffc300,47,48,47,44,42,40,40,38,38,38,37,35,37,37,37,38,37,37,36,35,35,34,33,31,29,28,27,27
El Salvador,salvador,#008cc3,70,69,70,69,70,64,63,61,59,57,55,53,52,52,54,54,52,54,51,52,50,51,48,49,49,48,47,45
Guatemala,guatemala,#0098d3,140,149,155,154,150,128,118,122,120,113,114,109,103,101,98,96,92,85,80,80,77,75,72,70,68,66,66,65
Haití,haiti,#f42f4b,200,196,192,190,187,184,178,174,170,166,162,158,154,151,149,146,145,142,140,138,137,136,133,130,128,125,123,121
Honduras,honduras,#0074d2,75,74,76,76,74,79,78,76,74,72,71,69,68,66,65,64,62,61,60,59,58,58,57,56,55,53,52,51
México,mexico,#006843,61,60,60,61,60,59,58,57,56,54,51,50,51,51,49,49,47,46,47,48,47,47,46,46,45,45,44,44
Nicaragua,nicaragua,#0067ca,66,67,64,63,62,61,59,56,54,53,51,52,52,52,52,52,49,48,47,45,42,42,41,40,39,36,34,33
Panamá,panama,#0051b9,38,37,37,37,36,35,34,35,33,31,29,29,28,28,27,27,27,26,26,26,26,25,25,24,23,22,21,21
Paraguay,paraguay,#008cc3,66,64,65,68,67,63,62,59,58,57,55,53,53,54,55,55,55,53,52,53,53,51,49,49,46,45,42,41
Perú,peru,#fc0023,77,72,76,75,72,71,67,64,62,57,54,50,50,51,49,47,45,43,43,45,44,42,40,37,34,32,31,30
Uruguay,uruguay,#0035ab,34,31,32,33,32,31,31,31,31,31,30,29,29,29,28,27,26,27,25,24,24,25,23,22,21,20,20,20
Venezuela,venezuela,#fc0023,49,49,48,48,48,47,44,42,42,41,40,40,40,41,38,36,37,37,38,38,36,37,37,37,37,37,34,34
Chile,chile,#ff4b5c,56,52,49,49,48,47,46,44,43,41,37,37,35,34,33,32,30,30,28,29,29,28,27,26,25,24,24,24
