Country,color,flag,1/1/2020,1/2/2020,1/3/2020,1/4/2020,1/5/2020,1/6/2020,1/7/2020,1/8/2020,1/9/2020,1/10/2020,1/11/2020,1/12/2020,1/13/2020,1/14/2020,1/15/2020,1/16/2020,1/17/2020,1/18/2020,1/19/2020,1/20/2020,1/21/2020,1/22/2020,1/23/2020,1/24/2020,1/25/2020,1/26/2020,1/27/2020,1/28/2020,1/29/2020,1/30/2020,1/31/2020,2/1/2020,2/2/2020,2/3/2020,2/4/2020,2/5/2020,2/6/2020,2/7/2020,2/8/2020,2/9/2020,2/10/2020,2/11/2020,2/12/2020,2/13/2020,2/14/2020,2/15/2020,2/16/2020,2/17/2020,2/18/2020,2/19/2020,2/20/2020,2/21/2020,2/22/2020,2/23/2020,2/24/2020,2/25/2020,2/26/2020,2/27/2020,2/28/2020,2/29/2020,3/1/2020,3/2/2020,3/3/2020,3/4/2020,3/5/2020,3/6/2020,3/7/2020,3/8/2020,3/9/2020,3/10/2020,3/11/2020,3/12/2020,3/13/2020,3/14/2020,3/15/2020,3/16/2020,3/17/2020,3/18/2020,3/19/2020,3/20/2020,3/21/2020,3/22/2020,3/23/2020,3/24/2020,3/25/2020,3/26/2020,3/27/2020,3/28/2020,3/29/2020,3/30/2020,3/31/2020,4/1/2020,4/2/2020,4/3/2020,4/4/2020,4/5/2020,4/6/2020,4/7/2020,4/8/2020,4/9/2020,4/10/2020,4/11/2020,4/12/2020,4/13/2020,4/14/2020,4/15/2020,4/16/2020,4/17/2020,4/18/2020,4/19/2020,4/20/2020,4/21/2020,4/22/2020,4/23/2020,4/24/2020,4/25/2020,4/26/2020,4/27/2020,4/28/2020,4/29/2020,4/30/2020,5/1/2020,5/2/2020,5/3/2020,5/4/2020,5/5/2020,5/6/2020,5/7/2020,5/8/2020,5/9/2020,5/10/2020,5/11/2020,5/12/2020,5/13/2020,5/14/2020,5/15/2020,5/16/2020,5/17/2020,5/18/2020,5/19/2020,5/20/2020,5/21/2020,5/22/2020
CHILE,#fc000b,chile,0,0.79,2.09,3.17,3.17,3.83,4.39,3.48,3.02,4.09,4.45,4.45,4.7,4.43,4.22,4.72,4.72,4.48,4.48,4.33,4.39,4.48,4.45,4.98,4.92,4.93,5.77,6.41,6.52,7.47,7.87,8.03,8.03,7.36,5.98,5.19,5.18,6.32,6.94,6.94,7.24,7.16,6.84,7.19,7.16,6.91,6.91,7.11,7.56,7.62,8.37,8.99,8.48,8.48,8.9,9.41,9.73,9.93,10.26,10.41,10.41,10.32,9.72,10.1,11.02,11.66,11.58,11.58,12.55,13.01,12.93,14.39,14.38,13.32,13.32,14.17,15.05,15.73,16.98,16.13,16.54,16.54,16.4,15.14,14.09,13.36,12.5,12.85,12.78,13.82,15.75,16.3,16.67,16.75,16.92,16.92,15.97,14.88,15.36,13.88,13.76,13.48,13.51,13.97,14.81,15.31,15.52,15.08,15.19,15.19,15.5,16.08,15.94,16.06,16.19,15.74,15.75,15.89,15.22,13.49,12.83,12.84,12.68,12.68,12.96,12.99,13.09,13.51,12.41,11.47,11.48,11.43,11.21,10.91,10.79,11.33,11.73,11.73,11.31,10.7,9.76,8.55,8.89
MEXICO,#006847,mexico,0,-0.27,-0.13,-0.28,-0.26,-0.26,-0.38,-0.4,-0.59,-0.68,-0.85,-0.84,-0.74,-0.64,-0.72,-0.74,-1.02,-1.46,-1.46,-1.42,-1.11,-1.1,-1.02,-0.79,-0.78,-0.76,-0.18,-0.54,-1.14,-0.9,-0.58,-0.59,-0.57,-0.54,-1.11,-1.53,-1.66,-1.14,-0.92,-0.91,-0.95,-1.37,-1.57,-1.55,-1.88,-2.09,-2.09,-2,-1.74,-1.86,-1.19,-0.13,-0.3,-0.25,0.83,0.65,1.2,2.46,3.81,3.46,3.57,3.71,2.55,2.53,4.01,6.07,6.18,6.62,11.98,9.46,11.38,15.56,15.29,15.59,15.5,18.51,20.58,24.34,27.92,26.66,28.8,28.97,31.64,31.84,29.05,25.07,23.19,23.23,23.4,26.03,25.55,27.36,27.8,30.07,31.97,32.06,32.09,28.47,28.12,25.57,24.18,23.23,23.25,24.36,24.24,25.91,27.65,25.94,25.12,25.27,27.08,28.08,28.98,29.78,31.19,31.79,31.8,31.23,29.45,27.01,26.2,29.39,29.82,29.95,29.41,26.64,27.65,27.63,25.77,24.75,24.8,25.62,27.12,27.93,27.55,26.33,26.42,26.45,25.45,24.73,23.59,21.84,20.91
PERÚ,#fc0b2c,peru,0,0.72,0.32,1.66,1.62,0.62,0.04,1.26,1.18,1.22,2.12,2.12,1.44,0.22,0.78,0.24,-0.1,-0.23,-0.19,0.86,0.18,0.17,0.12,0.2,0.77,0.81,0.89,0.31,0.47,0.67,1.01,1.94,2.02,2.5,2.71,1.92,1.39,1.67,2.42,2.48,2.45,2.86,2.71,2.83,2.65,3.1,3.12,2.99,2.68,3.03,2.65,2.76,3.31,3.33,3.48,3.48,3.23,3.69,4.19,4.49,4.49,4.45,4.18,3.86,3.95,4.1,5.87,5.9,5.31,5.87,6.76,6.53,7.17,7.82,7.84,7.83,8.13,8,8.19,8.01,7.82,7.82,7.78,7.02,7.51,5.42,4.3,4.74,4.7,4.12,4.4,4.22,4.46,5.27,5.83,5.83,4.98,4.21,2.95,2.81,2.09,2.98,3.01,1.89,2.36,3.1,3.49,3.64,4.1,4.12,3.49,3.63,3.11,3.01,2.97,3.84,3.84,3.35,3.56,3.23,2.88,2.63,3.42,3.42,2.78,3.14,2.73,3.1,3.05,3.62,3.68,3.93,3.75,3.87,4.64,4.26,4.95,4.99,4.43,3.57,3.83,3.46,3.69
COLOMBIA,#ffda24,colombia,0,-0.16,-0.61,-0.67,-0.67,-0.83,-0.92,-0.33,-1.08,-0.44,-0.16,-0.16,-0.11,-0.15,0.46,0.87,1.28,1.49,1.5,1.56,1.54,1.78,1.74,2.29,2.49,2.49,2.92,3.38,3.19,3.39,4.12,4.39,4.39,4.02,3.38,2.59,2.65,3.46,4.18,4.16,4.59,4.98,3.92,3.14,2.96,3.3,3.3,3.44,3.45,3.53,3.35,3.7,3.43,3.43,3.89,4.53,4.92,6.18,6.74,6.62,6.62,7.12,5.74,5.59,6.06,8.02,9.53,9.52,11.14,15.52,15.62,18.14,21.84,21.18,21.22,23.67,23.77,23.96,26.58,25.18,25.79,25.79,26.25,27.08,25.18,23.2,21.58,21.94,22.01,22.77,23.82,24.09,24.69,23.18,22.99,22.99,22.35,20.38,18.86,18.17,16.65,16.59,16.69,17.39,17.63,18.01,19.52,21.04,20.27,20.26,20.32,22,23.17,22.66,22.79,23.11,23.11,23.39,23.48,22.37,20.36,20.79,20.86,20.86,21.13,21,20.02,20.23,19.45,19.46,19.42,18.88,18.61,18.62,19.52,19.87,19.51,19.51,18.41,17.13,16.58,15.82,14.86
ARGENTINA,#90bde5,argentina,0,-0.07,-0.15,-0.27,-0.27,-0.25,-0.24,-0.19,-0.14,-0.23,-0.26,-0.28,-0.21,0.13,0.13,0.03,0.08,0.19,0.19,0.17,0.24,0.31,0.22,0.24,0.2,0.2,0.28,0.36,0.42,0.48,0.55,0.64,0.64,0.68,0.97,1.07,1.16,1.3,1.35,1.35,1.49,1.82,2.06,2.24,2.44,2.47,2.47,2.58,2.82,2.9,3.03,3.15,3.14,3.15,3.09,3.11,3.35,3.62,3.7,3.73,3.71,3.63,3.88,3.99,4.13,4.15,4.25,4.17,4.07,4.34,4.48,4.62,4.82,5.03,4.96,4.97,5.25,5.49,5.8,6.19,6.5,6.51,6.26,6.37,6.59,6.99,7.28,7.44,7.45,7.55,7.48,7.51,7.78,8.07,8.39,8.38,8.33,8.48,8.62,8.65,7.86,7.81,7.81,7.97,8.83,9.35,9.59,9.78,9.88,9.83,9.86,10.18,10.4,10.6,10.74,10.84,10.83,10.75,11.08,11.27,11.44,11.32,11.23,11.25,11.33,11.73,11.88,12.06,12.11,12.32,12.3,12.32,12.54,12.62,12.79,12.87,12.98,12.98,13.06,13.3,13.43,13.52,13.69
BRASIL,#009834,brazil,0,0.06,0.5,1.2,1.19,1.03,1.21,1.11,1.35,1.72,1.9,1.9,2.41,3.07,3.3,3.98,3.99,3.56,3.56,3.87,4.43,4.48,3.91,3.9,4.06,4.06,4.38,4.61,4.63,5.53,6.01,6.55,6.55,6.14,5.68,5.75,5.74,6.93,7.5,7.5,7.52,7.61,7.95,8.21,7.65,6.92,6.92,7.26,8.01,8.56,8.93,9.28,9.23,9.23,9.22,9.2,9.62,11.06,11.67,11.3,11.3,11.37,11.65,12.84,14.6,15.01,15.13,15.13,16.52,16.74,16.6,20.12,19.24,20.93,20.93,22.44,24.64,26.22,27.29,25.99,25.99,25.99,26.54,27.24,26.17,25.01,25.87,26.86,26.87,27.77,29.3,30.09,30.8,31.57,33.09,33.09,32.05,30.74,29.28,27.1,27.08,27.09,27.09,28.04,29.12,29.5,30.42,30.39,30.26,30.26,31.12,32.31,33.45,36.19,39.1,39.14,39.14,39.95,39.17,35.44,34.15,36.61,36.56,36.56,37.42,38.17,40.2,43.67,44.13,42.5,42.51,43.61,44.93,46.66,46.35,44.9,45.76,45.76,43.43,42.53,42.52,40.29,38.32
VENEZUELA,#cf142b,venezuela,0,0.84,4.36,1.85,2.54,18.68,18.68,20.25,26.32,35.79,35.78,35.78,40.01,47.04,48.3,52.66,55.23,55.23,55.23,55.23,57.76,61.05,60.77,61.91,62.76,62.76,62.72,62.3,62.94,63.29,63.22,61.84,61.84,61.84,61.15,59.87,60.11,60.46,60.46,60.46,60.3,60.01,59.51,59.78,60.32,60.31,60.31,60.18,60.09,60.75,60.74,60.76,60.82,60.82,60.51,59.86,59.84,60.07,60.55,61.56,61.56,61.54,61.33,61.11,60.39,59.52,59.51,59.51,59.54,59.64,59.8,60.5,60.58,60.58,60.58,60.88,61.51,61.28,60.24,57.51,57.47,57.47,57.13,52.86,53.13,55.94,60.92,60.93,60.93,64.7,74.21,76.26,78.34,82.6,81.74,81.74,85.14,91.38,110.64,113.76,120.07,120.07,120.07,120.72,131.85,143.42,156.14,166.68,174.55,174.55,174.95,179.11,181.82,201.53,215.98,215.98,215.98,238.54,272.01,280.77,284.86,284.81,284.79,284.79,284.65,281.94,277.51,270.88,277.01,277.01,277.01,281.97,290.27,289.98,289.89,290.26,290.26,290.26,292.6,299.5,298.98,300.06,300.83
URUGUAY,#0038a8,uruguay,0,-0.19,-0.2,-0.41,-0.38,-0.08,-0.15,-0.22,0.19,0.32,-0.03,-0.01,0.44,-0.1,-0.14,-0.21,-0.08,-0.32,-0.3,0.08,-0.1,0.09,0.1,0.27,-0.37,-0.34,-0.05,-0.12,-0.1,0.19,0.18,0.15,0.16,0.26,0.72,0.6,0.73,0.8,0.4,0.42,0.73,1.02,1.15,1.47,1.54,1.48,1.49,1.83,1.87,1.78,1.76,1.86,1.99,2,2.35,2.8,2.71,2.95,3.26,3.92,3.92,3.84,4.7,5.08,5.93,6.87,8.36,8.3,8.6,11.32,13.99,16.23,16.67,16.72,16.72,16.9,16.91,18.41,21.25,22.79,22.73,22.73,22.34,21.05,20.41,19.14,17.87,15.41,15.54,15.05,15.32,16.34,16.02,16.9,16,16,18.42,18.83,18.31,16.23,15.07,15.06,15.06,14.83,15.51,16.12,16.86,16.83,16.34,16.44,16.65,16.5,16.08,16.16,16.16,16,16,15.9,16.95,17.4,16.16,14.88,14.85,14.85,14.18,13.72,13.96,14.76,15.26,16.83,16.76,17.35,18.2,17.44,17.43,17.46,17.8,17.82,18.1,18.04,18.15,17.22,16.47
COSTA RICA,#d84151,costa-rica,0,0.01,0.23,0.17,0.17,0.05,-0.01,0.15,0.29,0.28,0.3,0.3,0.29,0.42,0.44,0.09,-0.3,-0.44,-0.44,-0.92,-1.27,-1.21,-1.2,-1,-1.03,-1.03,-0.97,-0.92,-0.91,-0.88,-0.86,-0.83,-0.83,-0.91,-0.77,-0.71,-0.42,-0.12,-0.11,-0.11,-0.11,0.08,0.1,0.1,-0.06,-0.24,-0.24,-0.51,-0.79,-0.68,-0.63,-0.34,-0.15,-0.15,-0.12,0.09,0.07,-0.18,-0.39,-0.25,-0.25,-0.37,-0.14,-0.04,0.09,0.16,0.31,0.31,-0.02,0.06,0.06,-0.14,-0.27,-0.39,-0.39,-0.46,-0.94,-0.99,-0.82,-1.02,-1.12,-1.12,-1.19,-0.67,-0.12,-0.35,-0.02,0.15,0.15,0.74,1.92,1.5,1.53,1.6,1.4,1.4,0.92,0.72,0.61,0.54,0.18,0.17,0.17,0.07,0.38,0.16,0,-0.43,-0.74,-0.74,-0.8,-0.56,-0.39,-0.18,-0.32,-0.37,-0.37,-0.66,-0.63,-0.53,-0.58,-0.84,-0.85,-0.85,-0.71,-0.55,-0.53,-0.49,-0.59,-0.41,-0.41,-0.44,-0.4,-0.42,-0.23,-0.33,-0.31,-0.31,-0.31,-0.55,-0.18,-0.16,-0.12
