entity,color,flag,1/2/2020,1/3/2020,1/6/2020,1/7/2020,1/8/2020,1/9/2020,1/10/2020,1/13/2020,1/14/2020,1/15/2020,1/16/2020,1/17/2020,1/21/2020,1/22/2020,1/23/2020,1/24/2020,1/27/2020,1/28/2020,1/29/2020,1/30/2020,1/31/2020,2/3/2020,2/4/2020,2/5/2020,2/6/2020,2/7/2020,2/10/2020,2/11/2020,2/12/2020,2/13/2020,2/14/2020,2/18/2020,2/19/2020,2/20/2020,2/21/2020,2/24/2020,2/25/2020,2/26/2020,2/27/2020,2/28/2020,3/2/2020,3/3/2020,3/4/2020,3/5/2020,3/6/2020,3/9/2020,3/10/2020,3/11/2020,3/12/2020,3/13/2020,3/16/2020,3/17/2020,3/18/2020,3/19/2020,3/20/2020,3/23/2020,3/24/2020,3/25/2020,3/26/2020,3/27/2020,3/30/2020,3/31/2020,4/1/2020,4/2/2020,4/3/2020,4/6/2020,4/7/2020,4/8/2020,4/9/2020,4/13/2020,4/14/2020,4/15/2020,4/16/2020,4/17/2020,4/20/2020,4/21/2020,4/22/2020,4/23/2020,4/24/2020,4/27/2020,4/28/2020,4/29/2020,4/30/2020,5/1/2020,5/4/2020,5/5/2020,5/6/2020,5/7/2020,5/8/2020,5/11/2020,5/12/2020,5/13/2020,5/14/2020,5/15/2020,5/18/2020,5/19/2020,5/20/2020,5/21/2020,5/22/2020,5/26/2020,5/27/2020,5/28/2020,5/29/2020,6/1/2020,6/2/2020,6/3/2020,6/4/2020,6/5/2020,6/8/2020,6/9/2020,6/10/2020,6/11/2020,6/12/2020,6/15/2020,6/16/2020,6/17/2020,6/18/2020,6/19/2020,6/22/2020,6/23/2020,6/24/2020,6/25/2020,6/26/2020,6/29/2020,6/30/2020,7/1/2020,7/2/2020,7/6/2020,7/7/2020,7/8/2020,7/9/2020,7/10/2020,7/13/2020,7/14/2020,7/15/2020,7/16/2020,7/17/2020,7/20/2020,7/21/2020,7/22/2020,7/23/2020,7/24/2020,7/27/2020,7/28/2020,7/29/2020,7/30/2020,7/31/2020
APPLE,#000000,apple,2.28,1.29,2.09,1.61,3.25,5.44,5.68,7.94,6.48,6.02,7.35,8.54,7.81,8.19,8.71,8.4,5.21,8.19,10.45,10.29,5.4,5.11,8.58,9.47,10.75,8.98,9.5,8.84,11.43,10.63,10.66,8.63,10.21,9.08,6.61,1.54,-1.9,-0.34,-6.86,-6.91,1.76,-1.47,3.1,-0.25,-1.57,-9.36,-2.83,-6.2,-15.47,-5.34,-17.52,-13.89,-16,-16.64,-21.93,-23.59,-15.93,-16.39,-11.99,-15.63,-13.23,-13.4,-17.96,-16.59,-17.79,-10.62,-11.65,-9.39,-8.74,-6.95,-2.25,-3.14,-2.37,-3.69,-5.69,-8.61,-5.98,-6.34,-3.64,-3.57,-5.13,-2.02,0.05,-1.56,-0.17,1.33,2.38,3.44,5.61,7.27,6.05,4.77,5.41,4.79,7.26,6.64,8.71,7.9,8.6,7.86,8.33,8.38,8.27,9.6,10.11,10.72,9.76,12.89,13.56,17.14,20.16,14.39,15.38,16.8,19.9,19.73,19.78,19.09,22.21,24.82,22.62,24.24,20.43,23.2,24.23,23.99,23.99,27.31,26.92,29.87,30.34,30.66,30.06,32.21,33.12,31.48,31.21,33.98,32.13,32.5,26.47,26.16,29.15,27.03,29.46,31.03,44.74
AMAZON,#f8a51b,amazon,2.72,1.47,2.98,3.19,2.39,2.88,1.91,2.35,1.17,0.77,1.63,0.91,2.39,2.14,1.99,0.75,-1.06,0.29,0.55,1.24,8.71,8.46,10.92,10.39,10.95,12.52,15.48,16.4,16.89,16.35,15.53,16.66,17.45,16.52,13.43,8.74,6.76,7.13,1.97,1.94,5.74,3.31,6.93,4.12,2.88,-2.56,2.38,-1.46,-9.27,-3.4,-8.59,-2.16,-0.97,1.79,-0.09,2.98,4.99,2.06,5.83,2.83,6.28,5.51,3.24,3.84,3.18,8.1,8.86,10.56,10.55,17.37,23.57,24.89,30.32,28.53,29.54,25.99,27.91,29.85,30.43,28.58,25.23,28.4,33.89,23.71,25.33,25.43,27.24,28.13,28.78,30.37,27.55,28.15,29.28,30.41,31.3,32.55,35.18,32.41,31.88,31.06,30.44,29.94,32.17,33.73,33.8,34.12,33.16,34.37,36.6,40.75,43.27,38.43,37.73,39.23,41.53,42.92,43.63,44.76,46.86,49.6,47.98,49.07,45.73,45.05,49.3,55.79,56.42,65.44,62.36,66.74,72.24,73.18,67.98,66.9,62.83,62.35,60.29,73,69.84,67.76,61.62,62.83,65.34,62.37,64.17,65.16,71.26
FACEBOOK,#1977f3,facebook,2.21,1.67,3.58,3.81,4.86,6.36,6.24,8.12,6.73,7.75,8.05,8.23,7.89,7.83,7.07,6.18,4.69,6.11,8.76,2.09,-1.63,-0.52,2.23,2.37,2.73,3.45,3.81,0.95,2.68,3.84,4.35,6.11,5.96,4.55,2.4,-2.21,-4.13,-3.92,-7.55,-6.23,-4.29,-9.43,-6.57,-9.78,-11.77,-17.42,-13.18,-17.06,-24.74,-17.04,-28.86,-27.2,-28.4,-25.39,-27.05,-27.84,-21.57,-23.89,-20.42,-23.61,-19.15,-18.73,-22.24,-22.93,-24.88,-19.34,-17.74,-15.09,-14.65,-14.84,-13.19,-13.78,-14.13,-12.67,-13.16,-16.78,-11.19,-9.8,-7.4,-8.65,-10.88,-5.39,-0.26,-1.45,0,0.89,1.57,2.93,3.46,3.86,2.36,-0.07,0.76,2.74,3.87,5.67,12.04,12.74,14.45,13.13,11.64,9.85,9.67,12.99,13.38,12.14,10.25,12.43,12.74,16.28,15.34,9.34,11.37,13.28,14.81,14.75,14.95,16.34,16.55,18.02,14.02,14.83,5.28,7.5,10.63,15.74,13.72,17.07,17.35,18.67,19.12,19.4,16.44,16.8,17.07,17.38,17.92,19.57,17.78,16.87,13.33,12.4,13.76,12.12,13.66,14.25,23.59
GOOGLE,#28b446,google,2.19,1.65,4.36,4.16,4.9,6,6.69,7.51,6.81,7.45,8.27,10.46,10.67,10.81,10.85,9.47,6.89,8.3,8.76,8.58,6.97,10.69,7.92,7.96,10.2,10.43,12.64,12.74,13.38,12.99,13.39,13.44,13.85,13.26,10.76,6.01,3.5,3.81,-1.82,-0.01,3.5,-0.12,3.15,-1.84,-3.26,-9.23,-4.79,-9.59,-17.01,-9.34,-19.89,-16.52,-18.53,-17,-20.25,-21.3,-15.63,-17.75,-13.18,-17.11,-14.42,-13.25,-17.72,-16.6,-18.42,-11.66,-11.71,-9.88,-9.92,-9.63,-5.54,-6.13,-6.12,-4.51,-5.84,-9.5,-6.05,-5.09,-4.69,-5.12,-7.97,0.21,0.55,-1.65,-1.23,0.72,0.45,2.23,3.36,4.79,2.67,0.67,1.3,2.51,3.42,2.61,5.21,5.03,5.51,6.12,6.04,5.89,7.03,7.13,7.68,7.46,5.59,7.51,8.11,8.41,9.36,4.67,5.49,6.07,7.99,8.45,7.07,6.36,8.31,9.3,6.97,7.59,1.73,4.31,5.87,7.66,9.75,11.97,11.24,12.26,13.38,14.9,12.9,13.55,13.25,13.11,13.25,16.76,16.17,16.83,13.24,12.6,14.19,12.26,13.75,14.86,11.09
TESLA,#cc0001,tesla,2.85,5.9,7.94,12.13,17.64,15.06,14.3,25.47,28.59,23.95,22.75,22.03,30.81,36.15,36.78,35.02,33.39,35.52,38.88,53.18,55.52,86.46,112.05,75.63,79.04,78.82,84.37,85.11,83.42,92.19,91.24,105.2,119.31,115,115.38,99.31,91.22,86.17,62.31,59.68,77.76,78.21,79.16,73.2,68.16,45.34,54.26,51.61,34,30.67,6.39,2.84,-13.65,2.23,2.2,3.82,20.72,28.91,26.25,22.96,20.03,25.26,15.11,8.64,14.74,23.4,30.39,31.2,36.97,55.61,69.7,74.46,78.14,80.21,78.41,64.16,75.01,68.68,73.34,90.94,83.85,91.36,86.91,67.65,81.96,83.64,87.07,86.47,95.88,93.94,93.49,89.08,92.03,91.04,94.49,93.15,94.96,97.83,95.27,95.75,96.07,92.63,99.6,114.69,110.73,111.07,106.63,111.71,127.07,124.86,145.03,132.55,123.57,136.87,134.77,137.08,139.99,139.26,137.69,139.47,129.69,135.69,129.42,141.28,158.12,167.64,188.93,227.87,232.24,226.51,233.3,269.24,257.87,262.58,269.57,258.72,258.77,292.75,274.91,280.64,261.69,238.73,268.03,252.95,258.36,255.58,242.02
