Country,flag,color,1970,1971,1972,1973,1974,1975,1976,1977,1978,1979,1980,1981,1982,1983,1984,1985,1986,1987,1988,1989,1990,1991,1992,1993,1994,1995,1996,1997,1998,1999,2000,2001,2002,2003,2004,2005,2006,2007,2008,2009,2010,2011,2012,2013,2014,2015,2016,2017,2018
Argentina,argentina,#79bee8,1.46,1.46,1.94,1.78,1.92,1.84,1.17,1.72,1.94,2.4,2.61,1.6,1.6,1.62,2.57,1.36,1.26,1.28,1.05,1.05,1.07,3.73,3.73,3.73,3.73,3.73,3.73,4.04,4.04,4.52,4.58,4.83,4.02,3.54,3.49,3.86,4.13,4.46,4.84,5.53,5.02,5.29,5.35,5.44,5.36,5.78,5.55,5.46,5.46
Bolivia,bolivia,#0e7a3e,4.78,4.78,4.78,4.78,4.78,4.78,4.78,4.78,4.78,4.78,4.78,4.78,4.78,4.78,4.78,4.78,4.78,4.78,4.78,4.78,4.78,4.78,4.78,4.78,4.78,5.61,4.66,5.52,5.52,5.66,5.47,5.9,6.23,6.38,6.31,6.31,6.31,7.04,7.04,8.08,7.6,6.89,6.43,6.26,7.29,7.29,7.29,7.29,7.29
Brasil,brazil,#009d2e,4.57,4.57,4.57,4.57,4.57,4.57,4.57,4.57,4.57,4.57,4.57,4.57,4.57,4.57,4.57,4.57,4.57,4.57,4.57,4.57,4.57,4.57,4.57,4.57,4.57,4.57,4.76,4.76,4.76,3.8,3.95,3.84,3.75,3.97,3.97,4.48,4.87,4.97,5.27,5.46,5.65,5.74,5.86,5.84,5.95,6.24,6.24,6.24,6.24
Chile,chile,#ff4b5c,3.75,3.75,3.75,3.75,3.75,3.59,3.07,3.07,3.07,3.48,4.22,4.91,2.82,2.82,2.82,2.82,2.82,2.82,2.25,2.25,2.25,2.38,2.38,2.38,2.51,2.56,2.8,3.01,3.34,3.73,3.78,4.08,4.08,3.96,3.54,3.26,3.02,3.21,3.79,4.23,4.16,4.05,4.53,4.53,4.73,4.88,5.34,5.4,5.4
Colombia,colombia,#0051b9,1.75,1.75,1.75,1.75,1.75,1.75,1.75,1.75,1.75,1.75,1.73,2.6,3,3,3,2.72,2.71,2.71,2.71,2.71,3.93,3.93,3.93,3.93,3.93,3.93,3.93,3.93,3.93,4.44,3.51,3.71,4.27,4.33,4.08,4.03,3.93,4.09,3.95,4.77,4.84,4.47,4.37,4.88,4.63,4.47,4.48,4.54,4.5
Costa Rica,costa-rica,#f93f52,7.35,7.35,7.35,7.35,7.35,7.35,7.35,7.35,7.35,7.35,7.35,4.89,4.89,4.96,4.42,4.42,4.42,4.01,4.01,4.08,3.37,3.37,3.37,3.37,3.37,3.37,3.91,5.42,5.42,5.42,4.69,4.85,5.17,5.16,4.91,4.64,4.64,4.66,4.92,6.05,6.63,6.46,6.69,6.85,6.87,7.08,7.1,7.35,7.03
Cuba,cuba,#f10d29,8.37,8.37,8.37,8.37,8.37,8.37,8.37,8.37,8.37,8.37,8.37,7.14,7.14,7.14,7.14,7.14,7.14,7.14,7.14,7.14,7.14,7.14,7.07,7.07,5.62,6.21,6.21,6.21,6.21,6.76,7.7,8.36,9.57,9.94,10.27,10.56,9.06,11.87,14.06,13.12,12.84,12.84,12.84,12.84,12.84,12.84,12.84,12.84,12.84
Ecuador,ecuador,#ffc300,2,1.88,2.42,2.42,2.42,2.42,2.42,2.42,4.2,4.2,4.2,4.2,4.2,4.2,4.2,5.23,6.87,2,2,2,2,2,2,2,2,2,2.2,2.2,2.2,1.55,1.15,4.34,4.34,4.34,4.34,4.34,4.34,4.34,4.34,4.34,4.51,4.73,4.64,5,5.26,5,5,5,5
El Salvador,salvador,#008cc3,0.9,0.9,0.9,0.9,0.9,0.9,2.55,2.55,2.55,2.55,2.55,2.55,2.55,2.55,2.55,2.55,2.55,2.55,2.55,2.55,2.55,2.55,2.55,2.55,2.55,2.55,2.55,2.55,2.55,2.56,2.84,3.24,3.24,3.13,3.18,3.18,3.49,3.61,4.46,4.66,4.05,3.9,3.71,3.8,3.82,3.91,3.83,3.73,3.6
Guatemala,guatemala,#0098d3,1.86,2.03,2.03,2.03,2.03,2.03,1.63,1.67,1.67,1.67,1.67,1.67,1.67,1.67,1.67,1.67,1.67,1.67,1.67,1.67,1.67,1.67,1.67,1.67,1.44,1.6,1.56,2.98,2.98,2.98,2.98,2.98,2.98,2.98,2.98,2.98,2.98,3.04,3.18,2.8,2.8,2.92,2.96,2.84,2.94,2.96,2.83,2.8,2.93
Haití,haiti,#f42f4b,1.39,1.39,1.39,1.39,1.39,1.39,1.39,1.39,1.39,1.39,1.39,1.39,1.08,1.02,0.99,0.97,1.07,1.07,1.07,1.07,1.07,1.07,3.02,3.02,3.02,3.02,3.02,3.02,3.02,3.02,3.02,3.02,3.02,3.02,3.02,3.02,3.02,3.02,3.02,3.02,3.02,3.02,3.02,3.02,3.02,3.16,2.45,2.69,2.78
Honduras,honduras,#0074d2,2.02,2.02,2.02,2.02,2.02,2.02,2.02,2.02,2.02,2.01,1.94,2.51,2.51,2.51,2.51,2.51,2.51,2.51,2.51,2.51,2.51,2.51,2.51,2.51,2.51,2.62,5.87,5.87,5.87,5.87,5.87,5.87,5.87,5.87,5.87,5.87,5.87,5.87,5.87,5.87,5.87,5.87,5.87,5.87,7.09,6.41,6.08,6.08,6.08
México,mexico,#006843,2.28,2.28,2.28,2.28,2.28,2.28,2.28,2.28,2.28,2.28,2.28,2.28,2.28,2.28,2.28,2.28,2.28,2.28,2.28,2.28,2.32,2.55,3.01,3.65,3.65,3.69,3.37,3.37,3.37,3.54,3.99,4.24,4.45,5.07,4.73,4.85,4.7,4.69,4.82,5.19,5.16,5.11,5.1,4.7,5.26,5.24,4.91,4.91,4.91
Nicaragua,nicaragua,#0067ca,2.04,2.49,2.82,2.82,2.82,2.82,2.82,2.82,2.82,2.82,3.26,3.79,3.79,5.98,5.98,5.35,5.35,5.35,2.98,2.98,2.98,2.98,2.98,2.23,2.23,2.23,2.23,2.23,2.23,2.92,3,2.39,2.39,2.42,4.48,4.48,4.48,4.48,4.48,4.48,4.48,4.08,4.08,4.08,4.08,4.08,4.08,4.34,4.34
Panamá,panama,#0051b9,4.04,3.35,3.98,3.49,3.82,4.15,4.31,4.28,3.61,3.64,3.54,3.43,3.42,3.55,3.47,3.52,3.35,3.87,3.47,3.47,3.47,3.47,3.47,3.47,3.47,3.95,4.09,3.85,4.57,4.57,4.76,4.11,4.19,4.17,3.58,3.5,3.5,3.5,3.5,3.16,3.16,3.16,3.16,3.16,3.16,3.16,3.16,3.16,3.16
Paraguay,paraguay,#008cc3,2.11,2.27,1.4,1.4,1.4,1.4,1.4,1.4,1.4,1.4,1.4,1.4,1.4,1.4,1.4,1.4,1.04,1.04,1.04,1.04,1.04,4.2,4.2,4.2,4.2,4.2,4.2,4.2,4.2,4.23,4.23,3.83,3.41,3.38,2.87,2.74,2.74,2.74,2.77,2.77,2.77,3.7,3.67,3.67,3.67,3.67,3.44,3.44,3.44
Perú,peru,#fc0023,3.39,3.39,3.39,3.39,3.12,3.12,3.12,3.12,3.12,3.12,3.12,3.12,3.12,3.12,3.12,3.12,3.12,3.12,3.12,3.12,3.12,3.12,3.12,3.12,3.12,3.12,3.12,3.28,3.28,3.44,3.23,3.04,2.82,2.94,2.96,2.84,2.65,2.63,2.87,3.14,2.87,2.66,2.92,3.3,3.69,3.97,3.81,3.94,3.72
Puerto Rico,puerto-rico,#0051b9,7.25,7.25,7.21,6.48,7.29,6.23,7.14,6.39,6.68,6.48,6.48,6.48,6.48,6.48,6.48,6.48,6.48,6.48,6.48,6.48,6.48,6.48,6.48,6.48,6.48,6.48,6.48,6.48,6.48,6.48,6.48,6.48,6.48,6.48,6.48,6.48,6.48,6.48,6.48,6.48,6.48,6.48,6.48,6.48,6.07,6.07,6.07,6.07,6.07
República Dominicana,dominicana,#042d61,2.64,1.54,1.54,1.54,1.54,1.54,1.54,1.54,1.54,1.54,1.54,1.54,1.54,1.46,1.33,1.21,0.77,0.77,0.77,0.77,0.77,0.77,0.77,0.77,0.89,1.03,1.23,1.89,1.89,1.89,1.89,1.97,1.91,1.84,2.05,2.05,2.05,2.05,2.05,2.05,2.05,2.05,2.05,2.05,2.05,2.05,2.05,2.05,2.05
Uruguay,uruguay,#0035ab,1.99,1.99,1.99,1.99,1.99,1.99,1.99,1.99,1.99,1.99,2.16,2.37,2.37,2.37,2.37,2.57,3.1,2.48,2.48,2.48,2.48,2.48,2.41,2.27,2.27,2.52,2.87,2.24,2.24,2.42,2.42,2.8,2.32,2.07,2.5,2.71,2.88,4.36,4.36,4.36,4.36,4.36,4.76,4.76,4.76,4.76,4.76,4.84,4.84
Venezuela,venezuela,#fc0023,3.56,3.57,4.14,3.38,3.38,4.44,4.49,4.49,3.76,3.76,3.76,4.43,4.28,5.18,4.2,4.06,4.06,4.06,3.75,2.53,2.53,4.45,4.45,3.95,5.17,3.67,3.67,3.67,3.67,3.67,3.67,3.67,3.67,3.67,3.67,3.67,3.67,3.63,6.87,6.87,6.87,6.87,6.87,6.87,6.87,6.87,6.87,6.87,6.87
