country,,,1970,1971,1972,1973,1974,1975,1976,1977,1978,1979,1980,1981,1982,1983,1984,1985,1986,1987,1988,1989,1990,1991,1992,1993,1994,1995,1996,1997,1998,1999,2000,2001,2002,2003,2004,2005,2006,2007,2008,2009,2010,2011,2012,2013,2014,2015,2016,2017,2018,2019,2020,2021,2022,2023,2024,2025,2026,2027,2028,2029,2030,2031,2032,2033,2034,2035,2036,2037,2038,2039,2040,2041,2042,2043,2044,2045,2046,2047,2048,2049,2050
Argentina,#de2910,argentina,90.01,90.3,90.59,90.88,91.17,91.45,91.69,91.93,92.17,92.41,92.64,92.86,93.08,93.3,93.52,93.75,93.95,94.15,94.35,94.55,94.77,94.96,95.15,95.34,95.53,95.7,95.85,96,96.15,96.3,96.43,96.56,96.69,96.82,96.95,97.07,97.18,97.29,97.4,97.51,97.61,97.7,97.79,97.88,97.97,98.06,98.13,98.2,98.27,98.34,98.42,98.48,98.54,98.6,98.66,98.73,98.78,98.83,98.88,98.93,98.98,99.02,99.06,99.1,99.14,99.19,99.22,99.25,99.28,99.31,99.36,99.39,99.42,99.45,99.48,99.51,99.53,99.55,99.57,99.59,99.63
Bolivia,#2a3560,bolivia,60.26,61.47,62.68,63.89,65.1,66.31,67.44,68.57,69.7,70.83,71.98,72.97,73.96,74.95,75.94,76.91,77.77,78.63,79.49,80.35,81.23,81.96,82.69,83.42,84.15,84.87,85.49,86.11,86.73,87.35,87.98,88.5,89.02,89.54,90.06,90.59,91.02,91.45,91.88,92.31,92.76,93.1,93.44,93.78,94.12,94.46,94.73,95,95.27,95.54,95.79,95.99,96.19,96.39,96.59,96.81,96.97,97.13,97.29,97.45,97.6,97.72,97.84,97.96,98.08,98.19,98.28,98.37,98.46,98.55,98.65,98.72,98.79,98.86,98.93,98.99,99.04,99.09,99.14,99.19,99.26
Brazil,#bc002d,brazil,67.14,68.1,69.06,70.02,70.98,71.93,72.81,73.69,74.57,75.45,76.32,77.05,77.78,78.51,79.24,79.97,80.58,81.19,81.8,82.41,83.01,83.57,84.13,84.69,85.25,85.79,86.27,86.75,87.23,87.71,88.17,88.55,88.93,89.31,89.69,90.09,90.41,90.73,91.05,91.37,91.67,91.95,92.23,92.51,92.79,93.07,93.31,93.55,93.79,94.03,94.28,94.49,94.7,94.91,95.12,95.31,95.48,95.65,95.82,95.99,96.18,96.33,96.48,96.63,96.78,96.91,97.03,97.15,97.27,97.39,97.53,97.63,97.73,97.83,97.93,98.05,98.14,98.23,98.32,98.41,98.49
Chile,#006843,chile,87.68,88.11,88.54,88.97,89.4,89.81,90.17,90.53,90.89,91.25,91.59,91.87,92.15,92.43,92.71,93,93.24,93.48,93.72,93.96,94.18,94.38,94.58,94.78,94.98,95.17,95.33,95.49,95.65,95.81,95.99,96.13,96.27,96.41,96.55,96.67,96.79,96.91,97.03,97.15,97.26,97.36,97.46,97.56,97.66,97.75,97.83,97.91,97.99,98.07,98.16,98.23,98.3,98.37,98.44,98.51,98.57,98.63,98.69,98.75,98.8,98.85,98.9,98.95,99,99.05,99.09,99.13,99.17,99.21,99.25,99.28,99.31,99.34,99.37,99.42,99.45,99.48,99.51,99.54,99.56
Colombia,#79bee8,colombia,77.18,77.94,78.7,79.46,80.22,81,81.68,82.36,83.04,83.72,84.39,84.95,85.51,86.07,86.63,87.19,87.63,88.07,88.51,88.95,89.41,89.78,90.15,90.52,90.89,91.28,91.59,91.9,92.21,92.52,92.82,93.08,93.34,93.6,93.86,94.1,94.32,94.54,94.76,94.98,95.19,95.37,95.55,95.73,95.91,96.08,96.23,96.38,96.53,96.68,96.82,96.94,97.06,97.18,97.3,97.42,97.52,97.62,97.72,97.82,97.93,98.02,98.11,98.2,98.29,98.36,98.43,98.5,98.57,98.64,98.72,98.78,98.84,98.9,98.96,99.02,99.07,99.12,99.17,99.22,99.27
Costa Rica,#009d2e,costa-rica,83.6,84.21,84.82,85.43,86.04,86.67,87.17,87.67,88.17,88.67,89.19,89.56,89.93,90.3,90.67,91.03,91.29,91.55,91.81,92.07,92.32,92.56,92.8,93.04,93.28,93.5,93.71,93.92,94.13,94.34,94.57,94.71,94.85,94.99,95.13,95.26,95.4,95.54,95.68,95.82,95.97,96.09,96.21,96.33,96.45,96.57,96.67,96.77,96.87,96.97,97.09,97.18,97.27,97.36,97.45,97.55,97.63,97.71,97.79,97.87,97.93,98,98.07,98.14,98.21,98.26,98.32,98.38,98.44,98.5,98.55,98.6,98.65,98.7,98.75,98.79,98.83,98.87,98.91,98.95,99.01
Cuba,#de2910,cuba,94.29,94.62,94.95,95.28,95.61,95.92,96.19,96.46,96.73,97,97.25,97.44,97.63,97.82,98.01,98.18,98.31,98.44,98.57,98.7,98.81,98.9,98.99,99.08,99.17,99.27,99.32,99.37,99.42,99.47,99.52,99.56,99.6,99.64,99.68,99.7,99.72,99.74,99.76,99.78,99.81,99.82,99.83,99.84,99.85,99.88,99.89,99.9,99.91,99.92,99.92,99.92,99.92,99.92,99.92,99.94,99.94,99.94,99.94,99.94,99.96,99.96,99.96,99.96,99.96,99.97,99.97,99.97,99.97,99.97,99.98,99.98,99.98,99.98,99.98,99.98,99.98,99.98,99.98,99.98,99.99
Dominican Republic,#2a3560,dominicana,97.23,97.27,97.31,97.35,97.39,97.45,97.5,97.55,97.6,97.65,97.72,97.77,97.82,97.87,97.92,97.96,98.01,98.06,98.11,98.16,98.19,98.23,98.27,98.31,98.35,98.4,98.44,98.48,98.52,98.56,98.62,98.66,98.7,98.74,98.78,98.81,98.85,98.89,98.93,98.97,99,99.03,99.06,99.09,99.12,99.17,99.2,99.23,99.26,99.29,99.31,99.34,99.37,99.4,99.43,99.44,99.46,99.48,99.5,99.52,99.54,99.56,99.58,99.6,99.62,99.63,99.65,99.67,99.69,99.71,99.71,99.72,99.73,99.74,99.75,99.78,99.79,99.8,99.81,99.82,99.83
Ecuador,#bc002d,ecuador,76.8,77.45,78.1,78.75,79.4,80.07,80.69,81.31,81.93,82.55,83.17,83.73,84.29,84.85,85.41,85.95,86.41,86.87,87.33,87.79,88.26,88.64,89.02,89.4,89.78,90.17,90.46,90.75,91.04,91.33,91.61,91.85,92.09,92.33,92.57,92.8,93.02,93.24,93.46,93.68,93.89,94.1,94.31,94.52,94.73,94.93,95.11,95.29,95.47,95.65,95.82,95.97,96.12,96.27,96.42,96.57,96.7,96.83,96.96,97.09,97.22,97.33,97.44,97.55,97.66,97.76,97.85,97.94,98.03,98.12,98.21,98.29,98.37,98.45,98.53,98.59,98.65,98.71,98.77,98.83,98.89
Guatemala,#006843,guatemala,45.72,46.46,47.2,47.94,48.68,49.43,50.2,50.97,51.74,52.51,53.27,54.13,54.99,55.85,56.71,57.57,58.41,59.25,60.09,60.93,61.79,62.59,63.39,64.19,64.99,65.8,66.59,67.38,68.17,68.96,69.77,70.49,71.21,71.93,72.65,73.36,74.06,74.76,75.46,76.16,76.87,77.52,78.17,78.82,79.47,80.12,80.7,81.28,81.86,82.44,83,83.5,84,84.5,85,85.5,85.93,86.36,86.79,87.22,87.65,88.02,88.39,88.76,89.13,89.49,89.8,90.11,90.42,90.73,91.06,91.33,91.6,91.87,92.14,92.39,92.62,92.85,93.08,93.31,93.54
Haiti,#79bee8,haiti,29.47,30.38,31.29,32.2,33.11,34.02,35.06,36.1,37.14,38.18,39.2,40.46,41.72,42.98,44.24,45.52,46.71,47.9,49.09,50.28,51.45,52.91,54.37,55.83,57.29,58.76,60.2,61.64,63.08,64.52,65.96,67.13,68.3,69.47,70.64,71.82,72.76,73.7,74.64,75.58,76.51,77.29,78.07,78.85,79.63,80.43,81.09,81.75,82.41,83.07,83.72,84.28,84.84,85.4,85.96,86.54,87.02,87.5,87.98,88.46,88.92,89.32,89.72,90.12,90.52,90.9,91.23,91.56,91.89,92.22,92.57,92.85,93.13,93.41,93.69,93.99,94.23,94.47,94.71,94.95,95.19
Honduras,#009d2e,honduras,52.3,53.42,54.54,55.66,56.78,57.9,58.95,60,61.05,62.1,63.13,64.11,65.09,66.07,67.05,68.02,68.84,69.66,70.48,71.3,72.1,72.81,73.52,74.23,74.94,75.66,76.28,76.9,77.52,78.14,78.77,79.34,79.91,80.48,81.05,81.63,82.15,82.67,83.19,83.71,84.25,84.7,85.15,85.6,86.05,86.49,86.87,87.25,87.63,88.01,88.38,88.71,89.04,89.37,89.7,90.01,90.29,90.57,90.85,91.13,91.41,91.65,91.89,92.13,92.37,92.6,92.81,93.02,93.23,93.44,93.63,93.81,93.99,94.17,94.35,94.51,94.66,94.81,94.96,95.11,95.28
Mexico,#de2910,mexico,68.05,69.08,70.11,71.14,72.17,73.19,74.09,74.99,75.89,76.79,77.68,78.46,79.24,80.02,80.8,81.58,82.25,82.92,83.59,84.26,84.92,85.44,85.96,86.48,87,87.5,87.92,88.34,88.76,89.18,89.6,89.91,90.22,90.53,90.84,91.17,91.47,91.77,92.07,92.37,92.69,92.94,93.19,93.44,93.69,93.95,94.16,94.37,94.58,94.79,95.02,95.2,95.38,95.56,95.74,95.92,96.07,96.22,96.37,96.52,96.67,96.79,96.91,97.03,97.15,97.29,97.4,97.51,97.62,97.73,97.82,97.91,98,98.09,98.18,98.27,98.34,98.41,98.48,98.55,98.64
Nicaragua,#2a3560,nicaragua,100,100,100,100,100,100,100,100,100,100,100,100,100,100,100,100,100,100,100,100,100,100,100,100,100,100,100,100,100,100,100,0,0,0,0,0,0,0,0,0,0,0,0,0,0,0,0,0,0,0,0,0,0,0,0,0,0,0,0,0,0,0,0,0,0,0,0,0,0,0,0,0,0,0,0,0,0,0,0,0,0
Panama,#bc002d,panama,79.06,79.7,80.34,80.98,81.62,82.27,82.87,83.47,84.07,84.67,85.26,85.75,86.24,86.73,87.22,87.73,88.1,88.47,88.84,89.21,89.58,89.89,90.2,90.51,90.82,91.13,91.39,91.65,91.91,92.17,92.42,92.64,92.86,93.08,93.3,93.52,93.71,93.9,94.09,94.28,94.49,94.66,94.83,95,95.17,95.36,95.51,95.66,95.81,95.96,96.12,96.25,96.38,96.51,96.64,96.77,96.88,96.99,97.1,97.21,97.33,97.42,97.51,97.6,97.69,97.8,97.88,97.96,98.04,98.12,98.19,98.26,98.33,98.4,98.47,98.52,98.58,98.64,98.7,98.76,98.8
Paraguay,#006843,paraguay,82.54,83.11,83.68,84.25,84.82,85.38,85.87,86.36,86.85,87.34,87.85,88.29,88.73,89.17,89.61,90.07,90.44,90.81,91.18,91.55,91.91,92.16,92.41,92.66,92.91,93.14,93.39,93.64,93.89,94.14,94.37,94.57,94.77,94.97,95.17,95.39,95.56,95.73,95.9,96.07,96.24,96.38,96.52,96.66,96.8,96.95,97.06,97.17,97.28,97.39,97.52,97.61,97.7,97.79,97.88,97.98,98.06,98.14,98.22,98.3,98.37,98.43,98.49,98.55,98.61,98.68,98.73,98.78,98.83,98.88,98.95,98.99,99.03,99.07,99.11,99.17,99.21,99.25,99.29,99.33,99.35
Peru,#79bee8,peru,75.11,75.96,76.81,77.66,78.51,79.38,80.14,80.9,81.66,82.42,83.17,83.82,84.47,85.12,85.77,86.44,86.99,87.54,88.09,88.64,89.18,89.6,90.02,90.44,90.86,91.27,91.61,91.95,92.29,92.63,92.98,93.26,93.54,93.82,94.1,94.37,94.62,94.87,95.12,95.37,95.6,95.8,96,96.2,96.4,96.58,96.73,96.88,97.03,97.18,97.35,97.48,97.61,97.74,97.87,97.98,98.08,98.18,98.28,98.38,98.47,98.55,98.63,98.71,98.79,98.85,98.91,98.97,99.03,99.09,99.14,99.19,99.24,99.29,99.34,99.37,99.41,99.45,99.49,99.53,99.55
Uruguay,#009d2e,uruguay,96.88,97,97.12,97.24,97.36,97.48,97.59,97.7,97.81,97.92,98.01,98.09,98.17,98.25,98.33,98.41,98.48,98.55,98.62,98.69,98.74,98.8,98.86,98.92,98.98,99.02,99.05,99.08,99.11,99.14,99.19,99.22,99.25,99.28,99.31,99.34,99.37,99.4,99.43,99.46,99.48,99.5,99.52,99.54,99.56,99.58,99.6,99.62,99.64,99.66,99.67,99.68,99.69,99.7,99.71,99.73,99.74,99.75,99.76,99.77,99.78,99.79,99.8,99.81,99.82,99.82,99.83,99.84,99.85,99.86,99.85,99.86,99.87,99.88,99.89,99.88,99.88,99.88,99.88,99.88,99.9
