Country,flag,color,2005,2006,2007,2008,2009,2010,2011,2012,2013,2014,2015,2016,2017,2018,2019,2020
Argentina,argentina,#79bee8,24.4,24.9,25.3,25.2,24.5,24.8,25.1,24.6,24.4,23.9,23.8,23.6,23.5,23.4,22.9,18.1
Bolivia,bolivia,#0e7a3e,33.5,33.7,33.2,33.4,33.3,33.2,33.1,31.8,31.7,32.4,30.2,30.1,30.5,31.6,31.5,25
Brasil,brazil,#009d2e,25.1,25.3,25.3,25.7,25.4,25.3,25.1,25.4,25.5,25.4,24.9,24.1,23.7,23.7,24.1,20.5
Chile,chile,#ff4b5c,24.6,25.1,25.3,25.1,26,25,25.6,25.6,25.7,25.4,25.6,25.4,25.3,25.3,25,20.9
Colombia,colombia,#0051b9,29.6,29.3,29.1,29.3,30,29.4,29.8,30,29.9,30,30.2,30,29.6,29.5,28.9,22.9
Costa Rica,costa-rica,#f93f52,28.8,29,30.7,30.8,28.3,26.8,26.4,27.6,26.6,26.2,26.2,26,26.3,26.1,25.8,21.3
Cuba,cuba,#f10d29,24.8,25.1,25.6,25.8,26.3,25.9,25.7,25.6,25.6,25.7,25.8,25.9,25.9,25.9,25.9,22.6
Ecuador,ecuador,#ffc300,31.3,31.7,30.9,30.3,28.9,28.4,27.9,28.3,27.4,26.9,27.5,27.3,27.9,27.6,27.5,22.7
El Salvador,salvador,#008cc3,26.3,26.7,26.9,27,26.5,26.6,26.9,26.8,27.3,26.9,26.8,26.9,26.9,26.9,27.5,22.2
Guatemala,guatemala,#0098d3,28.2,28.1,28,27.9,27.7,27.6,27.6,29.5,27.6,28,27.1,28.1,28.2,28.3,28.4,23.7
Haití,haiti,#f42f4b,24.1,23.8,23.5,23.8,23.9,24.2,24.5,24.8,24.9,25,25.1,25.3,25.4,25.5,25.7,23.8
Honduras,honduras,#0074d2,24.8,25.4,25.8,24.1,23.7,23.6,24.4,24.3,24.1,25.2,25.3,26,25.8,27.1,28.1,21.3
México,mexico,#006843,27.6,27.8,27.6,27.5,26.9,26.8,27,27.3,27.3,27.1,27.4,27.6,27.8,28,28.2,24.7
Nicaragua,nicaragua,#0067ca,30.3,30.5,30.9,30.7,30.3,26.4,25.1,23.7,23.9,24.3,24.4,24.7,25.1,24.6,24.7,23.9
Panamá,panama,#0051b9,29.6,29.2,29.4,28.5,26.9,26.4,27.5,27.4,28,27.3,27.5,27,26.5,26.5,26.5,20.3
Paraguay,paraguay,#008cc3,31.7,31.1,31.1,31.3,30.4,30.8,32.1,31.2,32.1,30.7,30.4,30.2,30.7,29.7,29.5,26.2
Perú,peru,#fc0023,29.6,31.2,32.1,32.2,31.8,31.9,31.9,32,31.8,31.6,31.7,30.9,31.8,32.4,32.5,23.7
República Dominicana,dominicana,#042d61,23.5,25.5,23.9,24.6,24,24.5,24.9,25.3,25.3,25.8,26,26.3,26.6,27.1,27.1,22.9
Uruguay,uruguay,#0035ab,23.5,24.5,25.4,26.2,26.4,26.5,27,26.8,26.6,26.8,26.3,26,25.8,25.5,25.2,22.4
Venezuela,venezuela,#fc0023,24.7,25.1,25.6,26.3,25.6,25,24.8,24.5,24.3,24.3,24.3,24.1,23.8,23.5,22.7,19.4
Puerto Rico,puerto-rico,#0051b9,20.4,20.6,20.4,19.9,18.7,18.2,18.1,18.2,18,17.9,18.1,18.2,18.4,18.7,18.8,17
