Country,color,country,Huella,flag,flag,extra
Catar,,Catar,14.7,qatar,,1
Luxembourg,,Luxemburgo,12.8,luxembourg,,1.2
United Arab Emirates,,Emiratos Árabes Unidos,8.9,united-arabe,,0.5
Bahrain,,Baréin,8.7,bahrein,,0.5
Trinidad and Tobago,,Trinidad y Tobago,8.2,trinidad,,1.5
Canada,,Canadá,8.1,canada,,15
Mongolia,,Mongolia,8,mongolia,,13.8
United States of America,,Estados Unidos,8,united-states,,3.4
Kuwait,,Kuwait,8,kuwait,,0.5
Bermudas,,Bermudas,8,bermudas,,0.1
Australia,,Australia,7.3,australia,,12.6
Estonia,,Estonia,7.2,estonia,,9.7
Denmark,,Dinamarca,6.9,denmark,,4.2
Aruba,,Aruba,6.6,aruba,,0.6
Belgium,,Bélgica,6.6,belgium,,0.8
 Republic of Korea,,Corea del Sur,6.2,south-korea,,0.6
Latvia,,Letonia,6.1,latvia,,8.5
Sweden,,Suecia,6.1,sweden,,9.4
Austria,,Austria,6,austria,,2.7
Brunei Darussalam,,Brunéi,6,brunei-darussalam,,2.8
Kazakhstan,,Kazajstán,6,kazakhstan,,3.6
Belize,,Belice,6,belize,,3.8
Singapore,,Singapur,5.9,singapore,,0.1
Lithuania,,Lituania,5.9,lithuania,,5.1
Cayman Islands,,Islas Caimán,5.9,islas-caiman,,0.3
Finland,,Finlandia,5.8,finland,,12.4
Norway,,Noruega,5.8,norway,,7.2
Saudi Arabia,,Arabia Saudita,5.8,arabia,,0.4
Malta,,Malta,5.7,malta,,0.6
Israel,,Israel,5.5,israel,,0.2
Russian Federation,,Rusia,5.5,russia,,7
Czech Republic,,República Checa,5.5,czech-republic,,2.4
Turkmenistan,,Turkmenistán,5.2,turkmenistan,,2.4
Netherlands,,Países Bajos,5,netherlands,,0.8
Ireland,,Irlanda,5,ireland,,3.3
Slovenia,,Eslovenia,4.9,slovenia,,2.2
Poland,,Polonia,4.7,poland,,2
Germany,,Alemania,4.7,germany,,1.5
RÃ©union,,Reunión,4.7,reunion,,0.2
Japan,,Japón,4.7,japan,,0.6
Saint Vincent and Grenadines,,San Vicente y las Granadinas,4.6,saint-vincent,,1.2
France,,Francia,4.6,france,,2.5
Switzerland,,Suiza,4.5,switzerland,,1
Montserrat,,Montserrat,4.5,montserrat,,1.3
Slovakia,,Eslovaquia,4.4,slovakia,,2.7
Italy,,Italia,4.4,italy,,0.9
Portugal,,Portugal,4.4,portugal,,1.3
Bhutan,,Bután,4.4,bhutan,,4.9
New Zealand,,Nueva Zelanda,4.3,new-zealand,,9.2
Martinique,,Martinica,4.3,martinique,,0.4
Chile,,Chile,4.3,chile,,3.4
Antigua and Barbuda,,Antigua y Barbuda,4.3,antigua-barbuda,,0.8
Belarus,,Bielorrusia,4.2,belarus,,3.1
United Kingdom,,Reino Unido,4.2,united-kingdom,,1.1
Greece,,Grecia,4.1,greece,,1.4
Montenegro,,Montenegro,4.1,montenegro,,3
Guadeloupe,,Guadalupe,4,guadeloupe,,0.5
Spain,,España,4,spain,,1.2
Malaysia,,Malasia,3.9,malaysia,,2.3
Cyprus,,Chipre,3.9,chipre,,0.2
French Polynesia,,Polinesia Francesa,3.8,french-polynesia,,1.3
Barbados,,Barbados,3.7,barbados,,0.2
Croatia,,Croacia,3.7,croatia,,3
China,,China,3.7,china,,0.9
Hungary,,Hungría,3.7,hungary,,2.5
Bulgaria,,Bulgaria,3.6,bulgaria,,3.3
Bahamas,,Bahamas,3.6,bahamas,,9.1
Turkey,,Turquía,3.5,turkey,,1.4
Bosnia and Herzegovina,,Bosnia y Herzegovina,3.5,bosnia,,1.8
Libyan Arab Jamahiriya,,Libia,3.5,libya,,0.6
British Virgin Islands,,Islas Vírgenes Británicas,3.4,british-virgin-islands,,1.9
Romania,,Rumanía,3.4,rumania,,3.1
Lebanon,,Líbano,3.3,lebanon,,0.3
Argentina,,Argentina,3.3,argentina,,6.6
Tonga,,Tonga,3.2,tonga,,1.6
Iran,,Irán,3.2,iran,,0.7
South Africa,,Sudáfrica,3.2,south-africa,,1
Paraguay,,Paraguay,3.1,paraguay,,9.8
Bolivia,,Bolivia,3.1,bolivia,,15.5
Guyana,,Guyana,3.1,guyana,,67.1
Mauritius,,Mauricio,3.1,mauricio,,0.7
Republic of North Macedonia,,Macedonia,3.1,macedonia,,1.5
Brazil,,Brasil,2.8,brazil,,8.6
Fiji,,Fiyi,2.8,fiji,,2.2
Suriname,,Surinam,2.8,suriname,,83.6
Grenada,,Granada,2.8,grenada,,2
Serbia,,Serbia,2.8,serbia,,1.3
Botswana,,Botsuana,2.7,botswana,,3
Ukraine,,Ucrania,2.7,ukraine,,2.6
Mexico,,México,2.6,mexico,,1.1
Thailand,,Tailandia,2.6,thailand,,1.2
Costa Rica,,Costa Rica,2.6,costa-rica,,1.5
Samoa,,Samoa,2.5,samoa,,1.8
Saint Lucia,,Santa Lucía,2.5,saint-lucia,,0.3
French Guiana,,Guayana Francesa,2.3,french-guiana,,94.4
Mauritania,,Mauritania,2.3,mauritania,,3.9
Algeria,,Argelia,2.3,algeria,,0.5
Dominica,,Dominica,2.3,dominica,,1
Venezuela,,Venezuela,2.3,venezuela,,2.5
Panamá,,Panamá,2.3,panama,,2.7
