Account,color,country,Valor,img,instagram
Cristiano Ronaldo,,portugal,258.2,cristiano,cristiano
Ariana Grande,,united-states,218.9,ariana,arianagrande
Dwayne Johnson,,united-states,214.8,therock,therock
Kylie Jenner,,united-states,212.9,kylie,kyliejenner
Selena Gomez,,united-states,206.9,selena,selenagomez
Kim Kardashian West,,united-states,202.5,kim,kimkardashian
Leo Messi,,argentina,180.8,messi,leomessi
Beyoncé,,united-states,163.5,beyonce,beyonce
Justin Bieber,,canada,160.9,justin,justinbieber
Kendall Jenner,,united-states,149.9,kendall,kendalljenner
Taylor Swift,,united-states,146,taylor,taylorswift
Neymar Jr,,brazil,145.8,neymar,neymarjr
Jennifer Lopez,,united-states,140.6,jennifer,jlo
Khloé Kardashian,,united-states,128.7,khloe,khloekardashian
Miley Cyrus,,united-states,121.9,miley,mileycyrus
Katy Perry,,united-states,111.9,katy,katyperry
Kourtney Kardashian,,united-states,109.2,kourtney,kourtneykardash
Kevin Hart,,united-states,103.4,kevin,kevinhart4real
Demi Lovato,,united-states,97.9,demi,ddlovato
Virat Kohli,,india,93.4,virat,virat.kohli
Cardi B,,united-states,81.9,cardi,iamcardib
LeBron James,,united-states,78.4,lebron,kingjames
Chris Brown,,united-states,75.7,chris,chrisbrownofficial
Billie Eilish,,united-states,75.1,billie,billieeilish
Shakira,,colombia,70.2,shakira,shakira
David Beckham,,united-kingdom,65.3,david,davidbeckham
Gigi Hadid,,united-states,63.4,gigi,gigihadid
Dua Lipa,,united-kingdom,60.1,dua,dualipa
Priyanka Chopra Jonas,,india,60,priyanka,priyankachopra
Justin Timberlake,,united-states,59.6,justin-timberlake,justintimberlake
Emma Watson,,france,59.3,emma,emmawatson
Shawn Mendes,,canada,59.1,shawn,shawnmendes
Shraddha,,india,57.7,shraddha,shraddhakapoor
Maluma,,colombia,57,maluma,maluma
Snoop Dogg,,united-states,55.3,snoopdogg,snoopdogg
Ronaldo de Assis Moreira,,brazil,53.7,ronaldinho,ronaldinho
Deepika Padukone,,denmark,52,deepika,deepikapadukone
Neha Kakkar,,india,52,neha,nehakakkar
Camila Cabello,,cuba,51.6,camila,camila_cabello
Will Smith,,united-states,51.2,will,willsmith
Anitta,,brazil,51.1,anitta,anitta
Alia Bhatt,,india,50.7,alia,aliaabhatt
Raffi Ahmad and Nagita Slavina,,indonesia,49.8,raffi,raffinagita1717
Whindersson Nunes,,brazil,49.4,whindersson,whinderssonnunes
Gal Gadot,,israel,49.2,gal,gal_gadot
Robert Downey Jr.,,united-states,48.3,robert,robertdowneyjr
Akshay Kumar,,india,48.2,akshay,akshaykumar
Huda Kattan,,united-states,48,huda,hudabeauty
Jacqueline Fernandez,,sri-lanka,47.9,jacqueline,jacquelinef143
Leonardo DiCaprio,,united-states,47.7,dicaprio,leonardodicaprio
