Name,color,img,Valor,img,instagram,,,,,,
Marcos Galperín,,marcos,6.1,argentina,,,,Marcos Galperin,,6.1,argentina
Alejandro Bulgheroni,,alejandro,3.3,argentina,,,,Alejandro Bulgheroni,,3.3,argentina
Gregorio Pérez Companc y Familia,,goyo,2.4,argentina,,,,Gregorio Perez Companc y Familia,,2.4,argentina
Alberto Roemmers,,alberto-roe,2.2,argentina,,,,Alberto Roemmers,,2.2,argentina
Eduardo Eurnekián,,eduardo-eur,1.3,argentina,,,,Eduardo Eurnekian,,1.3,argentina
Jorge Paulo Lemann y Familia,,jorge-paulo,16.9,brazil,,,,Jorge Paulo Lemann y Familia,,16.9,brazil
Eduardo Saverin,,eduardo,14.6,brazil,,,,Eduardo Saverin,,14.6,brazil
Marcel Herrmann Telles,,marcel,11.5,brazil,,,,Marcel Herrmann Telles,,11.5,brazil
Jorge Moll Filho y Familia,,jorge-moll,11.3,brazil,,,,Jorge Moll Filho y Familia,,11.3,brazil
Carlos Alberto Sicupira y Familia,,carlos-alberto,8.7,brazil,,,,Carlos Alberto Sicupira y Familia,,8.7,brazil
Hermanos Safra,,safra,7.1,brazil,,,,Safra Siblings,,7.1,brazil
Alexandre Behring,,alexandre-beh,7,brazil,,,,Alexandre Behring,,7,brazil
Dulce Pugliese de Godoy Bueno,,dulce,6,brazil,,,,Dulce Pugliese de Godoy Bueno,,6,brazil
Alceu Elias Feldmann,,alceu,5.4,brazil,,,,Alceu Elias Feldmann,,5.4,brazil
Luiza Helena Trajano,,luiza,5.3,brazil,,,,Luiza Helena Trajano,,5.3,brazil
Luiz Frias,,luiz-frias,4.6,brazil,,,,Luis Frias,,4.6,brazil
André Esteves,,andre-esteves,4.5,brazil,,,,Andre Esteves,,4.5,brazil
Candido Pinheiro Koren de Lima,,koren-de-lima,3.7,brazil,,,,Candido Pinheiro Koren de Lima,,3.7,brazil
Franco Bittar Garcia,,none-male,3.5,brazil,,,,Franco Bittar Garcia,,3.5,brazil
Camila de Godoy Bueno Grossi,,none-female,3.1,brazil,,,,Camila de Godoy Bueno Grossi,,3.1,brazil
Pedro de Godoy Bueno,,pedro-de-godoy,3,brazil,,,,Pedro de Godoy Bueno,,3,brazil
Joesley Batista,,joesley,2.9,brazil,,,,Joesley Batista,,2.9,brazil
Wesley Batista,,wesley,2.9,brazil,,,,Wesley Batista,,2.9,brazil
Walter Faria,,walter,2.9,brazil,,,,Walter Faria,,2.9,brazil
Luciano Hang,,luciano,2.7,brazil,,,,Luciano Hang,,2.7,brazil
Guilherme Benchimol,,guilherme-ben,2.6,brazil,,,,Guilherme Benchimol,,2.6,brazil
Abílio dos Santos Diniz,,abilio,2.6,brazil,,,,Abilio dos Santos Diniz,,2.6,brazil
José Luis Cutrale,,jose-luis,2.5,brazil,,,,Jose Luis Cutrale,,2.5,brazil
Pedro Moreira Salles,,pedro,2.5,brazil,,,,Pedro Moreira Salles,,2.5,brazil
Carlos Sánchez,,carlos,2.5,brazil,,,,Carlos Sanchez,,2.5,brazil
André Street,,andre,2.5,brazil,,,,André Street,,2.5,brazil
Eduardo de Pontes,,none-male,2.4,brazil,,,,Eduardo de Pontes,,2.4,brazil
Antonio Luiz Seabra,,antonio-luiz,2.4,brazil,,,,Antonio Luiz Seabra,,2.4,brazil
Liu Ming Chung,,liu,2.3,brazil,,,,Liu Ming Chung,,2.3,brazil
Fernando Roberto Moreira Salles,,fernando-roberto,2.3,brazil,,,,Fernando Roberto Moreira Salles,,2.3,brazil
Joao Moreira Salles,,joao-moreira,2.3,brazil,,,,Joao Moreira Salles,,2.3,brazil
Walther Moreira Salles Junior,,walther,2.3,brazil,,,,Walther Moreira Salles Junior,,2.3,brazil
José Joao Abdalla Filho,,jose-joao,2.2,brazil,,,,Jose Joao Abdalla Filho,,2.2,brazil
Miguel Krigsner,,miguel-krigsner,2.2,brazil,,,,Miguel Krigsner,,2.2,brazil
Rubens Menin Teixeira de Souza,,rubens-menin,2.2,brazil,,,,Rubens Menin Teixeira de Souza,,2.2,brazil
Julio Bozano,,julio-bonzano,2.1,brazil,,,,Julio Bozano,,2.1,brazil
Fabricio García,,none-male,2.1,brazil,,,,Fabricio Garcia,,2.1,brazil
Flavia Bittar Garcia Faleiros,,none-female,2.1,brazil,,,,Flavia Bittar Garcia Faleiros,,2.1,brazil
Joao Alves de Queiroz Filho,,joao-alves,1.9,brazil,,,,Joao Alves de Queiroz Filho,,1.9,brazil
Ermirio Pereira de Moraes,,ermirio,1.9,brazil,,,,Ermirio Pereira de Moraes,,1.9,brazil
María Helena Moraes Scripilliti,,maria-helena,1.9,brazil,,,,Maria Helena Moraes Scripilliti,,1.9,brazil
Joao Roberto Marinho,,joao-roberto,1.8,brazil,,,,Joao Roberto Marinho,,1.8,brazil
José Roberto Marinho,,jose-roberto,1.8,brazil,,,,Jose Roberto Marinho,,1.8,brazil
Roberto Irineu Marinho,,roberto-irineu,1.8,brazil,,,,Roberto Irineu Marinho,,1.8,brazil
Jorge Pinheiro Koren de Lima,,jorge-pinheiro,1.8,brazil,,,,Jorge Pinheiro Koren de Lima,,1.8,brazil
Candido Pinheiro Koren de Lima Junior,,candido,1.8,brazil,,,,Candido Pinheiro Koren de Lima Junior,,1.8,brazil
David Feffer,,david-feffer,1.7,brazil,,,,David Feffer,,1.7,brazil
Alfredo Egydio Arruda Villela Filho,,alfredo-egydio,1.6,brazil,,,,Alfredo Egydio Arruda Villela Filho,,1.6,brazil
Daniel Feffer,,daniel-feffer,1.6,brazil,,,,Daniel Feffer,,1.6,brazil
Jorge Feffer,,none-male,1.6,brazil,,,,Jorge Feffer,,1.6,brazil
Ruben Feffer,,ruben-feffer,1.6,brazil,,,,Ruben Feffer,,1.6,brazil
Alexandre Grendene Bartelle,,alexandre,1.6,brazil,,,,Alexandre Grendene Bartelle,,1.6,brazil
Rubens Ometto Silveira Mello,,rubens,1.6,brazil,,,,Rubens Ometto Silveira Mello,,1.6,brazil
Lirio Parisotto,,lirio,1.5,brazil,,,,Lirio Parisotto,,1.5,brazil
Fernando Trajano,,fernando-trajano,1.5,brazil,,,,Fernando Trajano,,1.5,brazil
Samuel Barata,,samuel,1.4,brazil,,,,Samuel Barata,,1.4,brazil
Maurizio Billi,,maurizio,1.4,brazil,,,,Maurizio Billi,,1.4,brazil
Ana Lucia de Mattos Barretto Villela,,ana-lucia,1.4,brazil,,,,Ana Lucia de Mattos Barretto Villela,,1.4,brazil
Jayme Garfinkel,,jayme,1.4,brazil,,,,Jayme Garfinkel,,1.4,brazil
Guilherme Peirao Leal,,guilherme,1.4,brazil,,,,Guilherme Peirao Leal,,1.4,brazil
Ilson Mateus,,ilson,1.4,brazil,,,,Ilson Mateus,,1.4,brazil
Gisele Trajano,,none-female,1.4,brazil,,,,Gisele Trajano,,1.4,brazil
Vera Rechulski Santo Domingo,,none-female,1.1,brazil,,,,Vera Rechulski Santo Domingo,,1.1,brazil
Anne Werninghaus,,none-female,1.1,brazil,,,,Anne Werninghaus,,1.1,brazil
María Barros Pinheiro,,none-female,1,brazil,,,,Maria Pinheiro,,1,brazil
Iris Fontbona y Familia,,iris,23.3,chile,,,,Iris Fontbona y Familia,,23.3,chile
Julio Ponce Lerou,,julio-ponce,4.1,chile,,,,Julio Ponce Lerou,,4.1,chile
Horst Paulmann y Familia,,horst,3.3,chile,,,,Horst Paulmann y Familia,,3.3,chile
Sebastián Piñera y Familia,,pinera,2.9,chile,,,,Sebastian Piñera y Familia,,2.9,chile
Jean Salata,,jean,2.4,chile,,,,Jean Salata,,2.4,chile
Roberto Angelini Rossi,,roberto-angelini,2,chile,,,,Roberto Angelini Rossi,,2,chile
Álvaro Saieh Bendeck,,alvaro,1.8,chile,,,,Alvaro Saieh Bendeck,,1.8,chile
Patricia Angelini Rossi,,patricia,1.6,chile,,,,Patricia Angelini Rossi,,1.6,chile
Luis Enrique Yarur Rey,,luis-enrique,1.3,chile,,,,Luis Enrique Yarur Rey,,1.3,chile
Luis Carlos Sarmiento,,luis-carlos,11,colombia,,,,Luis Carlos Sarmiento,,11,Colombia
David Vélez,,david-velez,5.2,colombia,,,,David Velez,,5.2,Colombia
Beatriz Dávila de Santo Domingo,,beatriz-davila,3.9,colombia,,,,Beatriz Davila de Santo Domingo,,3.9,Colombia
Jaime Gilinski Bacal,,jaime-gilinski,3.8,colombia,,,,Jaime Gilinski Bacal,,3.8,Colombia
Carlos Ardilla Lulle,,carlos-ardilla,2.3,colombia,,,,Carlos Ardilla Lulle,,2.3,Colombia
Carlos Slim Helu y Familia,,slim,62.8,mexico,,,,Carlos Slim Helu y Familia,,62.8,Mexico
Germán Larrea Mota Velasco y Familia,,german-larrea,25.9,mexico,,,,German Larrea Mota Velasco y Familia,,25.9,Mexico
Ricardo Salinas Pliego y Familia,,ricardo-salinas,12.9,mexico,,,,Ricardo Salinas Pliego y Familia,,12.9,Mexico
Alberto Bailleres González y Familia,,alberto-bailleres,9.2,mexico,,,,Alberto Bailleres Gonzalez y Familia,,9.2,Mexico
Juan Francisco Beckmann Vidal y Familia,,juan-francisco,7,mexico,,,,Juan Francisco Beckmann Vidal y Familia,,7,Mexico
María Asunción Aramburuzabala y Familia,,maria-asuncion,5.8,mexico,,,,Maria Asuncion Aramburuzabala y Familia,,5.8,Mexico
Antonio Del Valle Ruiz y Familia,,antonio-del-valle,3.1,mexico,,,,Antonio Del Valle Ruiz y Familia,,3.1,Mexico
Carlos Hank Rhon,,carlos-hank,2.2,mexico,,,,Carlos Hank Rhon,,2.2,Mexico
Roberto Hernández Ramírez,,roberto,1.9,mexico,,,,Roberto Hernandez Ramirez,,1.9,Mexico
Rufino Vigil González,,rufino,1.7,mexico,,,,Rufino Vigil Gonzalez,,1.7,Mexico
Fernando Chico Pardo,,fernando,1.4,mexico,,,,Fernando Chico Pardo,,1.4,Mexico
Alfredo Harp Helu y Familia,,alfredo-harp-helu-y-familia,1.2,mexico,,,,Alfredo Harp Helu y Familia,,1.2,Mexico
David Penaloza Alanis,,david-penaloza,1,mexico,,,,David Penaloza Alanis,,1,Mexico
Carlos Rodríguez-Pastor,,carlos-rodriguez,5.3,peru,,,,Carlos Rodriguez-Pastor,,5.3,Peru
Vito Rodríguez Rodríguez,,vito-rodriguez,1.4,peru,,,,Vito Rodriguez Rodriguez,,1.4,Peru
Ana María Brescia Cafferata,,ana-maria,1.3,peru,,,,Ana Maria Brescia Cafferata,,1.3,Peru
Eduardo Hochschild,,eduardo-hochschild,1.3,peru,,,,Eduardo Hochschild,,1.3,Peru
Eduardo Belmont Anderson,,eduardo-belmont,1.1,peru,,,,Eduardo Belmont Anderson,,1.1,Peru
Jorge Rodríguez Rodríguez,,jorge-rodriguez,1,peru,,,,Jorge Rodriguez Rodriguez,,1,Peru
Juan Carlos Escotet,,juan-carlos,3.2,venezuela,,,,Juan Carlos Escotet,,3.2,Venezuela
