entity,,,feb. 26 2020,feb. 27 2020,feb. 28 2020,feb. 29 2020,mar. 1 2020,mar. 2 2020,mar. 3 2020,mar. 4 2020,mar. 5 2020,mar. 6 2020,mar. 7 2020,mar. 8 2020,mar. 9 2020,mar. 10 2020,mar. 11 2020,mar. 12 2020,mar. 13 2020,mar. 14 2020,mar. 15 2020,mar. 16 2020,mar. 17 2020,mar. 18 2020,mar. 19 2020,mar. 20 2020,mar. 21 2020,mar. 22 2020,mar. 23 2020,mar. 24 2020,mar. 25 2020,mar. 26 2020,mar. 27 2020,mar. 28 2020,mar. 29 2020,mar. 30 2020,mar. 31 2020,abr. 1 2020,abr. 2 2020,abr. 3 2020,abr. 4 2020,abr. 5 2020,abr. 6 2020,abr. 7 2020,abr. 8 2020,abr. 9 2020,abr. 10 2020,abr. 11 2020,abr. 12 2020,abr. 13 2020,abr. 14 2020,abr. 15 2020,abr. 16 2020,abr. 17 2020,abr. 18 2020,abr. 19 2020,abr. 20 2020,abr. 21 2020,abr. 22 2020,abr. 23 2020,abr. 24 2020,abr. 25 2020,abr. 26 2020,abr. 27 2020,abr. 28 2020,abr. 29 2020,abr. 30 2020,may. 1 2020,may. 2 2020,may. 3 2020,may. 4 2020,may. 5 2020,may. 6 2020,may. 7 2020,may. 8 2020,may. 9 2020,may. 10 2020,may. 11 2020,may. 12 2020,may. 13 2020,may. 14 2020,may. 15 2020,may. 16 2020,may. 17 2020,may. 18 2020,may. 19 2020,may. 20 2020,may. 21 2020,may. 22 2020,may. 23 2020,may. 24 2020,may. 25 2020,may. 26 2020,may. 27 2020,may. 28 2020,may. 29 2020,may. 30 2020,may. 31 2020,jun. 1 2020,jun. 2 2020,jun. 3 2020,jun. 4 2020,jun. 5 2020,jun. 6 2020,jun. 7 2020,jun. 8 2020,jun. 9 2020,jun. 10 2020,jun. 11 2020,jun. 12 2020,jun. 13 2020,jun. 14 2020,jun. 15 2020,jun. 16 2020,jun. 17 2020,jun. 18 2020,jun. 19 2020,jun. 20 2020,jun. 21 2020,jun. 22 2020,jun. 23 2020,jun. 24 2020,jun. 25 2020,jun. 26 2020,jun. 27 2020,jun. 28 2020,jun. 29 2020,jun. 30 2020,jul. 1 2020,jul. 2 2020,jul. 3 2020,jul. 4 2020,jul. 5 2020,jul. 6 2020,jul. 7 2020,jul. 8 2020,jul. 9 2020,jul. 10 2020,jul. 11 2020,jul. 12 2020,jul. 13 2020,jul. 14 2020,jul. 15 2020,jul. 16 2020,jul. 17 2020,jul. 18 2020,jul. 19 2020,jul. 20 2020,jul. 21 2020,jul. 22 2020,jul. 23 2020,jul. 24 2020,jul. 25 2020,jul. 26 2020,jul. 27 2020,jul. 28 2020,jul. 29 2020,jul. 30 2020,jul. 31 2020
Argentina,argentina,#0067ca,0,0,0,0,0,0,0,0,0,0,0,1,1,1,1,1,1,2,2,2,2,2,2,3,3,4,4,4,6,8,12,17,19,20,24,24,31,34,37,43,46,53,60,65,79,82,89,95,98,105,109,115,122,132,134,142,151,159,165,167,185,186,197,207,214,218,225,237,246,260,264,273,282,293,300,300,305,319,329,353,356,363,366,382,393,403,416,433,445,452,467,484,500,508,520,528,539,556,569,583,588,632,648,664,693,717,735,765,785,815,833,854,878,913,929,979,992,1011,1043,1049,1085,1124,1167,1207,1217,1280,1307,1351,1385,1437,1453,1490,1523,1602,1654,1707,1749,1810,1818,1903,1926,2050,2112,2133,2204,2246,2373,2373,2506,2617,2722,2847,2939,2956,3082,3200,3311
Bolivia,bolivia,#0e7a3e,0,0,0,0,0,0,0,0,0,0,0,0,0,0,0,0,0,0,0,0,0,0,0,0,0,0,0,0,0,0,0,0,0,3,6,7,8,9,10,10,11,14,15,18,19,20,24,27,28,28,29,31,31,32,33,34,37,40,43,44,46,50,53,55,59,62,66,71,76,82,86,91,102,106,114,118,122,128,142,152,164,165,169,174,189,199,215,230,240,250,261,274,280,293,300,310,313,343,376,400,415,427,454,465,475,487,512,533,559,585,611,632,659,679,697,715,740,773,820,846,876,913,934,970,1014,1071,1123,1201,1271,1320,1378,1434,1476,1530,1577,1638,1702,1754,1807,1866,1898,1942,1984,2049,2106,2151,2218,2273,2328,2407,2473,2535,2583,2647,2720,2808,2894
Brasil,brazil,#009d2e,0,0,0,0,0,0,0,0,0,0,0,0,0,0,0,0,0,0,0,0,0,1,4,6,11,18,25,34,46,57,77,92,114,136,159,201,241,299,359,432,486,553,667,800,941,1056,1124,1223,1328,1532,1736,1924,2141,2347,2462,2575,2741,2906,3313,3670,4016,4205,4543,5017,5466,5901,6329,6750,7025,7321,7921,8536,9146,9897,10627,11123,11519,12400,13149,13993,14817,15633,16118,16792,17971,18859,20047,21048,22013,22666,23473,24512,25598,26754,27878,28834,29314,29937,31199,32548,34021,35026,35930,36455,37134,38406,39680,40919,41828,42720,43332,43959,45241,46510,47748,48954,49976,50617,51271,52645,53830,54971,55961,57070,57622,58314,59594,60632,61884,63174,64265,64867,65487,66741,67964,69184,70398,71469,72100,72833,74133,75366,76688,77851,78772,79488,80120,81487,82771,84082,85238,86449,87004,87618,88539,90134,91263
Chile,chile,#ff4b5c,0,0,0,0,0,0,0,0,0,0,0,0,0,0,0,0,0,0,0,0,0,0,0,0,0,0,1,2,2,3,4,5,6,7,8,12,16,18,22,27,34,37,43,48,57,65,73,80,82,92,94,105,116,126,133,139,147,160,168,174,181,189,198,207,216,227,234,247,260,270,275,281,285,294,304,312,323,335,346,358,394,421,450,478,509,544,589,630,673,718,761,806,841,890,944,997,1054,1113,1188,1275,1356,1448,1541,2190,2264,2283,2475,2648,2870,3101,3323,3362,3383,3615,3841,4093,4295,4479,4502,4505,4731,4903,5068,5347,5509,5575,5688,5753,5920,6051,6192,6308,6384,6434,6573,6682,6781,6881,6979,7024,7069,7186,7290,8347,8347,8503,8633,8677,8722,8838,8914,9020,9112,9187,9240,9278,9377
Colombia,colombia,#ffdb2d,0,0,0,0,0,0,0,0,0,0,0,0,0,0,0,0,0,0,0,0,0,0,0,0,0,1,2,3,3,4,6,6,6,10,14,16,17,19,25,32,35,46,50,55,69,80,100,109,112,127,131,144,153,166,179,189,196,206,215,225,233,243,253,269,278,293,314,324,340,358,378,397,407,428,445,463,479,493,509,525,546,562,574,592,613,630,652,682,705,727,750,776,803,822,853,890,939,969,1009,1045,1087,1145,1205,1259,1308,1372,1433,1433,1545,1592,1667,1726,1801,1864,1950,2045,2126,2237,2310,2404,2491,2654,2811,2939,3106,3223,3334,3470,3641,3777,3942,4064,4210,4359,4527,4714,4925,5119,5307,5455,5625,5814,6029,6288,6516,6736,6929,7166,7373,7688,7975,8269,8525,8777,9074,9454,9810
Costa Rica,costa-rica,#f93f52,0,0,0,0,0,0,0,0,0,0,0,0,0,0,0,0,0,0,0,0,0,0,1,1,2,2,2,2,2,2,2,2,2,2,2,2,2,2,2,2,2,2,2,2,3,3,3,3,3,3,4,4,4,4,4,6,6,6,6,6,6,6,6,6,6,6,6,6,6,6,6,6,6,6,6,6,7,7,7,8,8,10,10,10,10,10,10,10,10,10,10,10,10,10,10,10,10,10,10,10,10,10,10,10,10,11,12,12,12,12,12,12,12,12,12,12,12,12,12,12,12,12,12,12,15,15,16,17,17,18,18,19,23,23,24,25,26,28,30,31,36,40,42,47,54,62,66,68,71,80,87,98,104,115,125,133,140
Cuba,cuba,red,0,0,0,0,0,0,0,0,0,0,0,0,0,0,0,0,0,0,0,0,0,0,1,1,1,1,1,1,1,1,2,2,3,3,4,6,6,6,6,6,8,9,11,12,15,15,16,18,21,21,24,27,31,32,34,36,38,40,43,49,51,54,56,58,58,61,64,66,67,69,69,69,73,74,74,77,77,78,79,79,79,79,79,79,79,79,80,81,81,82,82,82,82,82,82,83,83,83,83,83,83,83,83,83,83,83,83,84,84,84,84,84,84,84,85,85,85,85,85,85,85,85,85,86,86,86,86,86,86,86,86,86,86,86,86,86,86,87,87,87,87,87,87,87,87,87,87,87,87,87,87,87,87,87,87,87,87
Dominicana,dominicana,#042d61,0,0,0,0,0,0,0,0,0,0,0,0,0,0,0,0,0,0,0,0,0,0,0,0,2,3,3,3,6,10,10,20,28,39,42,51,57,60,68,77,82,86,98,108,118,126,135,173,177,183,189,196,200,217,226,235,245,260,265,267,273,278,278,286,293,301,313,326,333,346,354,362,373,380,385,388,393,402,409,422,424,424,428,434,441,446,448,456,458,458,460,468,474,485,488,498,502,502,515,516,520,525,536,538,539,544,550,561,568,577,592,605,615,633,635,647,655,662,669,675,691,698,712,718,726,733,747,754,765,775,786,794,804,821,829,842,864,880,897,903,910,929,941,942,971,981,993,999,1005,1006,1036,1055,1063,1083,1101,1123,1146
Ecuador,ecuador,#ffc300,0,0,0,0,0,0,0,0,0,0,0,0,0,0,0,0,0,1,2,2,2,2,3,3,7,7,14,18,27,29,34,41,48,58,62,79,120,120,145,172,180,191,220,242,272,297,315,333,355,355,388,403,421,456,474,507,520,537,560,576,576,576,663,871,883,900,1063,1371,1564,1569,1569,1618,1654,1704,1717,2127,2145,2327,2334,2338,2594,2688,2736,2799,2839,2888,2939,3056,3096,3108,3203,3203,3275,3313,3334,3334,3358,3394,3438,3486,3486,3534,3608,3621,3642,3690,3720,3720,3828,3874,3896,3929,3970,4007,4087,4156,4199,4223,4223,4274,4309,4343,4406,4424,4429,4502,4527,4576,4639,4700,4769,4781,4821,4873,4900,4939,4983,5031,5047,5063,5130,5158,5207,5250,5282,5313,5318,5366,5418,5439,5468,5507,5515,5532,5584,5623,5657
Guatemala,guatemala,#008cc3,0,0,0,0,0,0,0,0,0,0,0,0,0,0,0,0,0,0,0,1,1,1,1,1,1,1,1,1,1,1,1,1,1,1,1,1,1,1,1,2,3,3,3,3,3,3,3,5,5,5,5,7,7,7,7,7,8,10,11,11,13,15,15,16,16,16,16,17,17,19,19,21,23,24,24,26,26,27,29,29,30,33,35,38,43,45,48,51,55,58,59,63,68,80,90,102,108,116,123,143,158,216,230,252,267,289,316,334,351,367,384,399,418,432,449,483,514,531,547,582,601,623,672,706,727,746,773,817,843,880,920,947,981,1004,1053,1092,1139,1172,1219,1244,1302,1350,1404,1443,1449,1485,1502,1531,1573,1632,1669,1669,1734,1734,1761,1835,1867
Honduras,honduras,#0074d2,0,0,0,0,0,0,0,0,0,0,0,0,0,0,0,0,0,0,0,0,0,0,0,0,0,0,0,0,0,0,1,1,2,3,7,10,14,15,15,22,22,22,22,23,23,24,25,25,26,31,35,41,46,46,46,46,46,47,47,47,59,61,61,66,71,75,75,76,82,82,93,99,105,107,108,108,116,121,123,133,134,138,142,146,147,151,156,167,174,180,182,188,194,196,199,201,212,217,225,234,243,248,250,258,262,271,290,294,306,310,312,322,330,336,343,349,358,363,395,405,417,426,471,479,479,485,497,542,591,605,629,639,656,677,694,704,750,771,774,789,807,825,835,835,891,900,935,988,1006,1011,1061,1098,1116,1166,1214,1259,1312
Haití,haiti,#f42f4b,0,0,0,0,0,0,0,0,0,0,0,0,0,0,0,0,0,0,0,0,0,0,0,0,0,0,0,0,0,0,0,0,0,0,0,0,0,0,0,0,0,1,1,1,2,2,2,3,3,3,3,3,3,3,3,3,4,4,5,5,6,6,6,6,6,8,8,8,8,11,12,12,12,12,12,15,16,18,18,20,20,20,20,21,22,22,25,25,26,27,31,33,34,35,35,41,44,45,48,50,50,50,50,51,54,56,58,64,64,70,73,76,80,82,84,87,88,88,88,89,92,96,98,100,104,105,105,107,110,110,113,113,113,117,123,123,135,139,139,141,143,145,145,146,146,146,146,154,154,154,156,156,157,158,158,159,161
México,mexico,#006843,0,0,0,0,0,0,0,0,0,0,0,0,0,0,0,0,0,0,0,0,0,0,0,0,2,2,2,4,5,5,8,12,16,20,28,29,37,50,60,79,94,125,141,174,194,233,273,296,332,406,449,486,546,650,686,712,857,970,1069,1221,1305,1351,1434,1569,1732,1859,1972,2061,2154,2271,2507,2704,2961,3160,3353,3465,3573,3926,4220,4477,4767,5045,5177,5332,5666,6090,6510,6989,7179,7394,7633,8134,8597,9044,9415,9779,9930,10167,10637,11728,12545,13170,13511,13699,14053,14649,15357,15944,16448,16872,17141,17580,18310,19080,19747,20394,20781,21825,22584,23377,24342,25060,25779,26381,26648,27121,27769,28510,29189,29843,30366,30639,31119,32014,32796,33526,34191,34730,35006,35449,36327,36906,37574,38310,38888,39184,39485,40400,41190,41908,42645,43374,43680,44022,44876,45361,46000
Nicaragua,nicaragua,#0067ca,0,0,0,0,0,0,0,0,0,0,0,0,0,0,0,0,0,0,0,0,0,0,0,0,0,0,0,0,0,0,0,1,1,1,1,1,1,1,1,1,1,1,1,1,1,1,1,1,1,1,1,1,1,1,1,2,2,2,2,3,3,3,3,3,4,4,4,4,5,5,5,5,5,5,5,5,5,8,8,8,8,8,8,8,8,8,8,17,17,17,17,35,35,35,35,35,35,35,46,46,46,46,46,46,46,46,55,55,55,55,55,55,64,64,64,64,64,64,64,74,74,74,74,74,74,74,83,83,83,83,83,83,83,91,91,91,91,91,91,91,99,99,99,99,99,99,99,108,108,108,108,108,108,108,116,116,116
Panamá,panama,#0051b9,0,0,0,0,0,0,0,0,0,0,0,0,0,0,1,1,1,1,1,1,1,1,1,1,1,3,3,6,6,6,9,14,17,24,26,30,32,37,41,46,54,55,59,63,66,74,79,87,94,95,103,109,116,120,126,136,141,144,146,154,159,165,167,176,178,188,192,197,200,203,210,218,225,231,237,244,249,252,256,260,266,269,275,279,281,287,291,295,299,306,310,313,315,320,326,330,336,344,352,357,363,370,386,393,398,403,413,418,421,429,437,448,457,470,475,485,493,501,521,536,547,564,575,592,604,620,631,645,667,698,720,747,770,799,819,839,863,893,909,932,960,982,1000,1038,1071,1096,1127,1159,1180,1209,1250,1275,1294,1322,1349,1374,1397
Perú,peru,#fc0023,0,0,0,0,0,0,0,0,0,0,0,0,0,0,0,0,0,0,0,0,0,0,0,2,3,5,5,5,7,8,9,11,16,18,24,30,47,55,61,73,83,92,107,121,138,169,181,193,193,230,254,274,300,348,400,445,484,530,572,634,700,728,782,854,943,1051,1124,1200,1286,1344,1444,1533,1627,1714,1814,1889,1961,2057,2169,2267,2393,2523,2648,2789,2914,3024,3148,3244,3373,3456,3629,3788,3983,4099,4230,4371,4506,4634,4634,4894,5031,5162,5301,5465,5571,5738,5903,6109,6308,6498,6688,6860,7056,7257,7461,7660,7861,8045,8045,8404,8586,8761,8939,9135,9317,9504,9677,9860,10045,10226,10412,10589,10772,10952,11133,11314,11500,11682,11870,12054,12229,12417,12615,12799,12998,13187,13384,13579,13767,17654,17843,18030,18229,18418,18612,18816,19021
Paraguay,paraguay,#008cc3,0,0,0,0,0,0,0,0,0,0,0,0,0,0,0,0,0,0,0,0,0,0,0,0,1,1,1,1,3,3,3,3,3,3,3,3,3,3,3,3,5,5,5,5,6,6,6,6,7,8,8,8,8,8,8,8,9,9,9,9,9,9,9,9,9,10,10,10,10,10,10,10,10,10,10,10,10,10,11,11,11,11,11,11,11,11,11,11,11,11,11,11,11,11,11,11,11,11,11,11,11,11,11,11,11,11,11,11,11,11,11,12,13,13,13,13,13,13,13,13,13,13,13,15,15,16,17,19,19,19,20,20,20,20,20,20,20,21,22,25,25,25,27,28,29,31,33,35,36,36,38,40,41,43,45,46,47
El Salvador,salvador,#0098d3,0,0,0,0,0,0,0,0,0,0,0,0,0,0,0,0,0,0,0,0,0,0,0,0,0,0,0,0,0,0,0,0,0,0,0,1,2,2,3,3,3,4,4,5,6,6,6,6,6,6,6,6,7,7,7,7,7,8,8,8,8,8,8,9,9,10,10,11,12,13,14,15,15,16,17,17,18,20,20,23,25,26,30,30,31,32,33,33,35,35,36,36,39,39,43,46,46,46,49,51,52,53,53,55,58,60,64,68,72,72,74,76,78,82,86,93,98,107,107,113,126,133,143,152,164,164,174,182,191,210,210,217,223,229,235,243,249,254,267,278,278,298,309,324,324,344,352,363,363,372,390,390,408,408,417,430,439
Uruguay,uruguay,#0035ab,0,0,0,0,0,0,0,0,0,0,0,0,0,0,0,0,0,0,0,0,0,0,0,0,0,0,0,0,0,0,0,0,0,1,1,1,2,4,4,5,6,6,7,7,7,7,7,8,8,8,9,9,9,9,10,10,12,12,12,12,14,15,15,15,15,17,17,17,17,17,17,17,17,18,18,19,19,19,19,19,19,19,20,20,20,20,20,20,22,22,22,22,22,22,22,22,22,23,23,23,23,23,23,23,23,23,23,23,23,23,23,23,24,24,24,24,25,25,25,25,26,26,26,26,27,27,27,28,28,28,28,28,29,29,29,29,29,30,31,31,31,31,31,32,33,33,33,33,34,34,34,34,34,35,35,35,35
Venezuela,venezuela,#fc0023,0,0,0,0,0,0,0,0,0,0,0,0,0,0,0,0,0,0,0,0,0,0,0,0,0,0,0,0,0,0,1,1,1,1,3,3,3,3,3,5,5,5,7,8,9,9,9,9,9,9,9,9,9,9,9,9,10,10,10,10,10,10,10,10,10,10,10,10,10,10,10,10,10,10,10,10,10,10,10,10,10,10,10,10,10,10,10,10,10,10,10,11,11,11,14,14,14,17,18,20,20,20,22,22,22,23,23,23,23,24,25,26,27,27,28,30,33,33,35,35,38,39,41,42,44,48,51,54,57,59,62,64,68,71,75,80,83,85,89,93,96,100,104,107,110,112,116,120,120,129,134,134,142,146,151,151,158
