entity,,,feb. 26 2020,feb. 27 2020,feb. 28 2020,feb. 29 2020,mar. 1 2020,mar. 2 2020,mar. 3 2020,mar. 4 2020,mar. 5 2020,mar. 6 2020,mar. 7 2020,mar. 8 2020,mar. 9 2020,mar. 10 2020,mar. 11 2020,mar. 12 2020,mar. 13 2020,mar. 14 2020,mar. 15 2020,mar. 16 2020,mar. 17 2020,mar. 18 2020,mar. 19 2020,mar. 20 2020,mar. 21 2020,mar. 22 2020,mar. 23 2020,mar. 24 2020,mar. 25 2020,mar. 26 2020,mar. 27 2020,mar. 28 2020,mar. 29 2020,mar. 30 2020,mar. 31 2020,abr. 1 2020,abr. 2 2020,abr. 3 2020,abr. 4 2020,abr. 5 2020,abr. 6 2020,abr. 7 2020,abr. 8 2020,abr. 9 2020,abr. 10 2020,abr. 11 2020,abr. 12 2020,abr. 13 2020,abr. 14 2020,abr. 15 2020,abr. 16 2020,abr. 17 2020,abr. 18 2020,abr. 19 2020,abr. 20 2020,abr. 21 2020,abr. 22 2020,abr. 23 2020,abr. 24 2020,abr. 25 2020,abr. 26 2020,abr. 27 2020,abr. 28 2020,abr. 29 2020,abr. 30 2020,may. 1 2020,may. 2 2020,may. 3 2020,may. 4 2020,may. 5 2020,may. 6 2020,may. 7 2020,may. 8 2020,may. 9 2020,may. 10 2020,may. 11 2020,may. 12 2020,may. 13 2020,may. 14 2020,may. 15 2020,may. 16 2020,may. 17 2020,may. 18 2020,may. 19 2020,may. 20 2020,may. 21 2020,may. 22 2020,may. 23 2020,may. 24 2020,may. 25 2020,may. 26 2020,may. 27 2020,may. 28 2020,may. 29 2020,may. 30 2020,may. 31 2020,jun. 1 2020,jun. 2 2020,jun. 3 2020,jun. 4 2020,jun. 5 2020,jun. 6 2020,jun. 7 2020,jun. 8 2020,jun. 9 2020,jun. 10 2020,jun. 11 2020,jun. 12 2020,jun. 13 2020,jun. 14 2020,jun. 15 2020,jun. 16 2020,jun. 17 2020,jun. 18 2020,jun. 19 2020,jun. 20 2020,jun. 21 2020,jun. 22 2020,jun. 23 2020,jun. 24 2020,jun. 25 2020,jun. 26 2020,jun. 27 2020,jun. 28 2020,jun. 29 2020,jun. 30 2020,jul. 1 2020,jul. 2 2020,jul. 3 2020,jul. 4 2020,jul. 5 2020,jul. 6 2020,jul. 7 2020,jul. 8 2020,jul. 9 2020,jul. 10 2020,jul. 11 2020,jul. 12 2020,jul. 13 2020,jul. 14 2020,jul. 15 2020,jul. 16 2020,jul. 17 2020,jul. 18 2020,jul. 19 2020,jul. 20 2020,jul. 21 2020,jul. 22 2020,jul. 23 2020,jul. 24 2020,jul. 25 2020,jul. 26 2020,jul. 27 2020,jul. 28 2020,jul. 29 2020,jul. 30 2020,jul. 31 2020
Argentina,argentina,#0067ca,0,0,0,0,0,0,0,1,1,2,8,9,12,12,19,19,31,34,45,56,65,79,97,128,158,225,266,301,387,502,589,690,745,820,966,966,1133,1133,1265,1451,1554,1628,1715,1795,1894,1975,2137,2203,2272,2432,2432,2560,2658,2828,2930,3020,3132,3276,3423,3423,3767,3767,3990,4114,4272,4415,4519,4668,4770,4874,5007,5195,5358,5598,5763,5776,6021,6550,6866,7121,7466,7792,7792,8358,8796,9270,9918,10636,11340,12063,12615,13215,13920,14689,15406,16201,16838,17402,18306,19255,19255,21024,22007,22781,23607,24748,25987,27360,28751,30282,31564,32772,34146,35539,35539,39557,41191,42772,44918,44918,49838,52444,52444,57731,57731,62255,64517,67184,69928,72773,72773,75363,77802,80434,83413,87017,90680,94047,97496,100153,103252,106897,111147,114770,119288,122511,126742,130761,136105,141887,148014,153507,162513,162513,167403,173342,178983
Bolivia,bolivia,#0e7a3e,0,0,0,0,0,0,0,0,0,0,0,0,0,0,0,2,3,10,10,10,11,12,12,15,19,20,27,28,32,39,61,74,81,96,107,115,123,132,139,157,183,194,210,264,268,276,300,330,354,397,441,465,493,520,564,598,609,672,703,807,866,950,1014,1053,1110,1167,1229,1470,1594,1681,1802,1886,2081,2266,2437,2556,2831,2964,3148,3372,3577,3826,4088,4263,4481,4919,5187,5579,5915,6263,6660,7136,7768,8387,8731,9592,9982,10531,10991,11638,12245,12728,13358,13643,13949,14644,15281,16165,16929,17842,18459,19073,19883,20685,21499,22476,23512,24388,25493,26389,27487,28503,29423,30676,31524,32125,33219,34227,35528,36818,38071,39297,40509,41545,42984,44113,45565,47200,48187,49250,50867,52218,54156,56102,58138,59582,60991,62357,64135,65252,66456,68281,69429,71811,72327,73534,75234
Brasil,brazil,#009d2e,1,1,1,1,2,2,2,2,3,8,13,13,25,25,34,52,77,98,121,200,234,291,428,621,904,1128,1546,1891,2201,2433,2915,3417,3904,4256,4579,5717,6836,7910,9056,10278,11130,12056,13717,15927,17857,19638,20727,22169,23430,25262,28320,30425,33682,36599,38654,40581,43079,45757,49492,52995,58509,61888,66501,71886,78162,85380,91589,96559,101147,107780,114715,125218,135106,145328,155939,162699,168331,177589,188974,202918,218223,233142,241080,254220,271628,291579,310087,330890,347398,363211,374898,391222,411821,438238,465166,498440,514849,526447,555383,584016,614932,645762,672837,691758,707412,739503,772416,802828,828810,850514,867624,888271,923189,955377,978142,1032913,1067579,1085038,1106470,1145906,1188631,1228114,1274974,1313667,1344143,1368195,1402041,1448753,1496858,1539081,1577004,1603055,1623284,1668589,1713160,1755779,1800827,1839850,1864681,1884967,1926824,1966748,2012151,2046328,2074860,2098389,2118646,2159654,2227514,2287475,2343366,2394513,2419091,2442375,2483191,2552265,2610102
Chile,chile,#ff4b5c,0,0,0,0,0,0,0,1,3,4,5,5,10,13,17,23,33,43,61,75,156,201,238,342,434,537,632,746,922,1142,1306,1610,1909,2139,2449,2738,3031,3404,3737,4161,4471,4815,5116,5546,5972,6501,6927,7213,7525,7917,8273,8807,9252,9730,10088,10507,10832,11296,11812,12306,12858,13331,13813,14365,14885,16023,17008,18435,19663,20643,22016,23048,24581,25972,27219,28866,30063,31721,34381,37040,39542,41428,43781,46059,49579,53617,57581,61857,65393,69102,73997,77961,82289,86943,90638,94858,99688,105159,108686,113628,118292,122499,127745,134150,138846,142759,148496,154092,160846,167355,174293,179436,184449,220628,225103,231393,236748,242355,246963,250767,254416,259064,263360,267766,271982,275999,279393,282043,284541,288089,291847,295532,298557,301019,303083,306216,309274,312029,315041,317657,319493,321205,323698,326539,326539,330930,333029,334683,336402,338759,341304,343592,345790,347923,349800,351575,353536
Colombia,colombia,#ffdb2d,0,0,0,0,0,0,0,0,0,0,1,1,1,3,3,9,9,16,34,45,57,65,102,128,158,210,235,306,378,470,491,539,608,702,798,906,1065,1161,1267,1406,1485,1579,1780,2054,2223,2473,2709,2776,2852,2979,3105,3233,3439,3621,3792,3977,4149,4356,4561,4881,5142,5379,5597,5949,6211,6507,7006,7285,7668,7973,8613,8959,9456,10051,10495,11063,11613,12272,12930,13610,14216,14939,15574,16295,16935,17687,18330,19131,20177,21175,21981,23003,24104,25366,26688,28236,29383,30493,31833,33354,35120,36635,38027,39236,40719,42078,43682,43682,46858,48746,50939,53063,54931,57046,60217,63276,65633,68652,71183,73572,77113,80599,84442,88591,91769,95043,97846,102009,106110,109505,113389,117110,120281,124494,128638,133973,140776,145362,150445,154227,159898,165169,173206,182140,190700,197278,204005,211038,218428,226373,233541,240795,248976,257101,267385,276055,286020
Costa Rica,costa-rica,#f93f52,0,0,0,0,0,0,0,0,0,0,1,1,5,9,13,22,23,26,27,35,41,50,69,87,113,117,134,158,177,201,231,263,295,314,330,347,375,396,416,435,454,467,483,502,539,558,577,595,612,618,626,642,649,655,660,662,669,681,687,687,693,695,697,705,713,719,725,733,739,742,755,761,765,773,780,792,801,804,815,830,843,853,863,866,882,897,903,911,918,930,951,956,984,1000,1022,1047,1056,1084,1105,1157,1194,1228,1263,1318,1342,1375,1461,1538,1612,1662,1715,1744,1769,1871,1871,2058,2127,2213,2277,2368,2515,2684,2836,2979,3130,3269,3459,3753,4023,4311,4621,4996,5241,5486,5836,6485,6845,7231,7596,8036,8482,8986,9546,9969,10551,11114,11534,11811,12361,13129,13669,14600,15229,15841,16344,16800,17290
Cuba,cuba,red,0,0,0,0,0,0,0,0,0,0,0,0,0,0,0,3,3,4,4,4,4,7,11,16,21,25,35,40,48,57,67,80,119,139,170,186,212,233,269,288,320,350,396,457,515,564,620,669,726,766,814,862,923,986,1035,1087,1137,1189,1235,1285,1337,1369,1389,1437,1467,1501,1537,1611,1649,1668,1685,1703,1729,1741,1754,1766,1783,1804,1810,1830,1840,1862,1872,1881,1887,1900,1908,1916,1931,1941,1947,1963,1974,1983,2005,2025,2045,2083,2092,2107,2119,2133,2173,2191,2200,2205,2211,2219,2233,2238,2248,2262,2273,2280,2295,2305,2309,2312,2315,2318,2319,2321,2325,2330,2332,2340,2341,2348,2353,2361,2369,2372,2380,2395,2399,2403,2413,2420,2426,2428,2432,2438,2440,2444,2445,2446,2446,2449,2462,2466,2469,2478,2495,2532,2555,2588,2597
Dominicana,dominicana,#042d61,0,0,0,0,0,1,1,1,1,1,2,2,2,5,5,5,5,11,11,11,11,11,21,21,34,112,202,245,312,392,488,581,719,859,901,1109,1284,1380,1488,1578,1745,1828,1956,2111,2349,2620,2759,2967,3167,3286,3614,3755,4126,4335,4680,4964,5044,5300,5543,5749,5926,6135,6135,6416,6652,6972,7288,7578,7954,8235,8480,8807,9095,9376,9882,10347,10634,10900,11196,11320,11739,11893,12314,12725,13223,13477,13657,13989,14422,14422,15073,15264,15723,16068,16531,16908,17285,17572,17752,18040,18319,18708,19195,19600,20126,20415,20808,21437,22008,22572,22962,23271,23686,24105,24645,25068,25778,26677,27370,27936,28631,29141,29764,30619,31373,31816,32568,33387,34197,35148,36184,37425,38128,38430,39588,40790,41915,43114,44532,45506,46305,47671,48743,50113,51519,52855,53956,54797,56043,57615,59077,60896,62908,64156,64690,66182,67915
Ecuador,ecuador,#ffc300,0,0,0,0,1,6,7,7,10,13,13,13,14,15,17,17,17,23,28,37,58,111,168,199,426,532,789,981,1082,1211,1403,1627,1835,1890,1966,2302,2758,3163,3368,3465,3646,3747,3995,4450,4965,7161,7257,7466,7529,7603,7858,8225,8450,9022,9468,10128,10398,10850,11183,11183,11183,22719,23240,24258,24675,24934,26336,27464,29538,31881,31881,31881,31881,31881,31881,31881,31881,31881,31881,31881,31881,32763,33182,33582,34151,34854,35306,35828,36258,36756,37355,37355,38103,38471,38571,38571,39098,39994,40414,40966,40966,41575,42728,43120,43378,43917,44440,44440,45778,46356,46751,47322,47943,48490,49097,49731,50183,50640,50640,51643,52334,53156,53856,54574,55255,55665,56432,58257,59468,60657,61535,61958,62380,63245,64221,65018,65801,67209,67870,68459,69570,70329,71365,72444,73382,74013,74620,76217,77257,78148,79049,80036,80694,81161,82279,83193,84370
Guatemala,guatemala,#008cc3,0,0,0,0,0,0,0,0,0,0,0,0,0,0,0,0,0,0,1,1,6,6,8,9,13,17,19,20,21,24,25,32,34,36,36,38,46,47,50,61,70,74,80,87,126,137,153,156,167,180,196,214,235,257,289,294,316,342,384,430,473,500,530,557,585,599,644,688,703,730,763,798,832,900,967,1052,1114,1199,1342,1518,1643,1763,1912,2001,2133,2265,2512,2743,3054,3424,3760,3954,4145,4348,4607,4739,5087,5336,5586,5760,6154,6485,6792,7055,7502,7866,8221,8561,8982,9491,9845,10272,10706,11251,11868,12509,12755,13145,13769,14540,14819,15619,15828,16397,16930,17409,18096,19011,20072,21293,22501,23248,23972,24787,25411,26658,27619,28598,29355,29742,30872,32074,32939,33809,38042,38677,39039,40229,41135,42192,43283,44492,45053,45053,45059,47605,48826
Honduras,honduras,#0074d2,0,0,0,0,0,0,0,0,0,0,0,0,0,0,0,2,2,3,3,6,8,9,12,24,24,26,27,30,36,52,67,95,110,139,141,172,219,222,264,268,298,305,312,343,382,392,393,397,407,419,426,442,457,472,477,494,510,519,519,591,627,661,693,738,771,804,899,1010,1055,1178,1270,1461,1685,1771,1830,1972,2006,2080,2255,2318,2460,2565,2646,2798,2955,3100,3204,3477,3743,3950,4189,4401,4640,4752,4886,5094,5202,5362,5527,5690,5880,5971,6155,6327,6450,6935,7360,7669,8132,8455,8858,9178,9656,10299,10739,11258,12250,12769,13356,13943,14571,15366,15994,17007,18082,18818,19558,20262,21120,22116,22921,23943,24665,25428,25978,26384,27053,27583,28090,28579,29106,30036,30867,30867,32793,33835,34611,35345,36102,36902,37559,38438,39276,39741,40460,40944,41426
Haití,haiti,#f42f4b,0,0,0,0,0,0,0,0,0,0,0,0,0,0,0,0,0,0,0,0,0,0,0,2,2,2,2,5,7,8,8,8,8,15,15,15,16,18,18,21,21,24,25,27,30,31,33,33,40,40,41,43,44,44,47,57,58,62,72,72,72,72,76,76,76,81,85,85,85,100,101,108,129,146,151,182,209,219,234,273,310,358,456,533,596,596,734,812,865,958,1063,1174,1320,1443,1584,1865,2124,2226,2507,2640,2640,2924,3072,3334,3538,3662,3796,3941,3941,4165,4309,4441,4547,4688,4916,4980,5077,5211,5211,5324,5429,5543,5722,5777,5847,5933,5975,6040,6101,6230,6294,6333,6371,6432,6486,6486,6617,6690,6727,6727,6831,6902,6948,6975,7053,7053,7063,7146,7167,7197,7260,7297,7315,7340,7371,7378,7412
México,mexico,#006843,0,0,0,2,4,5,5,5,5,5,5,5,7,7,7,11,16,26,41,53,82,93,118,164,203,251,316,367,405,475,585,717,848,993,1094,1215,1378,1510,1688,1890,2143,2439,2785,3181,3441,3844,4219,4661,5014,5399,5847,6297,6875,7497,8261,8772,9501,10544,11633,12872,13842,14677,15529,16752,17799,19224,20739,22088,23471,24905,26025,27634,29616,31522,33460,35022,36327,38324,40186,42595,45032,47144,49219,51633,54346,56594,59567,62527,65856,68620,71105,74560,78023,81400,84627,87512,90664,93435,97326,101238,105680,110026,113619,117103,120102,124301,129184,133974,139196,142690,146837,150264,154863,159793,165455,170485,175202,180545,185122,191410,196847,202951,208392,212802,216852,220657,226089,231770,238511,245251,252165,256848,261750,268008,275003,282283,289174,295268,299750,304435,311486,317635,324041,331298,338913,344224,349396,356255,362274,370712,378285,385036,390516,395489,402697,408449,416179
Nicaragua,nicaragua,#0067ca,0,0,0,0,0,0,0,0,0,0,0,0,0,0,0,0,0,0,0,0,0,0,1,1,2,2,2,2,2,2,2,2,4,4,4,4,5,5,5,5,5,6,6,6,6,7,7,9,9,9,9,9,9,9,9,9,10,10,10,11,12,13,13,13,14,14,14,14,14,15,16,16,16,16,16,16,16,25,25,25,25,25,25,25,25,25,25,279,279,279,279,759,759,759,759,759,759,759,1118,1118,1118,1118,1309,1309,1309,1309,1464,1464,1655,1655,1655,1655,1823,2014,2014,2014,2014,2014,2014,2170,2170,2170,2170,2170,2170,2170,2519,2519,2519,2519,2519,2519,2519,2846,2846,2846,2846,2846,2846,2846,3147,3147,3147,3147,3147,3147,3147,3439,3439,3439,3439,3439,3439,3439,3672,3672,3672
Panamá,panama,#0051b9,0,0,0,0,0,0,0,0,0,0,0,0,0,1,7,14,27,36,43,43,69,86,109,137,200,245,313,345,443,588,674,786,901,989,1075,1181,1317,1475,1673,1801,1988,2100,2249,2528,2752,2974,3234,3400,3472,3574,3751,4016,4210,4273,4467,4658,4821,4992,5166,5338,5538,5779,6021,6200,6378,6532,6720,7090,7197,7387,7523,7731,7868,8070,8282,8448,8616,8783,8944,9118,9268,9449,9606,9726,9867,9977,10116,10267,10577,10926,11183,11447,11728,12131,12531,13018,13463,13837,14095,14609,15044,15463,16004,16425,16854,17233,17889,18586,19211,20059,20686,21422,21962,22597,23351,24274,25222,26030,26752,27314,28030,29037,29905,30658,31686,32785,33550,34463,35237,35995,36983,38149,39334,40291,41251,42216,43257,44332,45633,47173,48096,49243,50373,51408,52261,53468,54426,55153,55906,56817,57993,58864,60296,61442,62223,63269,64191
Perú,peru,#fc0023,0,0,0,0,0,0,0,0,0,0,1,1,7,9,11,17,22,38,43,71,86,117,145,234,263,318,363,395,416,558,580,635,671,852,950,1065,1323,1414,1595,1746,2281,2561,2954,4342,5256,5897,6848,7519,7519,10303,11475,12491,13489,14420,15628,16325,17837,19250,20914,21648,25331,27517,28699,31190,33931,36976,40459,42534,45928,47372,51189,54817,58526,61847,65015,67307,68822,72059,76306,80604,84495,88541,92273,94933,99483,104020,108769,111698,115754,119959,123979,129751,135905,141779,148285,155671,164476,170039,170039,178914,183198,187400,191758,196515,199696,203736,208823,214788,220749,225132,229736,232992,237156,240908,244388,247925,251338,254936,254936,260810,264689,268602,272364,275989,279419,282365,285213,288477,292004,295599,299080,302718,305703,309278,312911,316448,319646,322710,326326,330123,333867,337724,341586,345537,349500,353590,357681,362087,366550,371096,375961,379884,384797,389717,395005,400683,407492
Paraguay,paraguay,#008cc3,0,0,0,0,0,0,0,0,0,0,0,1,1,1,5,5,6,7,7,8,9,11,11,13,18,22,22,27,37,41,52,56,59,64,65,69,69,77,96,104,113,113,115,124,129,133,134,147,159,161,174,174,202,202,206,208,213,213,220,223,228,228,230,239,249,266,333,370,396,415,431,440,462,563,689,713,724,737,740,754,759,778,786,788,829,833,836,838,850,862,865,877,884,900,917,964,986,995,1013,1070,1086,1087,1090,1135,1145,1187,1202,1230,1254,1261,1289,1289,1303,1308,1330,1336,1362,1379,1392,1422,1528,1569,1711,1942,2127,2191,2221,2260,2303,2349,2385,2427,2456,2502,2554,2638,2736,2820,2948,2980,3074,3198,3342,3457,3629,3721,3748,3817,4000,4113,4224,4328,4444,4548,4674,4866,5207
El Salvador,salvador,#0098d3,0,0,0,0,0,0,0,0,0,0,0,0,0,0,0,0,0,0,0,0,0,0,1,1,3,3,3,5,9,13,13,13,19,30,32,32,41,46,56,62,69,78,78,103,117,118,118,125,149,159,159,164,177,190,201,218,225,237,250,261,298,298,323,345,377,424,446,446,555,587,587,695,695,784,889,958,998,1037,1112,1210,1265,1265,1338,1413,1498,1571,1640,1725,1819,1915,1983,2042,2109,2194,2278,2517,2517,2582,2653,2705,2781,2849,2934,3015,3104,3191,3274,3481,3481,3603,3720,3826,3941,4066,4200,4329,4626,4626,4808,4973,5150,5336,5517,5934,5934,6173,6438,6736,7000,7267,7507,7777,8027,8307,8566,8844,9142,9391,9674,9978,10303,10645,10957,11207,11508,11846,12207,12582,12975,13377,13792,14221,14630,15035,15446,15841,16230
Uruguay,uruguay,#0035ab,0,0,0,0,0,0,0,0,0,0,0,0,0,0,0,0,0,0,6,8,29,50,79,94,110,135,158,162,189,217,238,238,259,295,324,330,341,359,371,390,407,411,417,426,433,446,453,465,472,483,493,502,508,517,528,535,543,549,557,563,596,606,620,625,630,643,648,652,655,657,670,673,684,694,702,707,711,717,719,724,732,733,734,737,738,746,749,753,764,769,787,789,803,811,816,821,823,825,826,828,832,834,845,845,845,846,847,847,847,847,848,848,849,849,850,853,859,876,882,885,902,907,919,924,929,932,936,943,947,952,955,956,960,965,974,977,985,986,987,989,997,1009,1009,1037,1044,1054,1064,1096,1117,1141,1166,1174,1192,1202,1218,1237,1243
Venezuela,venezuela,#fc0023,0,0,0,0,0,0,0,0,0,0,0,0,0,0,0,0,0,0,10,15,33,33,33,33,36,36,36,84,91,106,107,119,119,119,135,135,143,144,144,144,148,159,166,167,171,175,175,181,189,193,197,204,227,227,256,256,285,288,298,318,323,325,329,329,331,333,335,345,357,361,367,379,381,388,402,414,422,423,440,455,459,504,541,618,749,824,882,944,944,1121,1177,1211,1245,1327,1369,1459,1510,1662,1819,1952,2087,2145,2316,2377,2473,2632,2738,2814,2879,2904,2978,3062,3150,3150,3484,3591,3790,3918,4048,4186,4365,4563,4779,5130,5297,5530,5832,6062,6273,6537,6750,7169,7411,7693,8010,8372,8803,9178,9465,9707,10010,10428,10854,11191,11483,11891,12334,12774,12774,13613,14263,14263,15463,15988,16571,16571,17859
