peliculas,Year,,,1977,1978,1979,1980,1981,1982,1983,1984,1985,1986,1987,1988,1989,1990,1991,1992,1993,1994,1995,1996,1997,1998,1999,2000,2001,2002,2003,2004,2005,2006,2007,2008,2009,2010,2011,2012,2013,2014,2015,2016,2017,2018,2019,2020
Star Wars: Episode IV - A New Hope,1977,starwars4,#79bee8,503015849,503015849,503015849,503015849,503015849,503015849,503015849,503015849,503015849,503015849,503015849,503015849,503015849,503015849,503015849,503015849,503015849,503015849,503015849,503015849,503015849,503015849,503015849,503015849,503015849,503015849,503015849,503015849,503015849,503015849,503015849,503015849,503015849,503015849,503015849,503015849,503015849,503015849,503015849,503015849,503015849,503015849,503015849,503015849
Close Encounters of the Third Kind,1977,closeencounters,#0e7a3e,288095460,288095460,288095460,288095460,288095460,288095460,288095460,288095460,288095460,288095460,288095460,288095460,288095460,288095460,288095460,288095460,288095460,288095460,288095460,288095460,288095460,288095460,288095460,288095460,288095460,288095460,288095460,288095460,288095460,288095460,288095460,288095460,288095460,288095460,288095460,288095460,288095460,288095460,288095460,288095460,288095460,288095460,288095460,288095460
Saturday Night Fever,1977,saturdaynight,#009d2e,237113184,237113184,237113184,237113184,237113184,237113184,237113184,237113184,237113184,237113184,237113184,237113184,237113184,237113184,237113184,237113184,237113184,237113184,237113184,237113184,237113184,237113184,237113184,237113184,237113184,237113184,237113184,237113184,237113184,237113184,237113184,237113184,237113184,237113184,237113184,237113184,237113184,237113184,237113184,237113184,237113184,237113184,237113184,237113184
Smokey and the Bandit,1977,smokeyandthebandit,#ff4b5c,126737428,126737428,126737428,126737428,126737428,126737428,126737428,126737428,126737428,126737428,126737428,126737428,126737428,126737428,126737428,126737428,126737428,126737428,126737428,126737428,126737428,126737428,126737428,126737428,126737428,126737428,126737428,126737428,126737428,126737428,126737428,126737428,126737428,126737428,126737428,126737428,126737428,126737428,126737428,126737428,126737428,126737428,126737428,126737428
A Bridge Too Far,1977,abridgetoofar,#e7042e,50750000,50750000,50750000,50750000,50750000,50750000,50750000,50750000,50750000,50750000,50750000,50750000,50750000,50750000,50750000,50750000,50750000,50750000,50750000,50750000,50750000,50750000,50750000,50750000,50750000,50750000,50750000,50750000,50750000,50750000,50750000,50750000,50750000,50750000,50750000,50750000,50750000,50750000,50750000,50750000,50750000,50750000,50750000,50750000
The Deep,1977,thedeep,#00afe6,47346365,47346365,47346365,47346365,47346365,47346365,47346365,47346365,47346365,47346365,47346365,47346365,47346365,47346365,47346365,47346365,47346365,47346365,47346365,47346365,47346365,47346365,47346365,47346365,47346365,47346365,47346365,47346365,47346365,47346365,47346365,47346365,47346365,47346365,47346365,47346365,47346365,47346365,47346365,47346365,47346365,47346365,47346365,47346365
The Spy Who Loved Me,1977,thespywholovedme,#ed0016,46838673,46838673,46838673,46838673,46838673,46838673,46838673,46838673,46838673,46838673,46838673,46838673,46838673,46838673,46838673,46838673,46838673,46838673,46838673,46838673,46838673,46838673,46838673,46838673,46838673,46838673,46838673,46838673,46838673,46838673,46838673,46838673,46838673,46838673,46838673,46838673,46838673,46838673,46838673,46838673,46838673,46838673,46838673,46838673
Oh God!,1977,ohgod,#ff4b5c,41687243,41687243,41687243,41687243,41687243,41687243,41687243,41687243,41687243,41687243,41687243,41687243,41687243,41687243,41687243,41687243,41687243,41687243,41687243,41687243,41687243,41687243,41687243,41687243,41687243,41687243,41687243,41687243,41687243,41687243,41687243,41687243,41687243,41687243,41687243,41687243,41687243,41687243,41687243,41687243,41687243,41687243,41687243,41687243
Annie Hall,1977,anniehall,#325ead,38251425,38251425,38251425,38251425,38251425,38251425,38251425,38251425,38251425,38251425,38251425,38251425,38251425,38251425,38251425,38251425,38251425,38251425,38251425,38251425,38251425,38251425,38251425,38251425,38251425,38251425,38251425,38251425,38251425,38251425,38251425,38251425,38251425,38251425,38251425,38251425,38251425,38251425,38251425,38251425,38251425,38251425,38251425,38251425
Semi-Tough,1977,semi-tough,#009c3f,37187139,37187139,37187139,37187139,37187139,37187139,37187139,37187139,37187139,37187139,37187139,37187139,37187139,37187139,37187139,37187139,37187139,37187139,37187139,37187139,37187139,37187139,37187139,37187139,37187139,37187139,37187139,37187139,37187139,37187139,37187139,37187139,37187139,37187139,37187139,37187139,37187139,37187139,37187139,37187139,37187139,37187139,37187139,37187139
Pete's Dragon,1977,petesdragon,#47a739,35488000,35488000,35488000,35488000,35488000,35488000,35488000,35488000,35488000,35488000,35488000,35488000,35488000,35488000,35488000,35488000,35488000,35488000,35488000,35488000,35488000,35488000,35488000,35488000,35488000,35488000,35488000,35488000,35488000,35488000,35488000,35488000,35488000,35488000,35488000,35488000,35488000,35488000,35488000,35488000,35488000,35488000,35488000,35488000
Heroes,1977,heroes,#ff000d,33500000,33500000,33500000,33500000,33500000,33500000,33500000,33500000,33500000,33500000,33500000,33500000,33500000,33500000,33500000,33500000,33500000,33500000,33500000,33500000,33500000,33500000,33500000,33500000,33500000,33500000,33500000,33500000,33500000,33500000,33500000,33500000,33500000,33500000,33500000,33500000,33500000,33500000,33500000,33500000,33500000,33500000,33500000,33500000
High Anxiety,1977,highanxiety,#fc0023,31063038,31063038,31063038,31063038,31063038,31063038,31063038,31063038,31063038,31063038,31063038,31063038,31063038,31063038,31063038,31063038,31063038,31063038,31063038,31063038,31063038,31063038,31063038,31063038,31063038,31063038,31063038,31063038,31063038,31063038,31063038,31063038,31063038,31063038,31063038,31063038,31063038,31063038,31063038,31063038,31063038,31063038,31063038,31063038
Exorcist II: The Heretic,1977,exorcistII,#00947f,30749142,30749142,30749142,30749142,30749142,30749142,30749142,30749142,30749142,30749142,30749142,30749142,30749142,30749142,30749142,30749142,30749142,30749142,30749142,30749142,30749142,30749142,30749142,30749142,30749142,30749142,30749142,30749142,30749142,30749142,30749142,30749142,30749142,30749142,30749142,30749142,30749142,30749142,30749142,30749142,30749142,30749142,30749142,30749142
The Rescuers,1977,therescuers,#cd1924,29000000,29000000,29000000,29000000,29000000,29000000,29000000,29000000,29000000,29000000,29000000,29000000,29000000,29000000,29000000,29000000,29000000,29000000,29000000,29000000,29000000,29000000,29000000,29000000,29000000,29000000,29000000,29000000,29000000,29000000,29000000,29000000,29000000,29000000,29000000,29000000,29000000,29000000,29000000,29000000,29000000,29000000,29000000,29000000
Grease,1978,grease,#e94333,0,366178870,366178870,366178870,366178870,366178870,366178870,366178870,366178870,366178870,366178870,366178870,366178870,366178870,366178870,366178870,366178870,366178870,366178870,366178870,366178870,366178870,366178870,366178870,366178870,366178870,366178870,366178870,366178870,366178870,366178870,366178870,366178870,366178870,366178870,366178870,366178870,366178870,366178870,366178870,366178870,366178870,366178870,366178870
Superman,1978,superman,#ff0e15,0,300218018,300218018,300218018,300218018,300218018,300218018,300218018,300218018,300218018,300218018,300218018,300218018,300218018,300218018,300218018,300218018,300218018,300218018,300218018,300218018,300218018,300218018,300218018,300218018,300218018,300218018,300218018,300218018,300218018,300218018,300218018,300218018,300218018,300218018,300218018,300218018,300218018,300218018,300218018,300218018,300218018,300218018,300218018
Jaws 2,1978,jaws2,#891346,0,183855272,183855272,183855272,183855272,183855272,183855272,183855272,183855272,183855272,183855272,183855272,183855272,183855272,183855272,183855272,183855272,183855272,183855272,183855272,183855272,183855272,183855272,183855272,183855272,183855272,183855272,183855272,183855272,183855272,183855272,183855272,183855272,183855272,183855272,183855272,183855272,183855272,183855272,183855272,183855272,183855272,183855272,183855272
National Lampoon's Animal House,1978,nationallampoons,#00b7e6,0,120091123,120091123,120091123,120091123,120091123,120091123,120091123,120091123,120091123,120091123,120091123,120091123,120091123,120091123,120091123,120091123,120091123,120091123,120091123,120091123,120091123,120091123,120091123,120091123,120091123,120091123,120091123,120091123,120091123,120091123,120091123,120091123,120091123,120091123,120091123,120091123,120091123,120091123,120091123,120091123,120091123,120091123,120091123
Every Which Way but Loose,1978,everywhich,#009620,0,85196485,85196485,85196485,85196485,85196485,85196485,85196485,85196485,85196485,85196485,85196485,85196485,85196485,85196485,85196485,85196485,85196485,85196485,85196485,85196485,85196485,85196485,85196485,85196485,85196485,85196485,85196485,85196485,85196485,85196485,85196485,85196485,85196485,85196485,85196485,85196485,85196485,85196485,85196485,85196485,85196485,85196485,85196485
Heaven Can Wait,1978,heavencanwait,#fc0023,0,81640278,81640278,81640278,81640278,81640278,81640278,81640278,81640278,81640278,81640278,81640278,81640278,81640278,81640278,81640278,81640278,81640278,81640278,81640278,81640278,81640278,81640278,81640278,81640278,81640278,81640278,81640278,81640278,81640278,81640278,81640278,81640278,81640278,81640278,81640278,81640278,81640278,81640278,81640278,81640278,81640278,81640278,81640278
Hooper,1978,hooper,#006cad,0,78000000,78000000,78000000,78000000,78000000,78000000,78000000,78000000,78000000,78000000,78000000,78000000,78000000,78000000,78000000,78000000,78000000,78000000,78000000,78000000,78000000,78000000,78000000,78000000,78000000,78000000,78000000,78000000,78000000,78000000,78000000,78000000,78000000,78000000,78000000,78000000,78000000,78000000,78000000,78000000,78000000,78000000,78000000
Revenge of the Pink Panther,1978,revengeofthepinkpanther,#f72516,0,49579269,49579269,49579269,49579269,49579269,49579269,49579269,49579269,49579269,49579269,49579269,49579269,49579269,49579269,49579269,49579269,49579269,49579269,49579269,49579269,49579269,49579269,49579269,49579269,49579269,49579269,49579269,49579269,49579269,49579269,49579269,49579269,49579269,49579269,49579269,49579269,49579269,49579269,49579269,49579269,49579269,49579269,49579269
The Deer Hunter,1978,thedeerhunter,#ff1a24,0,48991826,48991826,48991826,48991826,48991826,48991826,48991826,48991826,48991826,48991826,48991826,48991826,48991826,48991826,48991826,48991826,48991826,48991826,48991826,48991826,48991826,48991826,48991826,48991826,48991826,48991826,48991826,48991826,48991826,48991826,48991826,48991826,48991826,48991826,48991826,48991826,48991826,48991826,48991826,48991826,48991826,48991826,48991826
Moonraker,1979,moonraker,#1f3261,0,0,210308099,210308099,210308099,210308099,210308099,210308099,210308099,210308099,210308099,210308099,210308099,210308099,210308099,210308099,210308099,210308099,210308099,210308099,210308099,210308099,210308099,210308099,210308099,210308099,210308099,210308099,210308099,210308099,210308099,210308099,210308099,210308099,210308099,210308099,210308099,210308099,210308099,210308099,210308099,210308099,210308099,210308099
Kramer vs. Kramer,1979,kramervskramer,#79bee8,0,0,106260000,106260000,106260000,106260000,106260000,106260000,106260000,106260000,106260000,106260000,106260000,106260000,106260000,106260000,106260000,106260000,106260000,106260000,106260000,106260000,106260000,106260000,106260000,106260000,106260000,106260000,106260000,106260000,106260000,106260000,106260000,106260000,106260000,106260000,106260000,106260000,106260000,106260000,106260000,106260000,106260000,106260000
Alien,1979,alien,#0e7a3e,0,0,101718022,101718022,101718022,101718022,101718022,101718022,101718022,101718022,101718022,101718022,101718022,101718022,101718022,101718022,101718022,101718022,101718022,101718022,101718022,101718022,101718022,101718022,101718022,101718022,101718022,101718022,101718022,101718022,101718022,101718022,101718022,101718022,101718022,101718022,101718022,101718022,101718022,101718022,101718022,101718022,101718022,101718022
1941,1979,1941,#009d2e,0,0,92455742,92455742,92455742,92455742,92455742,92455742,92455742,92455742,92455742,92455742,92455742,92455742,92455742,92455742,92455742,92455742,92455742,92455742,92455742,92455742,92455742,92455742,92455742,92455742,92455742,92455742,92455742,92455742,92455742,92455742,92455742,92455742,92455742,92455742,92455742,92455742,92455742,92455742,92455742,92455742,92455742,92455742
The Amityville Horror,1979,theamityvillehorror,#ff4b5c,0,0,86432000,86432000,86432000,86432000,86432000,86432000,86432000,86432000,86432000,86432000,86432000,86432000,86432000,86432000,86432000,86432000,86432000,86432000,86432000,86432000,86432000,86432000,86432000,86432000,86432000,86432000,86432000,86432000,86432000,86432000,86432000,86432000,86432000,86432000,86432000,86432000,86432000,86432000,86432000,86432000,86432000,86432000
Rocky II,1979,rockyII,#e7042e,0,0,85182160,85182160,85182160,85182160,85182160,85182160,85182160,85182160,85182160,85182160,85182160,85182160,85182160,85182160,85182160,85182160,85182160,85182160,85182160,85182160,85182160,85182160,85182160,85182160,85182160,85182160,85182160,85182160,85182160,85182160,85182160,85182160,85182160,85182160,85182160,85182160,85182160,85182160,85182160,85182160,85182160,85182160
Star Wars: Episode V - The Empire Strikes Back,1980,starwarsV,#00afe6,0,0,0,400083259,400083259,400083259,400083259,400083259,400083259,400083259,400083259,400083259,400083259,400083259,400083259,400083259,400083259,400083259,400083259,400083259,400083259,400083259,400083259,400083259,400083259,400083259,400083259,400083259,400083259,400083259,400083259,400083259,400083259,400083259,400083259,400083259,400083259,400083259,400083259,400083259,400083259,400083259,400083259,400083259
The Blues Brothers,1980,thebluesbrothers,#ed0016,0,0,0,115229890,115229890,115229890,115229890,115229890,115229890,115229890,115229890,115229890,115229890,115229890,115229890,115229890,115229890,115229890,115229890,115229890,115229890,115229890,115229890,115229890,115229890,115229890,115229890,115229890,115229890,115229890,115229890,115229890,115229890,115229890,115229890,115229890,115229890,115229890,115229890,115229890,115229890,115229890,115229890,115229890
9 to 5,1980,9to5,#ff4b5c,0,0,0,103290500,103290500,103290500,103290500,103290500,103290500,103290500,103290500,103290500,103290500,103290500,103290500,103290500,103290500,103290500,103290500,103290500,103290500,103290500,103290500,103290500,103290500,103290500,103290500,103290500,103290500,103290500,103290500,103290500,103290500,103290500,103290500,103290500,103290500,103290500,103290500,103290500,103290500,103290500,103290500,103290500
Stir Crazy,1980,stircrazy,#325ead,0,0,0,101300000,101300000,101300000,101300000,101300000,101300000,101300000,101300000,101300000,101300000,101300000,101300000,101300000,101300000,101300000,101300000,101300000,101300000,101300000,101300000,101300000,101300000,101300000,101300000,101300000,101300000,101300000,101300000,101300000,101300000,101300000,101300000,101300000,101300000,101300000,101300000,101300000,101300000,101300000,101300000,101300000
Raiders of the Lost Ark,1981,raidersofthelostark,#009c3f,0,0,0,0,353988025,353988025,353988025,353988025,353988025,353988025,353988025,353988025,353988025,353988025,353988025,353988025,353988025,353988025,353988025,353988025,353988025,353988025,353988025,353988025,353988025,353988025,353988025,353988025,353988025,353988025,353988025,353988025,353988025,353988025,353988025,353988025,353988025,353988025,353988025,353988025,353988025,353988025,353988025,353988025
On Golden Pond,1981,ongoldenpond,#47a739,0,0,0,0,119285432,119285432,119285432,119285432,119285432,119285432,119285432,119285432,119285432,119285432,119285432,119285432,119285432,119285432,119285432,119285432,119285432,119285432,119285432,119285432,119285432,119285432,119285432,119285432,119285432,119285432,119285432,119285432,119285432,119285432,119285432,119285432,119285432,119285432,119285432,119285432,119285432,119285432,119285432,119285432
Superman II,1981,supermanII,#ff000d,0,0,0,0,108185706,108185706,108185706,108185706,108185706,108185706,108185706,108185706,108185706,108185706,108185706,108185706,108185706,108185706,108185706,108185706,108185706,108185706,108185706,108185706,108185706,108185706,108185706,108185706,108185706,108185706,108185706,108185706,108185706,108185706,108185706,108185706,108185706,108185706,108185706,108185706,108185706,108185706,108185706,108185706
E.T. the Extra-Terrestrial,1982,et,#fc0023,0,0,0,0,0,663400925,663400925,663400925,663400925,663400925,663400925,663400925,663400925,663400925,663400925,663400925,663400925,663400925,663400925,663400925,663400925,663400925,663400925,663400925,663400925,663400925,663400925,663400925,663400925,663400925,663400925,663400925,663400925,663400925,663400925,663400925,663400925,663400925,663400925,663400925,663400925,663400925,663400925,663400925
Tootsie,1982,Tootsie,#00947f,0,0,0,0,0,177200000,177200000,177200000,177200000,177200000,177200000,177200000,177200000,177200000,177200000,177200000,177200000,177200000,177200000,177200000,177200000,177200000,177200000,177200000,177200000,177200000,177200000,177200000,177200000,177200000,177200000,177200000,177200000,177200000,177200000,177200000,177200000,177200000,177200000,177200000,177200000,177200000,177200000,177200000
An Officer and a Gentleman,1982,AnOfficerandaGentleman,#cd1924,0,0,0,0,0,129795554,129795554,129795554,129795554,129795554,129795554,129795554,129795554,129795554,129795554,129795554,129795554,129795554,129795554,129795554,129795554,129795554,129795554,129795554,129795554,129795554,129795554,129795554,129795554,129795554,129795554,129795554,129795554,129795554,129795554,129795554,129795554,129795554,129795554,129795554,129795554,129795554,129795554,129795554
First Blood,1982,FirstBlood,#e94333,0,0,0,0,0,125212904,125212904,125212904,125212904,125212904,125212904,125212904,125212904,125212904,125212904,125212904,125212904,125212904,125212904,125212904,125212904,125212904,125212904,125212904,125212904,125212904,125212904,125212904,125212904,125212904,125212904,125212904,125212904,125212904,125212904,125212904,125212904,125212904,125212904,125212904,125212904,125212904,125212904,125212904
Rocky III,1982,RockyIII,#ff0e15,0,0,0,0,0,124146897,124146897,124146897,124146897,124146897,124146897,124146897,124146897,124146897,124146897,124146897,124146897,124146897,124146897,124146897,124146897,124146897,124146897,124146897,124146897,124146897,124146897,124146897,124146897,124146897,124146897,124146897,124146897,124146897,124146897,124146897,124146897,124146897,124146897,124146897,124146897,124146897,124146897,124146897
Star Wars: Episode VI - Return of the Jedi,1983,StarWarsEpisodeVI,#891346,0,0,0,0,0,0,374593074,374593074,374593074,374593074,374593074,374593074,374593074,374593074,374593074,374593074,374593074,374593074,374593074,374593074,374593074,374593074,374593074,374593074,374593074,374593074,374593074,374593074,374593074,374593074,374593074,374593074,374593074,374593074,374593074,374593074,374593074,374593074,374593074,374593074,374593074,374593074,374593074,374593074
Indiana Jones and the Temple of Doom,1984,IndianaJones,#00b7e6,0,0,0,0,0,0,0,333107271,333107271,333107271,333107271,333107271,333107271,333107271,333107271,333107271,333107271,333107271,333107271,333107271,333107271,333107271,333107271,333107271,333107271,333107271,333107271,333107271,333107271,333107271,333107271,333107271,333107271,333107271,333107271,333107271,333107271,333107271,333107271,333107271,333107271,333107271,333107271,333107271
Beverly Hills Cop,1984,BeverlyHillsCop,#009620,0,0,0,0,0,0,0,316360478,316360478,316360478,316360478,316360478,316360478,316360478,316360478,316360478,316360478,316360478,316360478,316360478,316360478,316360478,316360478,316360478,316360478,316360478,316360478,316360478,316360478,316360478,316360478,316360478,316360478,316360478,316360478,316360478,316360478,316360478,316360478,316360478,316360478,316360478,316360478,316360478
Ghostbusters,1984,Ghostbusters,#fc0023,0,0,0,0,0,0,0,282242989,282242989,282242989,282242989,282242989,282242989,282242989,282242989,282242989,282242989,282242989,282242989,282242989,282242989,282242989,282242989,282242989,282242989,282242989,282242989,282242989,282242989,282242989,282242989,282242989,282242989,282242989,282242989,282242989,282242989,282242989,282242989,282242989,282242989,282242989,282242989,282242989
Back to the Future,1985,BacktotheFuture,#006cad,0,0,0,0,0,0,0,0,381109762,381109762,381109762,381109762,381109762,381109762,381109762,381109762,381109762,381109762,381109762,381109762,381109762,381109762,381109762,381109762,381109762,381109762,381109762,381109762,381109762,381109762,381109762,381109762,381109762,381109762,381109762,381109762,381109762,381109762,381109762,381109762,381109762,381109762,381109762,381109762
Rocky IV,1985,RockyIV,#f72516,0,0,0,0,0,0,0,0,300473716,300473716,300473716,300473716,300473716,300473716,300473716,300473716,300473716,300473716,300473716,300473716,300473716,300473716,300473716,300473716,300473716,300473716,300473716,300473716,300473716,300473716,300473716,300473716,300473716,300473716,300473716,300473716,300473716,300473716,300473716,300473716,300473716,300473716,300473716,300473716
Rambo: First Blood Part II,1985,RamboFirstBloodPartII,#ff1a24,0,0,0,0,0,0,0,0,300400432,300400432,300400432,300400432,300400432,300400432,300400432,300400432,300400432,300400432,300400432,300400432,300400432,300400432,300400432,300400432,300400432,300400432,300400432,300400432,300400432,300400432,300400432,300400432,300400432,300400432,300400432,300400432,300400432,300400432,300400432,300400432,300400432,300400432,300400432,300400432
Top Gun,1986,TopGun,#1f3261,0,0,0,0,0,0,0,0,0,353811728,353811728,353811728,353811728,353811728,353811728,353811728,353811728,353811728,353811728,353811728,353811728,353811728,353811728,353811728,353811728,353811728,353811728,353811728,353811728,353811728,353811728,353811728,353811728,353811728,353811728,353811728,353811728,353811728,353811728,353811728,353811728,353811728,353811728,353811728
Crocodile Dundee,1986,CrocodileDundee,#79bee8,0,0,0,0,0,0,0,0,0,328203506,328203506,328203506,328203506,328203506,328203506,328203506,328203506,328203506,328203506,328203506,328203506,328203506,328203506,328203506,328203506,328203506,328203506,328203506,328203506,328203506,328203506,328203506,328203506,328203506,328203506,328203506,328203506,328203506,328203506,328203506,328203506,328203506,328203506,328203506
Fatal Attraction,1987,FatalAttraction,#0e7a3e,0,0,0,0,0,0,0,0,0,0,320145693,320145693,320145693,320145693,320145693,320145693,320145693,320145693,320145693,320145693,320145693,320145693,320145693,320145693,320145693,320145693,320145693,320145693,320145693,320145693,320145693,320145693,320145693,320145693,320145693,320145693,320145693,320145693,320145693,320145693,320145693,320145693,320145693,320145693
Rain Man,1988,RainMan,#009d2e,0,0,0,0,0,0,0,0,0,0,0,354825435,354825435,354825435,354825435,354825435,354825435,354825435,354825435,354825435,354825435,354825435,354825435,354825435,354825435,354825435,354825435,354825435,354825435,354825435,354825435,354825435,354825435,354825435,354825435,354825435,354825435,354825435,354825435,354825435,354825435,354825435,354825435,354825435
Who Framed Roger Rabbit,1988,WhoFramedRogerRabbit,#ff4b5c,0,0,0,0,0,0,0,0,0,0,0,329803958,329803958,329803958,329803958,329803958,329803958,329803958,329803958,329803958,329803958,329803958,329803958,329803958,329803958,329803958,329803958,329803958,329803958,329803958,329803958,329803958,329803958,329803958,329803958,329803958,329803958,329803958,329803958,329803958,329803958,329803958,329803958,329803958
Indiana Jones and the Last Crusade,1989,IndianaJonesandtheLastCrusade,#e7042e,0,0,0,0,0,0,0,0,0,0,0,0,474171806,474171806,474171806,474171806,474171806,474171806,474171806,474171806,474171806,474171806,474171806,474171806,474171806,474171806,474171806,474171806,474171806,474171806,474171806,474171806,474171806,474171806,474171806,474171806,474171806,474171806,474171806,474171806,474171806,474171806,474171806,474171806
Batman,1989,Batman,#00afe6,0,0,0,0,0,0,0,0,0,0,0,0,411348924,411348924,411348924,411348924,411348924,411348924,411348924,411348924,411348924,411348924,411348924,411348924,411348924,411348924,411348924,411348924,411348924,411348924,411348924,411348924,411348924,411348924,411348924,411348924,411348924,411348924,411348924,411348924,411348924,411348924,411348924,411348924
Back to the Future Part II,1989,BacktotheFuturePartII,#ed0016,0,0,0,0,0,0,0,0,0,0,0,0,331950002,331950002,331950002,331950002,331950002,331950002,331950002,331950002,331950002,331950002,331950002,331950002,331950002,331950002,331950002,331950002,331950002,331950002,331950002,331950002,331950002,331950002,331950002,331950002,331950002,331950002,331950002,331950002,331950002,331950002,331950002,331950002
Ghost,1990,Ghost,#ff4b5c,0,0,0,0,0,0,0,0,0,0,0,0,0,505702588,505702588,505702588,505702588,505702588,505702588,505702588,505702588,505702588,505702588,505702588,505702588,505702588,505702588,505702588,505702588,505702588,505702588,505702588,505702588,505702588,505702588,505702588,505702588,505702588,505702588,505702588,505702588,505702588,505702588,505702588
Home Alone,1990,HomeAlone,#325ead,0,0,0,0,0,0,0,0,0,0,0,0,0,476684675,476684675,476684675,476684675,476684675,476684675,476684675,476684675,476684675,476684675,476684675,476684675,476684675,476684675,476684675,476684675,476684675,476684675,476684675,476684675,476684675,476684675,476684675,476684675,476684675,476684675,476684675,476684675,476684675,476684675,476684675
Pretty Woman,1990,PrettyWoman,#009c3f,0,0,0,0,0,0,0,0,0,0,0,0,0,463406268,463406268,463406268,463406268,463406268,463406268,463406268,463406268,463406268,463406268,463406268,463406268,463406268,463406268,463406268,463406268,463406268,463406268,463406268,463406268,463406268,463406268,463406268,463406268,463406268,463406268,463406268,463406268,463406268,463406268,463406268
Dances with Wolves,1990,DanceswithWolves,#47a739,0,0,0,0,0,0,0,0,0,0,0,0,0,424208848,424208848,424208848,424208848,424208848,424208848,424208848,424208848,424208848,424208848,424208848,424208848,424208848,424208848,424208848,424208848,424208848,424208848,424208848,424208848,424208848,424208848,424208848,424208848,424208848,424208848,424208848,424208848,424208848,424208848,424208848
Terminator 2: Judgment Day,1991,Terminator2,#ff000d,0,0,0,0,0,0,0,0,0,0,0,0,0,0,516950043,516950043,516950043,516950043,516950043,516950043,516950043,516950043,516950043,516950043,516950043,516950043,516950043,516950043,516950043,516950043,516950043,516950043,516950043,516950043,516950043,516950043,516950043,516950043,516950043,516950043,516950043,516950043,516950043,516950043
Robin Hood: Prince of Thieves,1991,RobinHood,#fc0023,0,0,0,0,0,0,0,0,0,0,0,0,0,0,390493908,390493908,390493908,390493908,390493908,390493908,390493908,390493908,390493908,390493908,390493908,390493908,390493908,390493908,390493908,390493908,390493908,390493908,390493908,390493908,390493908,390493908,390493908,390493908,390493908,390493908,390493908,390493908,390493908,390493908
Aladdin,1992,Aladdin,#00947f,0,0,0,0,0,0,0,0,0,0,0,0,0,0,0,504050219,504050219,504050219,504050219,504050219,504050219,504050219,504050219,504050219,504050219,504050219,504050219,504050219,504050219,504050219,504050219,504050219,504050219,504050219,504050219,504050219,504050219,504050219,504050219,504050219,504050219,504050219,504050219,504050219
The Bodyguard,1992,TheBodyguard,#cd1924,0,0,0,0,0,0,0,0,0,0,0,0,0,0,0,410945720,410945720,410945720,410945720,410945720,410945720,410945720,410945720,410945720,410945720,410945720,410945720,410945720,410945720,410945720,410945720,410945720,410945720,410945720,410945720,410945720,410945720,410945720,410945720,410945720,410945720,410945720,410945720,410945720
Jurassic Park,1993,JurassicPark,#e94333,0,0,0,0,0,0,0,0,0,0,0,0,0,0,0,0,912667947,912667947,912667947,912667947,912667947,912667947,912667947,912667947,912667947,912667947,912667947,912667947,912667947,912667947,912667947,912667947,912667947,912667947,912667947,912667947,912667947,912667947,912667947,912667947,912667947,912667947,912667947,912667947
Mrs. Doubtfire,1993,MrsDoubtfire,#ff0e15,0,0,0,0,0,0,0,0,0,0,0,0,0,0,0,0,441286195,441286195,441286195,441286195,441286195,441286195,441286195,441286195,441286195,441286195,441286195,441286195,441286195,441286195,441286195,441286195,441286195,441286195,441286195,441286195,441286195,441286195,441286195,441286195,441286195,441286195,441286195,441286195
The Lion King,1994,TheLionKing,#891346,0,0,0,0,0,0,0,0,0,0,0,0,0,0,0,0,0,763455561,763455561,763455561,763455561,763455561,763455561,763455561,763455561,763455561,763455561,763455561,763455561,763455561,763455561,763455561,763455561,763455561,763455561,763455561,763455561,763455561,763455561,763455561,763455561,763455561,763455561,763455561
Forrest Gump,1994,ForrestGump,#00b7e6,0,0,0,0,0,0,0,0,0,0,0,0,0,0,0,0,0,677387716,677387716,677387716,677387716,677387716,677387716,677387716,677387716,677387716,677387716,677387716,677387716,677387716,677387716,677387716,677387716,677387716,677387716,677387716,677387716,677387716,677387716,677387716,677387716,677387716,677387716,677387716
Independence Day,1996,IndependenceDay,#009620,0,0,0,0,0,0,0,0,0,0,0,0,0,0,0,0,0,0,0,817400891,817400891,817400891,817400891,817400891,817400891,817400891,817400891,817400891,817400891,817400891,817400891,817400891,817400891,817400891,817400891,817400891,817400891,817400891,817400891,817400891,817400891,817400891,817400891,817400891
Twister,1996,Twister,#fc0023,0,0,0,0,0,0,0,0,0,0,0,0,0,0,0,0,0,0,0,494471524,494471524,494471524,494471524,494471524,494471524,494471524,494471524,494471524,494471524,494471524,494471524,494471524,494471524,494471524,494471524,494471524,494471524,494471524,494471524,494471524,494471524,494471524,494471524,494471524
Mission: Impossible,1996,MissionImpossible,#006cad,0,0,0,0,0,0,0,0,0,0,0,0,0,0,0,0,0,0,0,457696391,457696391,457696391,457696391,457696391,457696391,457696391,457696391,457696391,457696391,457696391,457696391,457696391,457696391,457696391,457696391,457696391,457696391,457696391,457696391,457696391,457696391,457696391,457696391,457696391
Titanic,1997,Titanic,#f72516,0,0,0,0,0,0,0,0,0,0,0,0,0,0,0,0,0,0,0,0,1851850214,1851850214,1851850214,1851850214,1851850214,1851850214,1851850214,1851850214,1851850214,1851850214,1851850214,1851850214,1851850214,1851850214,1851850214,1851850214,1851850214,1851850214,1851850214,1851850214,1851850214,1851850214,1851850214,1851850214
The Lost World: Jurassic Park,1997,TheLostWorldJurassicPark,#ff1a24,0,0,0,0,0,0,0,0,0,0,0,0,0,0,0,0,0,0,0,0,618638999,618638999,618638999,618638999,618638999,618638999,618638999,618638999,618638999,618638999,618638999,618638999,618638999,618638999,618638999,618638999,618638999,618638999,618638999,618638999,618638999,618638999,618638999,618638999
Men in Black,1997,MeninBlack,#1f3261,0,0,0,0,0,0,0,0,0,0,0,0,0,0,0,0,0,0,0,0,589390539,589390539,589390539,589390539,589390539,589390539,589390539,589390539,589390539,589390539,589390539,589390539,589390539,589390539,589390539,589390539,589390539,589390539,589390539,589390539,589390539,589390539,589390539,589390539
Armageddon,1998,Armageddon,#79bee8,0,0,0,0,0,0,0,0,0,0,0,0,0,0,0,0,0,0,0,0,0,553709788,553709788,553709788,553709788,553709788,553709788,553709788,553709788,553709788,553709788,553709788,553709788,553709788,553709788,553709788,553709788,553709788,553709788,553709788,553709788,553709788,553709788,553709788
Saving Private Ryan,1998,SavingPrivateRyan,#0e7a3e,0,0,0,0,0,0,0,0,0,0,0,0,0,0,0,0,0,0,0,0,0,481840909,481840909,481840909,481840909,481840909,481840909,481840909,481840909,481840909,481840909,481840909,481840909,481840909,481840909,481840909,481840909,481840909,481840909,481840909,481840909,481840909,481840909,481840909
Star Wars: Episode I - The Phantom Menace,1999,StarWarsEpisodeI-ThePhantomMenace,#009d2e,0,0,0,0,0,0,0,0,0,0,0,0,0,0,0,0,0,0,0,0,0,0,924305084,924305084,924305084,924305084,924305084,924305084,924305084,924305084,924305084,924305084,924305084,924305084,924305084,924305084,924305084,924305084,924305084,924305084,924305084,924305084,924305084,924305084
The Sixth Sense,1999,TheSixthSense,#ff4b5c,0,0,0,0,0,0,0,0,0,0,0,0,0,0,0,0,0,0,0,0,0,0,672806292,672806292,672806292,672806292,672806292,672806292,672806292,672806292,672806292,672806292,672806292,672806292,672806292,672806292,672806292,672806292,672806292,672806292,672806292,672806292,672806292,672806292
Mission: Impossible II,2000,MissionImpossibleII,#e7042e,0,0,0,0,0,0,0,0,0,0,0,0,0,0,0,0,0,0,0,0,0,0,0,546388108,546388108,546388108,546388108,546388108,546388108,546388108,546388108,546388108,546388108,546388108,546388108,546388108,546388108,546388108,546388108,546388108,546388108,546388108,546388108,546388108
Harry Potter and the Sorcerer's Stone,2001,HarryPotterandtheSorcerersStone,#00afe6,0,0,0,0,0,0,0,0,0,0,0,0,0,0,0,0,0,0,0,0,0,0,0,0,974755371,974755371,974755371,974755371,974755371,974755371,974755371,974755371,974755371,974755371,974755371,974755371,974755371,974755371,974755371,974755371,974755371,974755371,974755371,974755371
The Lord of the Rings: The Fellowship of the Ring,2001,TheLordoftheRingsTheFellowshipoftheRing,#ed0016,0,0,0,0,0,0,0,0,0,0,0,0,0,0,0,0,0,0,0,0,0,0,0,0,883726270,883726270,883726270,883726270,883726270,883726270,883726270,883726270,883726270,883726270,883726270,883726270,883726270,883726270,883726270,883726270,883726270,883726270,883726270,883726270
Monsters Inc.,2001,MonstersInc,#ff4b5c,0,0,0,0,0,0,0,0,0,0,0,0,0,0,0,0,0,0,0,0,0,0,0,0,528773250,528773250,528773250,528773250,528773250,528773250,528773250,528773250,528773250,528773250,528773250,528773250,528773250,528773250,528773250,528773250,528773250,528773250,528773250,528773250
The Lord of the Rings: The Two Towers,2002,TheLordoftheRingsTheTwoTowers,#325ead,0,0,0,0,0,0,0,0,0,0,0,0,0,0,0,0,0,0,0,0,0,0,0,0,0,936689735,936689735,936689735,936689735,936689735,936689735,936689735,936689735,936689735,936689735,936689735,936689735,936689735,936689735,936689735,936689735,936689735,936689735,936689735
Harry Potter and the Chamber of Secrets,2002,HarryPotterandtheChamberofSecrets,#009c3f,0,0,0,0,0,0,0,0,0,0,0,0,0,0,0,0,0,0,0,0,0,0,0,0,0,878979634,878979634,878979634,878979634,878979634,878979634,878979634,878979634,878979634,878979634,878979634,878979634,878979634,878979634,878979634,878979634,878979634,878979634,878979634
Spider-Man,2002,Spider-Man,#47a739,0,0,0,0,0,0,0,0,0,0,0,0,0,0,0,0,0,0,0,0,0,0,0,0,0,821708551,821708551,821708551,821708551,821708551,821708551,821708551,821708551,821708551,821708551,821708551,821708551,821708551,821708551,821708551,821708551,821708551,821708551,821708551
Star Wars: Episode II - Attack of the Clones,2002,StarWarsEpisodeII-AttackoftheClones,#ff000d,0,0,0,0,0,0,0,0,0,0,0,0,0,0,0,0,0,0,0,0,0,0,0,0,0,645256452,645256452,645256452,645256452,645256452,645256452,645256452,645256452,645256452,645256452,645256452,645256452,645256452,645256452,645256452,645256452,645256452,645256452,645256452
The Lord of the Rings: The Return of the King,2003,TheLordoftheRingsTheReturnoftheKing,#fc0023,0,0,0,0,0,0,0,0,0,0,0,0,0,0,0,0,0,0,0,0,0,0,0,0,0,0,1140444782,1140444782,1140444782,1140444782,1140444782,1140444782,1140444782,1140444782,1140444782,1140444782,1140444782,1140444782,1140444782,1140444782,1140444782,1140444782,1140444782,1140444782
Finding Nemo,2003,FindingNemo,#00947f,0,0,0,0,0,0,0,0,0,0,0,0,0,0,0,0,0,0,0,0,0,0,0,0,0,0,871014978,871014978,871014978,871014978,871014978,871014978,871014978,871014978,871014978,871014978,871014978,871014978,871014978,871014978,871014978,871014978,871014978,871014978
The Matrix Reloaded,2003,TheMatrixReloaded,#cd1924,0,0,0,0,0,0,0,0,0,0,0,0,0,0,0,0,0,0,0,0,0,0,0,0,0,0,739412035,739412035,739412035,739412035,739412035,739412035,739412035,739412035,739412035,739412035,739412035,739412035,739412035,739412035,739412035,739412035,739412035,739412035
Shrek 2,2004,Shrek2,#e94333,0,0,0,0,0,0,0,0,0,0,0,0,0,0,0,0,0,0,0,0,0,0,0,0,0,0,0,928760770,928760770,928760770,928760770,928760770,928760770,928760770,928760770,928760770,928760770,928760770,928760770,928760770,928760770,928760770,928760770,928760770
Harry Potter and the Prisoner of Azkaban,2004,HarryPotterandthePrisonerofAzkaban,#ff0e15,0,0,0,0,0,0,0,0,0,0,0,0,0,0,0,0,0,0,0,0,0,0,0,0,0,0,0,795634069,795634069,795634069,795634069,795634069,795634069,795634069,795634069,795634069,795634069,795634069,795634069,795634069,795634069,795634069,795634069,795634069
Spider-Man 2,2004,Spider-Man2,#891346,0,0,0,0,0,0,0,0,0,0,0,0,0,0,0,0,0,0,0,0,0,0,0,0,0,0,0,788976453,788976453,788976453,788976453,788976453,788976453,788976453,788976453,788976453,788976453,788976453,788976453,788976453,788976453,788976453,788976453,788976453
Harry Potter and the Goblet of Fire,2005,HarryPotterandtheGobletofFire,#00b7e6,0,0,0,0,0,0,0,0,0,0,0,0,0,0,0,0,0,0,0,0,0,0,0,0,0,0,0,0,895921036,895921036,895921036,895921036,895921036,895921036,895921036,895921036,895921036,895921036,895921036,895921036,895921036,895921036,895921036,895921036
Star Wars: Episode III - Revenge of the Sith,2005,StarWarsEpisodeIII-RevengeoftheSith,#009620,0,0,0,0,0,0,0,0,0,0,0,0,0,0,0,0,0,0,0,0,0,0,0,0,0,0,0,0,868352530,868352530,868352530,868352530,868352530,868352530,868352530,868352530,868352530,868352530,868352530,868352530,868352530,868352530,868352530,868352530
Pirates of the Caribbean: Dead Man's Chest,2006,PiratesoftheCaribbeanDeadMansChest,#fc0023,0,0,0,0,0,0,0,0,0,0,0,0,0,0,0,0,0,0,0,0,0,0,0,0,0,0,0,0,0,1066179725,1066179725,1066179725,1066179725,1066179725,1066179725,1066179725,1066179725,1066179725,1066179725,1066179725,1066179725,1066179725,1066179725,1066179725
Pirates of the Caribbean: At World's End,2007,PiratesoftheCaribbeanAtWorldsEnd,#006cad,0,0,0,0,0,0,0,0,0,0,0,0,0,0,0,0,0,0,0,0,0,0,0,0,0,0,0,0,0,0,960996492,960996492,960996492,960996492,960996492,960996492,960996492,960996492,960996492,960996492,960996492,960996492,960996492,960996492
Harry Potter and the Order of the Phoenix,2007,HarryPotterandtheOrderofthePhoenix,#f72516,0,0,0,0,0,0,0,0,0,0,0,0,0,0,0,0,0,0,0,0,0,0,0,0,0,0,0,0,0,0,941676843,941676843,941676843,941676843,941676843,941676843,941676843,941676843,941676843,941676843,941676843,941676843,941676843,941676843
Spider-Man 3,2007,Spider-Man3,#ff1a24,0,0,0,0,0,0,0,0,0,0,0,0,0,0,0,0,0,0,0,0,0,0,0,0,0,0,0,0,0,0,894983373,894983373,894983373,894983373,894983373,894983373,894983373,894983373,894983373,894983373,894983373,894983373,894983373,894983373
The Dark Knight,2008,TheDarkKnight,#1f3261,0,0,0,0,0,0,0,0,0,0,0,0,0,0,0,0,0,0,0,0,0,0,0,0,0,0,0,0,0,0,0,1003045358,1003045358,1003045358,1003045358,1003045358,1003045358,1003045358,1003045358,1003045358,1003045358,1003045358,1003045358,1003045358
Avatar,2009,Avatar,#79bee8,0,0,0,0,0,0,0,0,0,0,0,0,0,0,0,0,0,0,0,0,0,0,0,0,0,0,0,0,0,0,0,0,2744336793,2744336793,2744336793,2744336793,2744336793,2744336793,2744336793,2744336793,2744336793,2744336793,2744336793,2744336793
Harry Potter and the Half-Blood Prince,2009,HarryPotterandtheHalf-BloodPrince,#0e7a3e,0,0,0,0,0,0,0,0,0,0,0,0,0,0,0,0,0,0,0,0,0,0,0,0,0,0,0,0,0,0,0,0,933959197,933959197,933959197,933959197,933959197,933959197,933959197,933959197,933959197,933959197,933959197,933959197
Toy Story 3,2010,ToyStory3,#009d2e,0,0,0,0,0,0,0,0,0,0,0,0,0,0,0,0,0,0,0,0,0,0,0,0,0,0,0,0,0,0,0,0,0,1066969703,1066969703,1066969703,1066969703,1066969703,1066969703,1066969703,1066969703,1066969703,1066969703,1066969703
Alice in Wonderland,2010,AliceinWonderland,#ff4b5c,0,0,0,0,0,0,0,0,0,0,0,0,0,0,0,0,0,0,0,0,0,0,0,0,0,0,0,0,0,0,0,0,0,1025467110,1025467110,1025467110,1025467110,1025467110,1025467110,1025467110,1025467110,1025467110,1025467110,1025467110
Harry Potter and the Deathly Hallows: Part 1,2010,HarryPotterandtheDeathlyHallowsPart1,#e7042e,0,0,0,0,0,0,0,0,0,0,0,0,0,0,0,0,0,0,0,0,0,0,0,0,0,0,0,0,0,0,0,0,0,976536918,976536918,976536918,976536918,976536918,976536918,976536918,976536918,976536918,976536918,976536918
Harry Potter and the Deathly Hallows: Part 2,2011,HarryPotterandtheDeathlyHallowsPart2,#00afe6,0,0,0,0,0,0,0,0,0,0,0,0,0,0,0,0,0,0,0,0,0,0,0,0,0,0,0,0,0,0,0,0,0,0,1341511219,1341511219,1341511219,1341511219,1341511219,1341511219,1341511219,1341511219,1341511219,1341511219
Transformers: Dark of the Moon,2011,TransformersDarkoftheMoon,#ed0016,0,0,0,0,0,0,0,0,0,0,0,0,0,0,0,0,0,0,0,0,0,0,0,0,0,0,0,0,0,0,0,0,0,0,1123794079,1123794079,1123794079,1123794079,1123794079,1123794079,1123794079,1123794079,1123794079,1123794079
Pirates of the Caribbean: On Stranger Tides,2011,PiratesoftheCaribbeanOnStrangerTides,#ff4b5c,0,0,0,0,0,0,0,0,0,0,0,0,0,0,0,0,0,0,0,0,0,0,0,0,0,0,0,0,0,0,0,0,0,0,1045713802,1045713802,1045713802,1045713802,1045713802,1045713802,1045713802,1045713802,1045713802,1045713802
The Avengers,2012,TheAvengers,#325ead,0,0,0,0,0,0,0,0,0,0,0,0,0,0,0,0,0,0,0,0,0,0,0,0,0,0,0,0,0,0,0,0,0,0,0,1518812988,1518812988,1518812988,1518812988,1518812988,1518812988,1518812988,1518812988,1518812988
Skyfall,2012,Skyfall,#009c3f,0,0,0,0,0,0,0,0,0,0,0,0,0,0,0,0,0,0,0,0,0,0,0,0,0,0,0,0,0,0,0,0,0,0,0,1108561013,1108561013,1108561013,1108561013,1108561013,1108561013,1108561013,1108561013,1108561013
The Dark Knight Rises,2012,TheDarkKnightRises,#47a739,0,0,0,0,0,0,0,0,0,0,0,0,0,0,0,0,0,0,0,0,0,0,0,0,0,0,0,0,0,0,0,0,0,0,0,1081041287,1081041287,1081041287,1081041287,1081041287,1081041287,1081041287,1081041287,1081041287
The Hobbit: An Unexpected Journey,2012,TheHobbitAnUnexpectedJourney,#ff000d,0,0,0,0,0,0,0,0,0,0,0,0,0,0,0,0,0,0,0,0,0,0,0,0,0,0,0,0,0,0,0,0,0,0,0,1017003568,1017003568,1017003568,1017003568,1017003568,1017003568,1017003568,1017003568,1017003568
Frozen,2013,Frozen,#fc0023,0,0,0,0,0,0,0,0,0,0,0,0,0,0,0,0,0,0,0,0,0,0,0,0,0,0,0,0,0,0,0,0,0,0,0,0,1280802282,1280802282,1280802282,1280802282,1280802282,1280802282,1280802282,1280802282
Iron Man 3,2013,IronMan3,#00947f,0,0,0,0,0,0,0,0,0,0,0,0,0,0,0,0,0,0,0,0,0,0,0,0,0,0,0,0,0,0,0,0,0,0,0,0,1214811252,1214811252,1214811252,1214811252,1214811252,1214811252,1214811252,1214811252
Transformers: Age of Extinction,2014,TransformersAgeofExtinction,#cd1924,0,0,0,0,0,0,0,0,0,0,0,0,0,0,0,0,0,0,0,0,0,0,0,0,0,0,0,0,0,0,0,0,0,0,0,0,0,1104054072,1104054072,1104054072,1104054072,1104054072,1104054072,1104054072
Star Wars: Episode VII - The Force Awakens,2015,StarWarsEpisodeVII-TheForceAwakens,#e94333,0,0,0,0,0,0,0,0,0,0,0,0,0,0,0,0,0,0,0,0,0,0,0,0,0,0,0,0,0,0,0,0,0,0,0,0,0,0,2068223624,2068223624,2068223624,2068223624,2068223624,2068223624
Jurassic World,2015,JurassicWorld,#ff0e15,0,0,0,0,0,0,0,0,0,0,0,0,0,0,0,0,0,0,0,0,0,0,0,0,0,0,0,0,0,0,0,0,0,0,0,0,0,0,1670400637,1670400637,1670400637,1670400637,1670400637,1670400637
Furious 7,2015,Furious7,#891346,0,0,0,0,0,0,0,0,0,0,0,0,0,0,0,0,0,0,0,0,0,0,0,0,0,0,0,0,0,0,0,0,0,0,0,0,0,0,1515047671,1515047671,1515047671,1515047671,1515047671,1515047671
Avengers: Age of Ultron,2015,AvengersAgeofUltron,#00b7e6,0,0,0,0,0,0,0,0,0,0,0,0,0,0,0,0,0,0,0,0,0,0,0,0,0,0,0,0,0,0,0,0,0,0,0,0,0,0,1402805868,1402805868,1402805868,1402805868,1402805868,1402805868
Minions,2015,Minions,#009620,0,0,0,0,0,0,0,0,0,0,0,0,0,0,0,0,0,0,0,0,0,0,0,0,0,0,0,0,0,0,0,0,0,0,0,0,0,0,1159398397,1159398397,1159398397,1159398397,1159398397,1159398397
Captain America: Civil War,2016,CaptainAmericaCivilWar,#fc0023,0,0,0,0,0,0,0,0,0,0,0,0,0,0,0,0,0,0,0,0,0,0,0,0,0,0,0,0,0,0,0,0,0,0,0,0,0,0,0,1153296293,1153296293,1153296293,1153296293,1153296293
Star Wars: Episode VIII - The Last Jedi,2017,StarWarsEpisodeVIII-TheLastJedi,#006cad,0,0,0,0,0,0,0,0,0,0,0,0,0,0,0,0,0,0,0,0,0,0,0,0,0,0,0,0,0,0,0,0,0,0,0,0,0,0,0,0,1332539889,1332539890,1332539891,1332539892
Beauty and the Beast,2017,BeautyandtheBeast,#f72516,0,0,0,0,0,0,0,0,0,0,0,0,0,0,0,0,0,0,0,0,0,0,0,0,0,0,0,0,0,0,0,0,0,0,0,0,0,0,0,0,1263521126,1263521127,1263521128,1263521129
The Fate of the Furious,2017,TheFateoftheFurious,#ff1a24,0,0,0,0,0,0,0,0,0,0,0,0,0,0,0,0,0,0,0,0,0,0,0,0,0,0,0,0,0,0,0,0,0,0,0,0,0,0,0,0,1236005118,1236005119,1236005120,1236005121
Avengers: Infinity War,2018,AvengersInfinityWar,#1f3261,0,0,0,0,0,0,0,0,0,0,0,0,0,0,0,0,0,0,0,0,0,0,0,0,0,0,0,0,0,0,0,0,0,0,0,0,0,0,0,0,0,2048359754,2048359754,2048359754
Black Panther,2018,BlackPanther,#79bee8,0,0,0,0,0,0,0,0,0,0,0,0,0,0,0,0,0,0,0,0,0,0,0,0,0,0,0,0,0,0,0,0,0,0,0,0,0,0,0,0,0,1346913161,1346913161,1346913161
Jurassic World: Fallen Kingdom,2018,JurassicWorldFallenKingdom,#0e7a3e,0,0,0,0,0,0,0,0,0,0,0,0,0,0,0,0,0,0,0,0,0,0,0,0,0,0,0,0,0,0,0,0,0,0,0,0,0,0,0,0,0,1308467944,1308467944,1308467944
Incredibles 2,2018,Incredibles2,#009d2e,0,0,0,0,0,0,0,0,0,0,0,0,0,0,0,0,0,0,0,0,0,0,0,0,0,0,0,0,0,0,0,0,0,0,0,0,0,0,0,0,0,1242805359,1242805359,1242805359
Avengers: Endgame,2019,AvengersEndgame,#ff4b5c,0,0,0,0,0,0,0,0,0,0,0,0,0,0,0,0,0,0,0,0,0,0,0,0,0,0,0,0,0,0,0,0,0,0,0,0,0,0,0,0,0,0,2797800564,2797800565
The Lion King,2019,TheLionKing2019,#e7042e,0,0,0,0,0,0,0,0,0,0,0,0,0,0,0,0,0,0,0,0,0,0,0,0,0,0,0,0,0,0,0,0,0,0,0,0,0,0,0,0,0,0,1656943394,1656943394
Frozen II,2019,FrozenII,#00afe6,0,0,0,0,0,0,0,0,0,0,0,0,0,0,0,0,0,0,0,0,0,0,0,0,0,0,0,0,0,0,0,0,0,0,0,0,0,0,0,0,0,0,1450026933,1450026933
