Country,,,1990,1991,1992,1993,1994,1995,1996,1997,1998,1999,2000,2001,2002,2003,2004,2005,2006,2007,2008,2009,2010,2011,2012,2013,2014,2015,2016,2017,2018,2019,2020
Argentina,argentina,#79bee8,66.9,67.25,67.54,67.86,68.08,67.82,68.14,68.68,69,68.93,69.01,68.87,68.3,68.91,69.53,68.91,69.27,68.62,67.96,68.32,67.64,67.96,68.04,67.78,67.05,67.47,67.86,68.23,69.21,69.21,69.21
Brasil,brazil,#009d2e,65.36,65.48,65.98,66.48,66.96,67.42,65.97,66.7,66.92,67.55,67.81,68.09,68.94,69.06,69.96,70.71,70.29,70.17,70.23,70.63,69.65,68.65,69.51,69.56,69.47,69.8,69.74,70.17,70.31,70.39,70.46
México,mexico,#006843,60.67,60.79,61.35,61.96,61.95,61.93,62.04,63.56,63.26,62.54,62.5,61.92,61.38,61.8,62.43,63.4,64.23,64.4,64.08,64.06,63.88,64.02,64.78,64.63,64.03,64.14,64.16,64.04,64.35,64.43,64.51
Bolivia,bolivia,#0e7a3e,71.08,71.3,71.25,71.42,71.63,71.86,72.06,72.3,72.38,72.42,72.43,72.88,73.31,73.74,74.15,74.55,74.95,73.24,73.92,74.07,74.09,74.04,71.07,71.18,73.38,68.99,69.83,71.05,74.05,73.94,73.83
Chile,chile,#ff4b5c,58.05,58.51,59.11,59.51,59.85,60.37,60.79,61.21,61.41,61.59,61.02,60.36,60.07,60.71,61.63,62.29,63.07,63.83,65.54,65.5,65.99,67.19,67.27,67.46,67.81,68.07,68.04,68.52,68.96,69.31,69.64
Colombia,colombia,#0051b9,69.36,69.57,69.85,70.19,70.54,70.85,70.96,71.18,71.21,70.92,71.11,71.28,71.37,72.02,70.62,69.95,69.07,68.17,68.67,71.37,72.24,73,74.05,73.75,73.92,74.43,74.12,73.91,73.6,73.85,74.11
Costa Rica,costa-rica,#f93f52,61.47,61.27,60.67,61.42,61.93,62.88,60.98,63.15,64.85,64.32,63.29,65.68,65.22,65.54,64.39,66.68,66.4,67.47,67.17,66.92,65.71,65.31,69.05,68.75,68.7,67.67,65.39,66.37,68.61,68.77,68.92
Cuba,cuba,#f10d29,56.78,57.06,57.46,57.89,58.26,58.49,58.6,58.61,58.6,58.53,58.53,58.5,58.55,58.69,58.83,59.77,60.58,61.92,62.68,64.08,63.86,63.96,63.93,63.88,63.83,63.91,63.99,64.07,64.2,64.38,64.44
Ecuador,ecuador,#ffc300,65.34,65.7,65.94,66.19,66.56,66.8,66.98,67.36,70.03,69.79,69.54,69.28,68.99,68.68,71.05,70.44,71.81,70.42,70.66,68.8,67.83,66.99,67.65,67.08,66.85,69.21,71.15,71.97,71.03,71.14,71.25
El Salvador,salvador,#008cc3,63.1,63.18,63.4,64.4,65.3,64.54,63.05,62.86,64.92,64.7,64.18,63.66,63.12,64.78,63.38,63.93,64.48,65.08,65,64.89,63.37,63.15,63.79,64.35,63.12,62.31,63.19,63.08,62.85,63.14,63.41
Guatemala,guatemala,#0098d3,63.43,63.47,63.54,63.57,63.62,63.72,63.76,63.87,64.01,64.11,64.19,64.28,64.42,64.5,64.61,64.41,64.22,64.01,63.78,63.56,63.33,63.13,68.15,63.19,63.68,63.41,63.97,64.16,64.35,64.41,64.48
Haití,haiti,#f42f4b,67.92,67.66,67.36,67,66.58,66.12,65.64,65.12,64.58,64.08,63.65,63.78,63.98,64.24,64.54,64.85,65.06,65.29,65.49,65.72,65.81,66.11,66.37,66.65,66.9,67.11,67.33,67.54,67.75,67.96,68.16
Honduras,honduras,#0074d2,68.1,67.9,68.1,68.31,68.28,68.49,68.54,68.7,68.83,68.78,67.86,66.88,66.54,66.2,65.85,65.5,63.94,62.95,63.71,64.68,66.01,63.75,62.97,65.71,67.3,68.43,68.27,68.74,70.77,70.84,70.91
Nicaragua,nicaragua,#0067ca,61.47,61.51,61.1,60.66,60.29,59.94,60.53,61.1,61.67,62.21,63.03,63.18,63.35,63.52,63.69,63.85,64.03,64.61,65.19,65.76,66.32,66.88,67.44,67.99,68.52,68.72,68.92,69.11,69.05,69.28,69.5
Panamá,panama,#0051b9,61.84,62.18,63.32,64.41,64.91,65.85,65.95,66.05,66.22,66.36,66.71,67.04,67.36,67.69,68.18,68.51,67.53,68.35,69.85,68.79,67.56,66.3,68.48,69.32,68.95,69.49,69.86,69.54,71.37,71.42,71.47
Paraguay,paraguay,#008cc3,72.04,72.19,72.21,72.41,72.62,72.58,72.53,72.46,72.37,72.29,72.21,72.14,72.05,70.92,74.41,73.14,71.39,72.55,72.49,73.79,71.94,72.31,75.21,74.4,72.72,73.02,73.85,73.78,75.49,75.69,75.87
Perú,peru,#fc0023,59.94,60.13,61.59,63,64.36,65.73,67.39,69.02,70.12,71.56,69.16,72.42,74.92,75.5,77.42,75.04,78.16,80.52,80.33,80.84,81.54,81.2,81.03,80.64,79.79,78.52,78.25,80.1,80.62,81.09,81.54
Puerto Rico,puerto-rico,#0051b9,50.22,51.45,51.39,53.12,52.67,52.23,53.45,54.33,54.58,54.58,52.97,53.52,54.07,54.11,54.12,54.66,54.9,54.31,53.35,52.73,52.12,51.64,51.17,50.68,50.14,49.51,49.75,49.91,49.99,49.71,49.28
Uruguay,uruguay,#0035ab,69.52,69.66,70.89,70.15,71.51,72.47,72.67,72.9,73.11,72.71,73.25,75.2,73.94,73.43,73.23,73.76,74.59,75.69,76.15,76.4,76.28,76.69,76.35,75.93,76.39,76.01,75.83,75.51,75.18,75.36,75.54
Venezuela,venezuela,#fc0023,64.17,64.72,65.11,65.23,65.21,65.49,65.57,65.96,66.05,65.81,66.06,66.28,65.85,65.46,66.4,66.99,67.85,67.46,67.4,67.18,67.13,67,66.57,66.72,66.68,66.55,65.95,65.35,64.5,64.3,64.04
República Dominicana,dominicana,#042d61,60.56,60.6,60.87,61.05,61.11,61.25,61.41,61.64,61.83,62,62.15,60.97,61.72,60.65,60.5,60.31,61.76,61.46,61.94,59.58,61.43,62.99,63.69,64.2,64.58,67.48,67.84,67.92,68.14,68.34,68.53
