Age,1950,1950,1951,1951,1952,1952
0-4,397277,378719,404067,386759,418631,403072
9-May,364705,351015,370209,356040,374127,359044
14-Oct,335091,325329,342461,332325,347999,337071
15-19,287954,282309,296410,290467,305147,298469
20-24,254603,252082,260221,257527,264905,261762
25-29,224691,224691,228998,229429,233417,233580
30-34,208647,204555,210280,207264,211590,209700
35-39,198398,192620,199741,195302,200277,196322
40-44,182934,166304,184712,171410,186376,175946
45-49,166330,136337,170419,142821,172281,147741
50-54,121508,93468,129074,100540,136999,108129
55-59,89269,69200,91686,71151,95439,73977
60-64,85128,66506,84870,66686,83106,65615
65-69,60529,47661,63415,49968,66729,52754
70-74,39399,32832,40665,33461,41928,34045
75-79,22823,19846,23358,20079,23845,20274
80-84,11662,11251,11954,11279,12001,11061
85-89,4625,5490,4922,5606,5078,5583
90-94,1283,2019,1452,2170,1546,2211
95-99,237,526,260,543,305,593
100+,31,105,32,105,32,104
TOTAL,5919989,5919989,6050139,6050139,6178811,6178811
