country,color,img,esperanza
UNIVERSIDAD NACIONAL AUTÓNOMA DE MÉXICO,#ed4c5c,UNIV. NAC. AUT. DE MÉXICO,84.8
INSTITUTO TECNOLÓGICO Y DE ESTUDIOS SUPERIORES DE MONTERREY,#d92531,INST. TECN. Y DE ESTUDIOS SUPER. DE MON.,76.96
INSTITUTO POLITÉCNICO NACIONAL,#34937f,INST. POLIT. NACIONAL,76.59
UNIVERSIDAD AUTÓNOMA METROPOLITANA,#db0819,UNIV. AUT. METROPOLITANA,74.03
EL COLEGIO DE MÉXICO A.C.,#d80027,EL COLEGIO DE MÉXICO A.C.,72.75
UNIVERSIDAD DE GUADALAJARA,#fae116,UNIV. DE GUADALAJARA,70.38
UNIVERSIDAD DE LAS AMÉRICAS PUEBLA,#009246,UNIV. DE LAS AMÉRICAS PUEBLA,69.74
BENEMÉRITA UNIVERSIDAD AUTÓNOMA DE PUEBLA,#012169,BENEMÉRITA UNIV. AUT. DE PUEBLA,64.69
UNIVERSIDAD AUTÓNOMA CHAPINGO,#f90a3c,UNIV. AUT. CHAPINGO,64.18
UNIVERSIDAD IBEROAMERICANA CDMX,#3f579f,UNIV. IBER. CDMX,61.7
UNIVERSIDAD VERACRUZANA,#00307c,UNIV. VERACRUZANA,59.77
UNIVERSIDAD AUTÓNOMA DE NUEVO LEÓN,#3360c7,UNIV. AUT. DE NUEVO LEÓN,59.59
UNIVERSIDAD ANÁHUAC,#0f6ca9,UNIV. ANÁHUAC,57.17
UNIVERSIDAD DE GUANAJUATO,#002496,UNIV. DE GUANAJUATO,55.88
UNIVERSIDAD DE SONORA,#295f9d,UNIV. DE SONORA,55.66
UNIVERSIDAD AUTÓNOMA DEL ESTADO DE MÉXICO,#ed4c5c,UNIV. AUT. DEL EST. DE MÉXICO,55.65
UNIVERSIDAD AUTÓNOMA AGRARIA ANTONIO NARRO,#da291c,UNIV. AUT. AGRARIA ANTONIO NARRO,55.37
INSTITUTO TECNOLÓGICO AUTÓNOMO DE MÉXICO,#ef2b2d,INST. TECN. AUT. DE MÉXICO,54.85
UNIVERSIDAD AUTÓNOMA DE BAJA CALIFORNIA,#003187,UNIV. AUT. DE BAJA CALIFORNIA,53.06
UNIVERSIDAD DE SAN LUIS POTOSÍ,#ff7900,UNIV. DE SAN LUIS POTOSÍ,51.48
UNIVERSIDAD DE COLIMA,#af1f28,UNIV. DE COLIMA,51.12
UNIVERSIDAD MICHOACANA DE SAN NICOLÁS DE HIDALGO,#338af3,UNIV. MICHOACANA DE SAN NICOLÁS,51.05
UNIVERSIDAD POPULAR AUTÓNOMA DEL ESTADO DE PUEBLA,#338af3,UNIV. POPULAR AUT. DEL EST. DE PUEBLA,50.21
UNIVERSIDAD AUTÓNOMA DE QUERÉTARO,#da131a,UNIV. AUT. DE QUERÉTARO,50.04
UNIVERSIDAD DE MONTERREY,#ff0000,UNIV. DE MONTERREY,49.8
ITESO - UNIVERSIDAD JESUITA DE GUADALAJARA,#00347f,ITESO - UNIV. JESUITA DE GUADALAJARA,49.59
UNIVERSIDAD AUTÓNOMA DE CIUDAD JUÁREZ,#fae042,UNIV. AUT. DE CIUD. JUÁREZ,48.69
UNIVERSIDAD JUÁREZ AUTÓNOMA DE TABASCO,#d72727,UNIV. JUÁREZ AUT. DE TABASCO,48.5
UNIVERSIDAD AUTÓNOMA DEL ESTADO DE HIDALGO,#ffce00,UNIV. AUT. DEL EST. DE HIDALGO,48.46
UNIVERSIDAD AUTÓNOMA DE LA CIUDAD DE MÉXICO,#283a8e,UNIV. AUT. DE LA CIUD. DE MÉXICO,48.06
UNIVERSIDAD AUTÓNOMA DE SINALOA,#005ea4,UNIV. AUT. DE SINALOA,47.63
UNIVERSIDAD PANAMERICANA,#ff8736,UNIV. PANAMERICANA,47.53
UNIVERSIDAD AUTÓNOMA DE COAHUILA,#c60c31,UNIV. AUT. DE COAHUILA,47.17
UNIVERSIDAD AUTÓNOMA DE CHIAPAS,#fee142,UNIV. AUT. DE CHIAPAS,47.07
UNIVERSIDAD AUTÓNOMA DE ZACATECAS,#0073ce,UNIV. AUT. DE ZACATECAS,46.91
UNIVERSIDAD AUTÓNOMA DE GUERRERO,#ec1d23,UNIV. AUT. DE GUERRERO,46.82
UNIVERSIDAD AUTÓNOMA DE YUCATÁN,#33569a,UNIV. AUT. DE YUCATÁN,46.77
UNIVERSIDAD AUTÓNOMA DE TAMAULIPAS,#a44964,UNIV. AUT. DE TAMAULIPAS,46.68
UNIVERSIDAD AUTÓNOMA DEL ESTADO DE MORELOS,#ed4c5c,UNIV. AUT. DEL EST. DE MORELOS,46.46
UNIVERSIDAD AUTÓNOMA DE CAMPECHE,#0052b5,UNIV. AUT. DE CAMPECHE,46.12
UNIVERSIDAD AUTÓNOMA DE NAYARIT,#2a5f9e,UNIV. AUT. DE NAYARIT,45.17
UNIVERSIDAD PEDAGÓGICA NACIONAL - AJUSCO,#699635,UNIV. PED. NACIONAL - AJUSCO,44.68
UNIVERSIDAD AUTÓNOMA DE CHIHUAHUA,#ec4c5e,UNIV. AUT. DE CHIHUAHUA,44.45
UNIVERSIDAD AUTÓNOMA DE TLAXCALA,#0052b5,UNIV. AUT. DE TLAXCALA,44.33
UNIVERSIDAD JUÁREZ DEL ESTADO DE DURANGO,#0052b4,UNIV. JUÁREZ DEL EST. DE DURANGO,43.32
INSTITUTO TECNOLÓGICO DE SONORA,#d80027,INST. TECN. DE SONORA,42.36
UNIVERSIDAD DE QUINTANA ROO,#ed4b5b,UNIV. DE QUINTANA ROO,41.2
UNIVERSIDAD DEL VALLE DE MÉXICO,#295f9d,UNIV. DEL VALLE DE MÉXICO,41.03
UNIVERSIDAD AUTÓNOMA DE BAJA CALIFORNIA SUR,#00214d,UNIV. AUT. DE BAJA CALIFORNIA SUR,40.43
UNIVERSIDAD AUTÓNOMA DEL CARMEN,#cf152c,UNIV. AUT. DEL CARMEN,40.39