country,,,1990,1991,1992,1993,1994,1995,1996,1997,1998,1999,2000,2001,2002,2003,2004,2005,2006,2007,2008,2009,2010,2011,2012,2013,2014,2015,2016,2017
Afghanistan,,,3.26,3.21,3.14,2.84,2.65,2.61,2.61,2.58,2.5,2.68,2.78,2.84,2.98,2.98,3.04,3.06,3.08,3.18,3.29,3.36,3.42,3.48,3.52,3.58,3.54,3.54,3.56,4.08
Africa,,,2.96,2.99,3,3.02,2.86,3.04,3.05,3.07,3.08,3.06,3.07,3.08,3.08,3.09,3.09,3.11,3.15,3.16,3.21,3.26,3.31,3.36,3.45,3.51,3.56,3.66,3.74,3.8
Albania,,,14.81,15,14.93,14.83,14.66,14.96,15.37,14.09,15.91,15.86,16.43,16.72,17.04,17.31,17.52,17.76,17.83,17.83,17.94,18.2,18.31,18.55,18.67,18.82,19,19.06,19.09,19.11
Algeria,,,9.95,10.15,10.29,10.4,10.27,10.35,10.58,10.32,10.42,10.64,10.55,10.58,10.62,10.56,10.73,10.72,10.68,10.61,10.61,10.61,10.64,10.68,10.76,10.76,10.73,10.79,10.92,11.08
American Samoa,,,10.26,10.25,10.21,10.1,10.02,9.89,9.79,9.69,9.61,9.66,9.47,9.35,9.25,9,9.17,9.1,9.07,9.11,9.17,8.33,9.36,9.38,9.41,9.38,9.45,9.5,9.51,9.51
Andorra,,,18.35,18.08,17.93,17.78,17.46,17.3,17.11,16.91,16.76,16.58,16.5,16.41,16.25,16.22,16.04,15.92,15.83,15.69,15.58,15.43,15.31,14.8,14.43,14.35,14.27,14.19,14.24,14.25
Angola,,,3.16,3.21,3.21,3.09,3.25,3.32,3.28,3.24,3.23,3.34,3.42,3.43,3.44,3.49,3.58,3.59,3.65,3.77,3.85,3.96,4.07,4.2,4.34,4.44,4.5,4.61,4.7,4.78
Antigua and Barbuda,,,8.58,8.46,8.3,8.12,7.96,7.83,7.73,7.65,7.5,7.37,7.28,7.2,7.14,7.12,7.06,7.06,7.03,7,6.95,6.91,6.87,6.84,6.8,6.76,6.76,6.74,6.75,6.75
Argentina,,,20.47,19.97,19.67,19.25,18.95,18.7,18.64,18.64,18.48,18.46,18.24,18.2,18.26,18.28,18.29,18.32,18.19,18.08,17.87,17.64,17.34,17.14,16.91,16.6,16.23,16.01,15.81,15.61
Armenia,,,16.91,17.59,17.48,18.29,18.48,18.19,18.24,18.29,18.16,18.35,18.49,18.6,18.59,18.48,18.45,18.38,18.26,18.1,17.87,17.76,17.58,17.45,17.2,17.05,17.13,17.06,17.04,17.22
Asia,,,11.16,11.33,11.6,11.83,12.06,12.25,12.49,12.67,12.83,12.95,13.13,13.28,13.45,13.65,13.57,13.6,13.59,13.64,13.57,13.74,13.79,13.85,13.92,13.9,13.96,14.1,14.19,14.2
Australasia,,,23.02,22.32,21.68,20.99,20.35,19.76,19.17,18.59,18.05,17.51,17.05,16.72,16.39,16.1,15.82,15.49,15.08,14.74,14.35,13.97,13.71,13.42,13.23,13.07,12.93,12.75,12.63,12.66
Australia,,,22.78,22.13,21.49,20.84,20.24,19.64,19.08,18.51,17.99,17.44,16.99,16.67,16.34,16.07,15.79,15.46,15.02,14.65,14.23,13.82,13.56,13.29,13.08,12.93,12.81,12.65,12.55,12.62
Austria,,,17.26,17.22,17.06,16.94,16.79,16.75,16.66,16.64,16.53,16.29,16.08,15.92,15.68,15.34,15.17,14.85,14.68,14.57,14.43,14.55,14.47,14.31,14.28,14.35,14.3,14.25,14.15,14.13
Azerbaijan,,,11.67,12.37,12.29,12.87,13.02,13.79,13.74,13.58,13.47,13.54,13.47,13.38,13.33,13.32,13.42,13.53,13.72,13.96,14.14,14.27,14.46,14.67,14.91,15.25,15.38,15.56,15.8,16.18
Bahamas,,,7.09,6.91,6.63,6.4,6.29,6.27,6.16,6.14,6.15,5.98,5.9,5.96,6.04,6.08,6.06,6.15,6.15,6.25,6.27,6.27,6.29,6.26,6.21,6.15,6.22,6.18,6.28,6.3
Bahrain,,,12.55,12.35,12.23,12.1,12.04,11.95,11.88,11.79,11.49,11.19,10.14,10.54,10.49,10.42,10.14,9.84,9.3,9.49,9.33,9.18,9.13,9.05,9.07,9.08,9.2,9.44,9.71,9.89
Bangladesh,,,6.08,5.33,6.17,6.31,6.44,6.63,6.78,6.85,6.95,7.05,7.22,7.27,7.33,7.45,7.6,7.87,8.26,8.55,8.73,8.95,9.13,9.18,9.22,9.4,9.7,9.85,10,10.23
Barbados,,,7.4,7.33,7.25,7.08,6.98,6.83,6.75,6.78,6.72,6.61,6.52,6.46,6.47,6.48,6.51,6.55,6.52,6.45,6.42,6.27,6.21,6.15,6.12,6.09,6.06,6.06,6.05,6.05
Belarus,,,19.57,19.71,19.95,20.27,20.27,20.39,20.34,20.26,20.33,20.2,20.06,20.15,20.07,19.83,19.55,19.57,19.33,19.14,19.3,19.19,19.36,19.27,18.7,18.34,18.23,18.08,17.78,17.78
Belgium,,,23.8,23.81,23.66,23.68,23.6,23.71,23.61,23.72,23.77,23.89,23.73,23.54,23.41,23.17,23,22.82,22.45,22.17,22,21.66,21.32,20.92,20.61,20.14,19.78,19.27,18.83,18.44
Belize,,,6.96,7.11,7.25,7.3,7.35,7.43,7.56,7.83,7.5,7.96,7.56,7.27,7.29,7.27,7.11,7.05,7.01,6.91,6.72,6.64,6.56,6.5,6.5,6.56,6.62,6.7,6.77,6.79
Benin,,,2.51,2.5,2.5,2.48,2.47,2.46,2.44,2.41,2.38,2.36,2.34,2.31,2.31,2.29,2.27,2.24,2.22,2.21,2.22,2.24,2.26,2.29,2.32,2.35,2.37,2.4,2.42,2.46
Bermuda,,,12.68,12.46,12.29,12.2,12.02,11.93,11.9,11.77,11.73,11.71,11.43,11.55,11.51,11.45,11.58,11.65,11.74,11.8,11.85,11.88,11.86,11.89,11.98,11.96,11.91,11.85,11.86,11.83
Bhutan,,,4.71,4.86,5.04,5.17,5.25,5.42,5.5,5.63,5.75,5.84,5.7,6.09,6.2,6.32,6.39,6.48,6.54,6.63,6.69,6.74,6.85,6.91,6.96,7.01,7.06,7.09,7.12,7.15
Bolivia,,,5.34,5.34,5.25,5.25,5.23,5.24,5.24,5.28,5.31,5.36,5.39,5.45,5.5,5.56,5.61,5.66,5.7,5.74,5.8,5.85,5.88,5.91,5.94,5.96,5.97,6,6.01,6.03
Bosnia and Herzegovina,,,22.18,22.77,18.46,19.73,21.35,17.97,23.34,23.28,23.15,23.17,23.11,23.13,22.91,22.55,22.2,22.33,22.07,22.14,21.97,21.82,21.72,21.79,21.8,22.01,22.11,22.27,22.57,22.92
Botswana,,,7.38,7.1,6.8,6.46,6.09,5.68,5.27,4.87,4.52,4.22,3.99,3.82,3.71,3.63,3.63,3.71,3.85,3.88,4.1,4.31,4.58,4.8,5.02,5.28,5.55,5.8,6.07,6.33
Brazil,,,15.91,16.02,16.32,16.56,16.54,16.5,16.54,16.52,16.53,16.45,16.31,16.14,15.92,15.73,15.54,15.22,14.97,14.73,14.48,14.22,13.99,13.74,13.5,13.23,12.94,12.74,12.55,12.43
Brunei,,,18.31,18.16,18.05,17.91,17.77,17.68,17.56,17.38,17.2,17.02,16.84,16.65,16.48,16.32,16.15,16,15.87,15.75,15.65,15.53,15.49,15.49,15.47,15.43,15.39,15.31,15.31,15.27
Bulgaria,,,23.76,23.31,23.26,23.28,22.9,22.58,22.05,21.85,21.81,21.14,20.92,20.75,20.59,20.61,20.55,20.56,20.43,20.17,20.1,20.06,19.83,19.74,19.47,19.38,19.28,19.11,19.06,18.86
Burkina Faso,,,1.28,1.27,1.26,1.27,1.27,1.27,1.25,1.28,1.31,1.33,1.35,1.35,1.36,1.38,1.4,1.43,1.47,1.51,1.56,1.61,1.64,1.67,1.71,1.74,1.77,1.8,1.82,1.83
Burundi,,,2.94,2.89,2.86,2.87,2.46,2.44,2.4,2.33,2.32,2.27,2.25,2.2,2.19,2.19,2.22,2.26,2.62,2.69,2.74,2.79,2.87,3,3.09,3.16,3.23,3.25,3.3,3.34
Cambodia,,,7.91,7.87,7.89,7.91,7.91,8.07,8.13,8.26,8.4,8.56,8.72,8.94,9.16,9.41,9.68,9.98,10.29,10.63,10.95,11.2,11.41,11.66,11.88,12.02,12.17,12.29,12.38,12.45
Cameroon,,,2.53,2.51,2.51,2.53,2.53,2.53,2.52,2.53,2.52,2.51,2.5,2.46,2.41,2.37,2.35,2.35,2.37,2.39,2.42,2.45,2.49,2.51,2.56,2.59,2.6,2.63,2.69,2.74
Canada,,,28.64,27.99,27.38,26.83,26.2,25.69,25.14,24.61,24.01,23.51,22.96,22.55,22.14,21.82,21.52,21.18,20.83,20.48,20.1,19.74,19.34,18.98,18.74,18.49,18.35,18.11,17.86,17.67
Cape Verde,,,4.07,4.09,4.09,4.13,4.13,3.75,4.08,4.06,4.08,4.03,4.11,4.14,4.15,4.17,4.18,4.19,4.21,4.1,4.18,4.16,4.16,4.17,4.14,4.12,4.12,4.08,4.16,4.19
Central African Republic,,,3.85,3.87,3.84,3.81,3.76,3.67,3.64,3.55,3.53,3.51,3.44,3.4,3.39,3.38,3.35,3.36,3.37,3.35,3.37,3.41,3.49,3.58,3.65,3.51,3.54,3.88,3.97,3.93
Central Asia,,,10.81,11.08,11.08,11.2,11.76,12.08,12.11,12.06,11.94,11.86,11.95,11.92,11.96,11.99,11.93,11.9,11.94,11.98,11.84,11.8,11.89,12,12.03,12.08,12.14,12.27,12.44,12.64
Central Europe,,,22.67,22.56,22.36,22.27,22.17,21.96,21.9,21.78,21.64,21.34,21.27,21.16,21.06,21.01,20.94,20.79,20.62,20.45,20.26,20.02,19.78,19.55,19.35,19.16,18.98,18.86,18.69,18.53
Central Latin America,,,9.19,9.27,9.32,9.33,9.37,9.41,9.41,9.34,9.11,8.87,9.05,8.95,8.91,8.93,8.88,8.84,8.78,8.66,8.58,8.43,8.28,8.16,8.03,7.95,7.87,7.75,7.7,7.51
Central Sub-Saharan Africa,,,2.91,2.9,2.88,2.8,2.81,2.83,2.71,2.62,2.68,2.69,2.7,2.67,2.6,2.61,2.61,2.58,2.59,2.59,2.62,2.64,2.7,2.77,2.84,2.91,2.97,3.07,3.14,3.2
Chad,,,0.85,0.83,0.84,0.86,0.86,0.85,0.87,0.88,0.89,0.9,0.9,0.91,0.91,0.91,0.92,0.92,0.91,0.94,0.96,0.98,1.01,1.03,1.06,1.07,1.09,1.11,1.13,1.13
Chile,,,12.41,11.91,11.47,11.28,11.14,11.08,10.94,10.76,10.63,10.58,10.55,10.67,10.74,10.78,10.75,10.73,10.68,10.6,10.5,10.43,10.25,10.16,10.04,9.93,9.73,9.54,9.4,9.26
China,,,15.28,15.72,16.16,16.62,17.05,17.56,18.03,18.51,19.07,19.56,19.97,20.38,20.74,21.09,21.08,20.93,20.85,20.79,20.43,20.53,20.52,20.52,20.51,20.46,20.58,20.83,20.97,21.03
Colombia,,,10.62,10.63,10.61,10.5,10.49,10.44,10.4,10.18,9.89,9.61,9.29,9.1,9.02,9.2,9.18,9.19,9.26,9.17,9.12,9.06,8.96,8.86,8.79,8.69,8.59,8.47,8.38,8.3
Comoros,,,3.28,3.3,3.34,3.38,3.41,3.44,3.35,3.45,3.42,3.45,3.44,3.49,3.49,3.54,3.57,3.59,3.64,3.65,3.77,3.67,3.83,3.8,3.91,3.96,4.03,4.06,4.08,4.09
Congo,,,4.84,4.57,4.44,4.23,4.22,4.14,4.02,3.13,3.45,3.63,3.58,3.47,3.36,3.36,3.36,3.35,3.37,3.4,3.49,3.56,3.6,3.67,3.75,3.84,3.94,4.02,4.07,4.11
Costa Rica,,,12.16,11.96,11.88,11.7,11.62,11.51,11.33,11.22,11.21,11.21,11.05,10.85,10.63,10.52,10.43,10.2,10.15,9.93,9.88,9.77,9.8,9.74,9.63,9.48,9.41,9.43,9.46,9.36
Cote d'Ivoire,,,2.55,2.52,2.52,2.53,2.54,2.55,2.54,2.5,2.5,2.5,2.53,2.53,2.51,2.52,2.55,2.58,2.64,2.67,2.7,2.73,2.76,2.82,2.94,3.04,3.13,3.24,3.32,3.41
Croatia,,,23.77,22.35,23.15,23.94,24.21,23.82,24.01,24.16,24.01,23.94,23.51,23.27,22.98,22.78,22.38,22.07,21.45,20.94,20.66,20.29,19.81,19.58,19.38,18.94,18.81,18.57,18.43,18.24
Cuba,,,21.01,20.61,20.39,20.25,20.12,19.98,20.1,20.28,20.39,20.43,20.34,20.33,20.23,20.06,19.87,19.81,19.82,19.74,19.48,19.35,19.21,18.92,18.89,18.77,18.61,18.48,18.34,18.19
Cyprus,,,17.94,18,17.79,17.71,17.67,17.68,17.75,17.85,17.88,18.2,18.46,18.73,18.95,19.17,19.44,19.55,19.67,19.79,19.8,19.85,19.8,19.69,19.69,19.7,19.58,19.47,19.37,19.28
Czech Republic,,,24.11,23.58,23.37,22.99,22.77,22.43,22.33,22.07,21.75,21.46,21.19,20.98,20.91,20.91,20.9,20.73,20.58,20.53,20.36,20.15,20.01,19.83,19.58,19.4,19.17,18.98,18.87,18.84
Democratic Republic of Congo,,,2.57,2.55,2.54,2.47,2.45,2.47,2.33,2.26,2.33,2.32,2.31,2.28,2.19,2.2,2.16,2.12,2.11,2.1,2.11,2.12,2.17,2.23,2.28,2.33,2.4,2.47,2.53,2.59
Denmark,,,30.74,30.12,29.54,29.11,28.73,28.36,28.11,27.71,27.4,27.19,26.81,26.6,26.5,26.46,26.4,26.25,26.12,25.83,25.48,25.27,25.09,24.73,24.35,23.92,23.39,22.81,22.19,21.58
Djibouti,,,3.04,3.11,3.01,3.28,3.32,3.58,3.69,3.74,3.88,3.96,4.04,4.13,4.18,4.24,4.28,4.37,4.37,4.52,4.58,4.69,4.76,4.86,4.97,5.07,5.19,5.29,5.42,5.51
Dominica,,,6.48,6.43,6.44,6.38,6.35,6.3,6.27,6.24,6.21,6.18,6.14,6.12,6.11,6.09,6.07,6.06,6.05,5.96,5.9,5.84,5.77,5.77,5.72,5.65,5.64,5.57,5.6,5.57
Dominican Republic,,,7.9,8.02,8.19,8.39,8.55,8.74,8.97,9.24,9.38,9.68,9.7,9.78,9.98,10.13,10.1,10.39,10.62,10.76,10.99,11.13,11.26,11.16,11.25,11.34,11.52,11.59,11.58,11.52
East Asia,,,15.24,15.67,16.1,16.54,16.97,17.3,17.76,18.21,18.75,19.22,19.61,20.01,20.35,20.88,20.87,20.72,20.65,20.59,20.25,20.35,20.35,20.35,20.34,20.29,20.39,20.64,20.77,20.81
East Asia & Pacific,,,14.61,14.93,15.25,15.56,15.85,16.08,16.39,16.66,17.01,17.31,17.58,17.85,18.08,18.44,18.24,18.38,18.29,18.26,17.91,18.16,18.18,18.16,18.18,18.11,18.19,18.35,18.43,18.4
Eastern Europe,,,17.63,17.67,17.97,18.33,18.45,18.31,18.06,17.8,17.62,17.61,17.76,17.73,17.7,17.5,17.28,17.14,16.77,16.66,16.73,16.58,16.35,16.55,16.39,16.32,16.27,16.48,16.47,16.52
Eastern Sub-Saharan Africa,,,2.11,2.12,2.13,2.13,1.81,2.12,2.13,2.12,2.13,2.09,2.11,2.15,2.18,2.21,2.24,2.28,2.34,2.41,2.48,2.54,2.61,2.69,2.79,2.86,2.95,3.02,3.09,3.13
Ecuador,,,6.51,6.63,6.56,6.51,6.58,6.39,6.33,6.18,6.18,6.22,6.17,6.28,6.33,6.3,6.33,6.34,6.29,6.25,6.18,6.08,6.03,6.02,5.92,5.76,5.69,5.59,5.45,5.4
Egypt,,,8.15,8.59,8.96,9.53,10.02,10.23,10.54,10.85,11.01,11.24,11.46,11.78,12.04,12.2,12.25,12.28,12.46,12.52,12.67,12.87,13.01,13.32,13.43,13.52,13.59,13.51,13.77,13.88
El Salvador,,,5.27,5.37,5.52,5.52,5.42,5.29,5.19,5.19,5.17,5.2,5.23,5.07,5.24,5.31,5.36,5.39,5.4,5.43,5.39,5.4,5.37,5.36,4.95,4.96,5,4.94,5.35,5.34
Equatorial Guinea,,,3.5,3.36,3.23,3.1,2.97,2.88,2.78,2.68,2.56,2.45,2.36,2.3,2.19,2.14,2.05,1.97,2.04,2.02,1.99,2,1.97,1.94,1.95,2.03,2.13,2.17,2.21,2.25
Eritrea,,,1.44,2,2.42,2.57,2.74,2.84,2.98,2.99,2.99,1.89,2.84,3.04,3.11,3.15,3.14,3.12,3.14,3.15,3.15,3.18,3.19,3.21,3.23,3.23,3.25,3.25,3.26,3.26
Estonia,,,20.21,20.27,20.4,20.62,20.48,20.5,19.88,19.39,18.94,18.25,17.62,17.19,17.05,16.62,16.37,15.95,15.9,15.87,15.47,15.27,15,14.8,14.73,14.4,14.5,14.22,14.14,14.12
Ethiopia,,,1.84,1.85,1.84,1.82,1.78,1.75,1.7,1.65,1.6,1.5,1.45,1.51,1.48,1.46,1.46,1.46,1.48,1.49,1.52,1.54,1.56,1.59,1.61,1.63,1.66,1.69,1.73,1.76
Europe,,,20.28,20.17,20.08,20.04,19.92,19.76,19.57,19.37,19.17,18.94,18.86,18.7,18.52,18.31,18.12,17.95,17.72,17.55,17.42,17.26,17.04,16.98,16.8,16.65,16.5,16.43,16.29,16.21
Europe & Central Asia,,,19.85,19.75,19.65,19.6,19.52,19.39,19.19,19,18.8,18.58,18.51,18.35,18.19,17.98,17.79,17.62,17.39,17.23,17.1,16.95,16.75,16.68,16.52,16.38,16.23,16.19,16.06,15.99
Fiji,,,13.47,13.33,13.3,13.04,13.04,12.95,12.89,12.93,12.8,12.74,12.69,12.62,12.39,12.34,12.32,12.48,12.61,12.61,12.54,12.41,12.47,12.48,12.48,12.48,12.45,12.39,12.23,12.21
Finland,,,18.16,17.48,16.85,16.21,15.65,15.22,14.78,14.29,13.97,13.56,13.08,12.7,12.24,11.95,11.68,11.44,11.23,11.06,10.86,10.75,10.65,10.52,10.37,10.33,10.24,10.14,10.17,10.24
France,,,17.39,17.34,17.29,17.34,17.32,17.24,17.16,17.1,17.11,16.99,16.83,16.7,16.52,16.35,16.25,16.25,16.08,15.93,15.67,15.52,15.37,15.2,14.98,14.79,14.53,14.25,13.92,13.64
Gabon,,,5.12,5.05,5.06,4.96,4.91,4.95,4.81,4.76,4.65,4.46,4.39,4.32,4.27,4.26,4.23,4.29,4.38,4.52,4.64,4.76,4.81,4.91,5.05,5.21,5.39,5.54,5.68,5.8
Gambia,,,3.8,3.84,3.84,3.92,3.98,4.05,4.12,4.14,4.24,4.28,4.35,4.44,4.51,4.56,4.64,4.67,4.74,4.75,4.79,4.82,4.87,4.92,4.95,4.96,4.95,4.96,4.93,4.9
Georgia,,,13.07,13.15,12.99,12.64,13.26,13.4,13.36,13.32,13.33,13.42,13.41,13.21,13.08,13.11,13.22,13.21,13.71,13.91,13.72,13.85,14.01,14.01,13.78,13.72,13.22,13.01,13.26,13.45
Germany,,,21.88,21.7,21.45,21.19,20.9,20.56,20.21,19.75,19.24,18.78,18.4,17.96,17.51,17.14,16.71,16.42,16.22,16.03,15.86,15.71,15.51,15.31,15.22,15.14,14.98,14.86,14.86,14.94
Ghana,,,2.39,2.4,2.4,2.38,2.34,2.35,2.38,2.41,2.45,2.49,2.53,2.52,2.53,2.54,2.56,2.59,2.63,2.65,2.65,2.67,2.69,2.75,2.8,2.82,2.83,2.85,2.87,2.9
Greece,,,24.02,24.12,24.03,24,24,24.02,24.06,24.08,24.11,24.16,24.09,23.83,23.27,22.98,22.72,22.52,22.45,22.54,22.36,22.53,22.08,21.95,21.69,21.33,21.07,20.94,20.59,20.29
Greenland,,,24.2,24.66,24.97,25.21,25.4,25.58,25.81,25.93,26.03,26.11,26.23,26.25,26.34,26.36,26.39,26.26,26.15,26.13,26.12,26.07,25.98,25.83,25.83,25.83,25.77,26.23,26.23,26.23
Grenada,,,8.55,8.45,8.29,8.04,7.93,7.84,7.71,7.75,7.8,7.88,7.91,7.94,7.98,8.07,7.93,8.15,8.12,8.09,8.04,7.97,7.91,7.87,7.77,7.7,7.66,7.63,7.66,7.57
Guam,,,8.59,8.58,8.57,8.61,8.63,8.68,8.74,8.81,8.94,9.13,9.18,9.22,9.24,9.3,9.3,9.25,9.26,9.27,9.29,9.35,9.3,9.32,9.28,9.26,9.28,9.27,9.26,9.25
Guatemala,,,4.07,4.34,4.5,4.62,4.64,4.44,4.37,4.56,4.71,4.77,4.84,4.87,4.76,4.87,4.91,4.84,4.88,4.7,4.58,4.55,4.49,4.48,4.41,4.37,4.34,4.29,4.28,4.23
Guinea,,,1.44,1.42,1.41,1.41,1.41,1.42,1.45,1.46,1.48,1.52,1.53,1.57,1.61,1.63,1.66,1.68,1.72,1.75,1.8,1.84,1.89,1.93,1.97,2,1.98,2.03,2.08,2.1
Guinea-Bissau,,,2.6,2.51,2.41,2.33,2.2,2.17,2.09,1.94,1.9,1.88,1.91,1.89,1.87,1.85,1.87,1.81,1.84,1.84,1.81,1.83,1.85,1.88,1.9,1.93,1.95,1.98,2.02,2.06
Guyana,,,7.75,7.54,7.38,7.36,7.36,7.51,7.51,7.62,7.48,7.23,7.17,7.16,7.26,7.34,7.37,7.32,7.34,7.34,7.26,7.37,7.47,7.55,7.59,7.53,7.51,7.48,7.44,7.41
Haiti,,,4.31,4.28,4.28,4.19,4.21,4.18,4.12,4.07,4.05,4.05,4.06,4.05,4.04,4.03,3.89,4.01,4.03,4.05,4.04,4.1,1.15,4,4.14,4.23,4.29,4.36,4.4,4.52
High SDI,,,23,22.61,22.22,21.85,21.46,21.14,20.82,20.51,20.2,19.91,19.6,19.31,19.04,18.79,18.55,18.3,18.03,17.75,17.45,17.18,16.9,16.6,16.4,16.17,15.92,15.68,15.46,15.28
High income,,,22.6,22.23,21.85,21.48,21.1,20.78,20.46,20.15,19.85,19.56,19.25,18.98,18.71,18.47,18.23,18.01,17.74,17.47,17.18,16.91,16.62,16.33,16.13,15.9,15.64,15.39,15.16,14.97
High-middle SDI,,,17.07,17.35,17.63,17.96,18.15,18.27,18.35,18.41,18.51,18.53,18.69,18.75,18.78,18.71,18.64,18.45,18.2,18.08,17.99,17.88,17.76,17.75,17.81,17.75,17.78,17.95,17.98,17.94
Honduras,,,6.85,6.91,7.15,7.18,7.33,7.66,7.76,7.83,5.37,7.94,8.04,8.14,8.27,8.34,8.4,8.49,8.5,8.51,8.54,8.61,8.59,8.73,7.91,8.06,8.03,7.96,8.91,8.95
Hungary,,,22.87,22.77,22.98,22.97,22.92,22.68,22.4,22.26,22.25,22.22,22.05,22.08,22.15,22.21,22.24,22.27,22.19,22.09,21.95,21.83,21.53,21.22,20.96,20.62,20.42,20.31,20,19.67
Iceland,,,22.93,22.77,22.56,22.37,22.23,21.71,22.19,22.04,21.8,21.46,21.1,20.86,20.55,20.21,19.9,19.63,19.12,18.49,17.86,17.27,16.79,16.27,15.88,15.53,15.19,14.93,14.74,14.65
India,,,7.76,7.87,7.93,8.05,8.2,8.25,8.42,8.63,8.58,8.36,8.37,8.4,8.41,8.36,8.17,8.21,8.36,8.54,8.69,8.79,8.83,8.95,9.12,9.13,9.06,9.02,9.06,9.03
Indonesia,,,7.93,8.23,8.51,8.76,9,9.23,9.49,9.73,9.96,10.21,10.58,10.86,11.16,11.42,10.53,11.98,12.17,12.47,12.68,12.87,13.09,13.29,13.44,13.54,13.66,13.77,13.83,13.85
Iran,,,7.05,8.28,8.53,8.71,8.87,9.01,9.14,9.11,9.29,9.35,9.42,9.45,9.49,8.71,9.44,9.43,9.43,9.37,9.31,9.28,9.23,9.21,9.28,9.42,9.68,9.92,10.13,10.24
Iraq,,,10.98,9.36,10.75,10.46,10.28,10.13,10.01,9.96,9.72,9.63,9.64,9.33,9.28,8.91,8.61,8.33,7.36,7.21,7.96,8.11,8.03,8.14,8.12,7.56,6.9,7.38,7.5,7.51
Ireland,,,29.55,29.28,29.01,28.79,28.35,28.01,27.48,26.98,26.53,25.95,25.4,24.84,24.47,23.99,23.62,23.12,22.81,22.61,22.31,22.24,21.7,21.44,21.01,20.6,20.15,19.56,19.03,18.48
Israel,,,19.32,19.12,18.76,18.29,17.82,17.32,16.74,16.53,16.37,15.99,15.83,15.41,14.88,14.94,14.84,14.79,14.59,14.68,14.48,14.33,14.51,14.37,14.26,14.13,13.38,13.82,13.55,13.34
Italy,,,20.26,20.23,20.18,20.03,19.99,19.75,19.44,19.26,19.03,18.84,18.5,18.23,17.86,17.63,17.34,16.97,16.57,16.13,15.76,15.44,15.2,14.95,14.71,14.53,14.32,14.07,13.78,13.64
Jamaica,,,9.77,9.64,9.78,9.76,9.84,9.9,9.99,10,10.04,10.16,9.92,9.88,9.9,9.97,9.85,9.63,9.54,10.03,10.19,10.48,10.11,9.83,9.88,10.35,10.5,10.44,10.65,10.65
Japan,,,22.2,21.92,21.64,21.32,20.95,20.57,20.34,19.91,19.57,19.24,18.92,18.7,18.43,18.29,17.94,17.76,17.41,17.15,16.83,16.62,16.3,15.73,15.75,15.52,15.26,15.01,14.79,14.58
Jordan,,,9.51,9.31,9.36,9.47,9.54,9.54,9.42,9.33,9.25,9.19,9.12,9.07,9.07,9.13,9.2,9.19,9.12,9.35,9.67,10.16,10.57,10.84,11.12,11.25,11.45,11.72,11.9,12.13
Kazakhstan,,,15.89,16.11,16.3,16.82,17.04,17.42,17.49,17.25,16.99,16.48,16.55,16.29,16.16,15.93,15.47,15.05,14.82,14.77,14.32,14.1,14.17,14.23,14.26,14.29,14.28,14.44,14.68,14.92
Kenya,,,2.22,2.21,2.18,2.16,2.12,2.1,2.09,2.08,2.11,2.16,2.23,2.27,2.33,2.39,2.46,2.54,2.62,2.7,2.8,2.91,3.03,3.14,3.21,3.23,3.27,3.31,3.36,3.39
Kiribati,,,10.86,10.98,11.12,11.39,11.56,11.65,11.93,12.17,12.44,12.69,12.91,13.16,13.51,13.89,14.28,14.64,15.05,15.55,16.04,16.48,16.79,17.01,17.18,17.34,17.46,17.56,17.64,17.66
Kuwait,,,7.3,8.91,9.64,10.15,10.12,10.62,10.65,10.67,10.83,10.98,10.82,10.59,10.29,10.41,10.72,11.14,11.47,11.6,11.82,11.59,11.73,11.96,12.39,12.77,12.91,13.17,13.59,13.89
Kyrgyzstan,,,8.66,8.9,9.07,9.31,9.53,9.69,9.71,9.71,9.74,9.81,9.91,10.03,10.16,10.22,10.23,10.33,10.39,10.44,10.35,10.38,10.55,10.77,10.81,10.77,10.84,10.9,11.05,11.21
Laos,,,9.28,9.29,9.26,9.21,9.16,9.22,9.25,9.3,9.33,9.37,9.44,9.56,9.61,9.71,9.83,9.96,10.11,10.28,10.45,10.61,10.77,10.87,11.03,11.17,11.34,11.47,11.64,11.8
Latin America & Caribbean,,,12.57,12.51,12.6,12.67,12.65,12.64,12.67,12.65,12.57,12.49,12.5,12.43,12.33,12.29,12.19,12.06,11.94,11.83,11.64,11.45,10.57,11.12,10.96,10.8,10.62,10.48,10.37,10.2
Latvia,,,16.05,16.07,16.12,16.44,16.67,16.33,15.8,15.47,15.53,15.4,15.53,15.7,15.65,15.19,15.23,15.68,15.63,15.65,15.3,15.09,15.1,14.99,14.87,14.65,14.69,14.55,14.56,14.7
Lebanon,,,16.46,17.62,17.36,17.23,17.07,16.96,16.85,17,17.05,17.13,17.24,17.55,17.79,18.03,18.33,18.46,18.07,18.65,18.72,18.95,18.96,19.03,18.83,18.42,18.46,18.66,19.04,19.08
Lesotho,,,7.22,7.2,7.16,7.03,6.92,6.71,6.5,6.37,6.17,6.04,5.88,5.76,5.7,5.6,5.56,5.52,5.55,5.64,5.8,6.03,6.28,6.38,6.41,6.45,6.51,6.58,6.93,7.35
Liberia,,,2.34,2.69,2.67,2.48,2.39,2.42,2.35,2.39,2.29,2.17,2.11,2.05,1.99,2.01,2.25,2.29,2.36,2.4,2.43,2.48,2.52,2.53,2.64,2.73,2.28,2.6,2.89,2.98
Libya,,,7.05,7.09,7.11,7.23,7.29,7.34,6.49,7.51,7.62,7.7,7.72,7.83,7.85,8.05,8.13,8.15,8.33,8.49,8.37,8.18,8.06,2.94,7.7,8.07,7.34,7.88,7.66,7.98
Lithuania,,,18.75,18.8,18.77,19,18.96,18.73,18.3,17.89,17.62,17.38,17.14,17.03,16.91,16.51,16.22,16.13,15.94,15.81,15.23,14.95,14.77,14.55,14.37,14.21,13.92,13.8,13.87,13.79
Low SDI,,,4.61,4.56,4.65,4.65,4.42,4.66,4.67,4.73,4.74,4.67,4.73,4.81,4.86,4.89,4.85,4.93,5.09,5.28,5.42,5.51,5.5,5.76,5.91,6.02,6.14,6.27,6.4,6.48
Low income,,,2.7,2.71,2.71,2.7,2.44,2.66,2.65,2.64,2.67,2.67,2.71,2.76,2.78,2.86,2.91,2.96,3.02,3.1,3.18,3.24,3.19,3.41,3.51,3.59,3.67,3.75,3.82,3.89
Low-middle SDI,,,7.33,7.41,7.49,7.56,7.65,7.61,7.68,7.79,7.76,7.68,7.7,7.71,7.73,7.77,7.73,7.73,7.82,7.92,7.95,8.18,8.28,8.4,8.51,8.54,8.5,8.56,8.64,8.65
Lower-middle income,,,7.53,7.6,7.77,7.88,8.03,8.13,8.22,8.32,8.28,8.23,8.29,8.33,8.36,8.36,8.24,8.36,8.49,8.64,8.7,8.82,8.89,9,9.1,9.16,9.14,9.26,9.32,9.33
Luxembourg,,,21.1,20.8,20.48,20.31,20.06,19.72,19.28,19.08,18.99,18.64,18.41,18.31,18.25,18.25,18.1,17.9,17.67,17.34,17.08,16.93,16.6,16.42,16.24,16.01,15.86,15.61,15.43,15.19
Macedonia,,,21.2,21.27,21.84,22.06,22.32,22.58,22.85,22.9,22.83,22.76,22.96,23.08,23.41,23.34,23.33,23.46,23.56,23.35,23.13,23.26,23.27,23.09,22.89,22.81,22.75,22.65,22.53,22.39
Madagascar,,,3.06,3.07,3.07,3.21,3.13,3.13,3.2,3.22,3.3,3.32,3.24,3.23,3.36,3.36,3.29,3.23,3.17,3.11,3.1,3.08,3.08,3.09,3.1,3.1,3.11,3.13,3.14,3.15
Malawi,,,1.95,1.9,1.91,1.91,1.98,2.07,2.1,2.1,2.1,2.06,2.05,2.02,1.99,2,2.01,2.02,2.04,2.08,2.13,2.21,2.32,2.46,2.61,2.71,2.8,2.86,2.9,2.96
Malaysia,,,14.51,14.64,14.72,14.75,14.97,15.11,15.16,15.13,15.11,15.13,15.31,15.23,15.13,15.16,15.12,15,15,15,15.1,15.08,14.99,14.78,14.57,14.5,14.44,14.38,14.32,14.32
Maldives,,,11.44,11.97,12.61,12.99,13.29,13.83,14.18,14.4,14.61,14.79,15.18,15.23,15.18,15.3,13.87,15.85,16.07,16.15,16.07,15.74,15.56,15.45,15.14,15.07,14.99,14.93,14.87,14.83
Mali,,,0.92,0.92,0.92,0.93,0.94,0.95,0.94,0.92,0.89,0.94,0.95,0.96,0.98,0.99,1.02,1.04,1.06,1.11,1.14,1.18,1.21,1.23,1.26,1.27,1.31,1.34,1.38,1.4
Malta,,,20.83,20.78,20.64,20.48,20.43,20.5,20.47,20.42,20.29,20.14,19.83,19.57,19.35,18.97,18.55,18.27,17.88,17.63,17.3,16.9,16.79,16.38,16.18,15.96,15.79,15.65,15.7,15.71
Marshall Islands,,,9.18,9.18,9.26,9.31,9.22,9.16,9.07,9.06,9.04,8.99,8.82,9.01,9.02,9.09,9.17,9.26,9.41,9.53,9.66,9.78,9.91,10.02,10.11,10.18,10.25,10.3,10.35,10.38
Mauritania,,,1.87,1.91,1.96,1.99,2.03,2.06,2.07,2.1,2.11,2.11,2.12,2.15,2.16,2.18,2.22,2.23,2.28,2.31,2.36,2.4,2.43,2.47,2.51,2.54,2.57,2.59,2.61,2.63
Mauritius,,,16.52,16.11,15.66,15.95,15.85,15.75,15.71,15.75,15.52,15.18,14.69,14.65,14.72,14.09,13.67,12.99,12.29,11.89,11.73,11.67,11.24,11.23,10.91,10.88,10.78,10.79,10.8,10.9
Mexico,,,9.24,9.24,9.3,9.38,9.47,9.52,9.55,9.59,9.56,9.5,9.47,9.38,9.39,9.4,9.34,9.32,9.16,9.02,8.89,8.67,8.45,8.26,8.13,8.04,7.94,7.75,7.59,7.25
Micronesia,,,10.4,10.4,10.39,10.37,10.33,10.31,10.3,10.3,10.3,10.3,10.01,10.33,9.72,10.43,10.42,10.44,10.48,10.54,10.6,10.66,10.71,10.77,10.81,10.82,10.81,10.72,10.77,10.76
Middle East & North Africa,,,8.11,8.49,8.83,9.06,9.25,9.38,9.51,9.63,9.73,9.84,9.9,9.99,10.05,9.94,10.11,10.13,10.07,10.1,10.21,10.29,10.38,10.15,10.21,10.31,10.17,10.4,10.5,10.66
Middle SDI,,,11.37,11.63,11.88,12.16,12.43,12.68,12.94,13.12,13.32,13.46,13.67,13.82,13.94,14.12,13.88,14.07,13.99,13.98,13.87,13.97,14.03,14.04,13.98,13.89,13.95,14.09,14.14,14.16
Moldova,,,14.39,14.34,13.99,14.24,14.6,14.71,14.51,14.31,14.23,14.12,13.97,13.75,13.71,13.76,14.02,14.26,14.16,14.27,14.49,14.94,15.26,15,14.88,15,15.04,15.11,15.23,15.28
Mongolia,,,9.17,9.52,9.63,9.88,10.08,10.22,10.38,10.47,10.62,10.85,11.11,11.46,11.77,11.93,11.99,12.08,12.12,12.19,12.33,12.51,12.48,12.6,12.67,12.8,12.99,13.25,13.52,13.83
Montenegro,,,24.4,24.61,24.57,24.86,25.07,25.15,25.22,25.43,25.76,26.06,26.15,26.22,26.26,26.36,26.51,26.55,26.75,26.88,26.95,27.23,27.17,26.97,26.62,26.5,26.54,26.5,26.48,26.5
Morocco,,,7.02,7.32,7.55,7.8,8,8.15,8.32,8.49,8.67,8.76,8.76,8.77,8.65,8.67,8.65,8.7,8.74,8.73,8.68,8.63,8.57,8.52,8.49,8.47,8.45,8.42,8.38,8.33
Mozambique,,,2.34,2.34,2.36,2.39,2.4,2.42,2.46,2.52,2.54,2.59,2.64,2.68,2.72,2.77,2.83,2.89,2.97,3.07,3.18,3.24,3.3,3.35,3.39,3.48,3.62,3.71,3.78,3.82
Myanmar,,,14.58,14.64,14.69,14.8,14.82,14.81,14.83,14.78,14.74,14.71,14.7,14.72,14.74,14.77,14.87,14.96,15.09,15.24,11.76,15.6,15.77,15.94,16.12,16.32,16.51,16.62,16.79,16.61
Namibia,,,8.84,8.76,8.72,8.61,8.37,8.36,8.17,7.91,7.62,7.32,7,6.71,6.42,6.11,5.82,5.57,5.38,5.3,5.31,5.3,5.43,5.64,5.96,6.23,6.42,6.57,6.72,6.76
Nepal,,,7.19,7.39,7.6,7.81,8.06,8.25,8.44,8.75,8.99,9.28,9.55,9.78,9.77,10.25,10.45,10.83,11.18,11.5,11.75,12.01,12.23,12.47,12.67,12.78,12.84,12.29,12.92,12.89
Netherlands,,,27.51,27.04,26.58,26.32,25.89,25.69,25.46,25.13,24.87,24.52,24.19,23.84,23.48,23.24,22.98,22.64,22.4,22.2,21.98,21.78,21.65,21.33,21.14,20.94,20.61,20.51,20.33,20.25
New Zealand,,,24.08,23.22,22.53,21.65,20.85,20.29,19.6,18.94,18.35,17.88,17.35,16.93,16.57,16.28,15.96,15.65,15.37,15.19,14.93,14.71,14.44,14.03,13.97,13.78,13.53,13.26,13.08,12.89
Nicaragua,,,4.52,4.8,4.9,5.06,5.22,5.34,5.5,5.57,5.42,5.78,5.85,5.93,6.03,6.15,6.19,6.26,6.24,6.24,6.31,6.29,6.2,6.29,6.35,6.32,6.33,6.3,6.33,6.36
Niger,,,0.48,0.47,0.48,0.48,0.48,0.48,0.49,0.5,0.51,0.52,0.52,0.54,0.55,0.56,0.58,0.6,0.62,0.64,0.66,0.68,0.71,0.73,0.76,0.79,0.83,0.86,0.9,0.94
Nigeria,,,1.3,1.28,1.27,1.25,1.23,1.2,1.16,1.14,1.1,1.07,1.04,1.01,0.97,0.93,0.89,0.86,0.84,0.81,0.79,0.78,0.78,0.78,0.79,0.8,0.8,0.83,0.84,0.85
North Korea,,,13.39,13.49,13.62,13.71,13.81,9.05,9.21,9.35,9.5,9.63,9.77,9.91,10.08,14.5,14.63,14.77,14.92,15.06,15.28,15.42,15.54,15.6,15.65,15.67,15.67,15.65,15.57,15.53
Northern Mariana Islands,,,8.78,8.78,8.72,8.61,8.48,8.39,8.27,8.14,7.99,7.95,7.94,8.04,8.14,8.23,8.11,8.28,8.51,8.63,8.95,9.26,9.55,9.75,9.88,9.94,9.95,9.96,9.94,9.92
Norway,,,19.45,19.25,19.04,18.8,18.62,18.59,18.28,18.16,18.2,18.09,18.05,17.97,17.96,17.9,17.91,17.9,17.8,17.74,17.72,17.59,17.42,17.14,16.85,16.53,15.99,15.46,14.83,14.26
Oceania,,,11.63,11.48,11.48,11.42,11.39,11.37,11.35,11.31,10.94,11.26,11.25,11.2,11.14,11.11,11.12,11.16,11.22,11.27,11.38,11.42,11.57,11.7,11.78,11.95,12.08,12.2,12.3,12.4
Oman,,,7.16,7.38,7.63,7.79,7.87,8,8.23,8.46,8.54,8.61,8.67,8.9,9.01,8.99,8.92,8.92,8.99,8.89,8.61,8.32,8.36,8.54,8.6,8.44,8.36,8.33,8.19,8.23
Pakistan,,,7.3,7.44,7.52,7.66,7.77,7.86,8.02,8.22,8.26,8.33,8.43,8.51,8.58,8.64,8.74,8.35,8.83,8.88,8.88,8.92,8.96,9.04,9.06,9.09,9.02,9.1,9.11,9.08
Palestine,,,7.44,7.4,7.35,7.4,7.54,7.61,7.64,7.64,7.61,7.57,6.47,6.13,5.79,6.15,5.92,6.34,5.5,6.16,4.97,4.99,6.75,6.72,6.6,7.31,7.04,7.5,7.72,7.88
Panama,,,10.82,10.56,10.48,10.52,10.24,10.13,9.89,9.72,9.56,9.53,9.33,9.33,9.27,9.23,9.17,9.19,9.05,8.88,8.77,8.7,8.62,8.58,8.53,8.4,8.37,8.28,8.18,8.12
Papua New Guinea,,,11.48,11.32,11.3,11.25,11.21,11.18,11.16,11.13,10.66,11.07,11.07,11.02,10.98,10.95,10.97,11,11.06,11.12,11.24,11.33,11.46,11.61,11.7,11.9,12.06,12.2,12.33,12.45
Paraguay,,,12.84,12.84,13.11,13.22,13.36,13.26,13.25,13.2,13.38,13.48,13.33,13.23,13.17,13.17,13,13.24,13.33,13.35,13.3,13.41,13.46,13.36,13.28,13.18,13.1,13.15,13.18,13.12
Peru,,,3.81,3.64,3.97,4.21,4.31,4.46,4.55,4.61,4.64,4.66,4.73,4.8,4.92,5.02,5.13,5.2,5.25,5.31,5.4,5.44,5.48,5.46,5.37,5.27,5.15,5.14,5.05,4.97
Philippines,,,11.09,11.61,12.23,12.56,13.17,13.63,14.01,14.29,14.62,14.79,14.77,14.88,14.92,14.9,14.93,15.07,15.08,15.14,15.15,15.1,15.07,14.96,14.87,14.54,14.44,14.24,14.19,14.06
Poland,,,25.47,25.41,25.04,24.63,24.24,24.2,23.89,23.76,23.53,23.33,22.96,22.84,22.7,22.63,22.62,22.42,22.21,21.89,21.43,20.96,20.68,20.43,20.26,20.07,19.78,19.69,19.52,19.39
Portugal,,,15.07,14.89,14.8,14.64,14.38,14.29,14.22,13.92,13.86,13.72,13.52,13.34,13.14,12.9,12.79,12.82,12.79,12.41,12.24,12.12,12.04,11.92,11.71,11.56,11.31,10.97,10.68,10.43
Puerto Rico,,,7.61,7.41,7.26,7.16,7.07,7.06,7.06,7.1,7.24,7.13,7.08,7.08,6.98,6.95,6.91,6.91,6.86,6.79,6.68,6.67,6.51,6.43,6.32,6.25,6.15,6.1,5.91,5.4
Qatar,,,7.23,7.36,7.51,7.66,7.79,7.9,7.85,7.78,7.79,7.76,7.66,7.54,7.44,7.37,7.32,7.33,7.15,7.02,7.02,6.86,6.81,6.78,6.8,6.96,7.04,7.16,7.24,7.39
Romania,,,18.53,18.48,18.64,18.64,18.64,18.61,18.47,18.46,18.22,18.06,18,18.17,18.2,18.23,18.15,17.92,17.78,17.71,17.76,17.65,17.44,17,16.79,16.54,16.37,16.05,15.84,15.51
Russia,,,17.2,17.17,17.54,18.11,18.25,17.93,17.57,17.23,17.06,17.1,17.34,17.38,17.41,17.31,17.11,17.05,16.66,16.53,16.69,16.66,16.37,16.66,16.48,16.37,16.36,16.32,16.29,16.41
Rwanda,,,4.18,4.19,4.13,3.65,0.63,3.57,3.69,3.3,3.2,3.16,3.09,3.1,3.17,3.25,3.34,3.45,3.62,3.8,3.99,4.2,4.43,4.64,4.81,5.02,5.17,5.3,5.41,5.56
Saint Lucia,,,8.89,8.95,8.97,8.87,8.75,8.7,8.64,8.75,8.78,8.73,8.62,8.57,8.63,8.76,8.84,8.84,8.76,8.63,8.49,8.43,8.41,8.34,8.32,8.29,8.34,8.43,8.46,8.5
Saint Vincent and the Grenadines,,,6.77,6.87,6.85,6.82,6.84,6.73,6.62,6.63,6.6,6.53,6.49,6.46,6.46,6.59,6.58,6.58,6.56,6.59,6.65,6.7,6.71,6.74,6.81,6.72,6.8,6.86,6.9,6.96
Samoa,,,15.83,15.71,16.02,16.05,16.11,16.2,16.37,16.41,16.45,16.42,16.39,16.36,16.35,16.32,16.28,16.11,16.24,16.17,16.12,13.96,15.98,15.96,15.79,16.05,16.13,16.22,16.34,16.5
Sao Tome and Principe,,,2.57,2.58,2.55,2.54,2.5,2.51,2.53,2.57,2.61,2.62,2.65,2.72,2.79,2.83,2.88,2.86,2.97,2.98,3,3.15,3.23,3.3,3.36,3.39,3.44,3.52,3.59,3.61
Saudi Arabia,,,2.78,2.9,3.01,3.13,3.26,3.39,3.5,3.6,3.73,3.85,3.99,4.09,4.22,4.4,4.6,4.86,5.05,5.28,5.5,5.66,5.8,5.86,5.89,5.91,5.93,5.8,5.88,5.92
Senegal,,,2.67,2.68,2.68,2.67,2.68,2.65,2.63,2.61,2.57,2.55,2.55,2.54,2.49,2.5,2.49,2.48,2.49,2.5,2.5,2.51,2.54,2.6,2.65,2.7,2.75,2.79,2.81,2.84
Serbia,,,20.43,21.03,21.29,21.68,22,22.3,22.59,22.65,22.26,20.53,22.24,21.81,21.53,21.24,20.96,20.69,20.54,20.5,20.63,20.63,20.52,20.32,20.16,20.12,20.09,20.15,20,19.99
Seychelles,,,11.8,11.88,11.93,11.92,12.07,12.18,12.11,11.89,11.95,11.86,11.67,11.5,11.53,11.56,11.43,11.55,11.53,11.5,11.57,11.6,11.6,11.6,11.61,11.55,11.52,11.55,11.53,11.54
Sierra Leone,,,3.43,3.33,3.4,3.38,3.21,3.16,3.23,3.18,2.99,2.96,3.08,3.04,2.98,2.92,2.86,2.85,2.86,2.89,2.93,2.97,3.05,3.09,3.16,3.23,3.06,3.22,3.37,3.42
Singapore,,,17.32,17.35,17.02,16.58,16.42,16.31,16.15,15.69,15.46,15.12,15.02,14.78,14.66,14.26,13.82,13.91,13.52,13.63,13.59,13.51,13.36,13.26,12.92,12.92,12.65,12.36,12.2,12.1
Slovakia,,,22.8,22.54,22.58,22.34,22.04,21.81,21.56,21.32,21.27,20.91,20.59,20.21,20.08,19.81,19.36,19.19,18.77,18.32,17.98,17.34,16.97,16.66,16.39,16.16,16.02,15.89,15.69,15.61
Slovenia,,,18.44,18.56,18.83,19.11,19.09,19.07,18.95,18.94,18.88,18.69,18.53,18.43,18.14,18.03,17.61,17.16,17.09,16.69,16.45,16.08,15.87,15.63,15.45,15.24,15.05,15.12,14.96,14.89
Solomon Islands,,,11.93,11.83,11.99,11.99,12.02,12.03,11.99,11.91,11.81,11.64,11.49,11.49,11.38,11.29,11.23,11.2,11.24,11.13,11.35,11.36,11.5,11.61,11.72,11.81,11.81,12.08,12.26,12.42
Somalia,,,2.03,2.01,2.18,2.37,2.42,2.52,2.54,2.55,2.64,2.67,2.72,2.75,2.79,2.83,2.86,2.95,3,2.99,3.07,3.12,2.94,2.98,3.23,3.31,3.36,3.4,3.4,3.35
South Africa,,,10,10.12,10.09,10.13,10.11,10.04,10.08,9.94,9.45,8.8,8.34,7.67,7.18,6.8,6.45,6.2,6.06,5.87,5.73,5.65,5.63,5.66,5.7,5.79,5.92,6,6.11,6.3
South Asia,,,7.48,7.48,7.65,7.76,7.89,7.96,8.13,8.33,8.3,8.16,8.21,8.25,8.27,8.26,8.12,8.16,8.36,8.53,8.67,8.77,8.83,8.94,9.08,9.1,9.06,9.04,9.09,9.09
South Korea,,,18.99,18.68,18.3,18.08,18.07,17.85,17.88,17.92,17.99,18.17,18.46,18.58,18.71,18.82,19.08,19.06,19.04,18.86,18.65,18.4,18.14,17.88,17.66,17.41,17.11,16.79,16.37,16.04
South Sudan,,,1.78,1.83,1.91,1.97,2.06,2.12,2.16,2,2.07,2.13,2.17,2.16,2.16,2.19,2.23,2.24,2.22,2.26,2.26,2.17,2.24,2.16,2.21,2.17,2.23,2.4,2.46,2.45
Southeast Asia,,,10.44,10.68,10.92,11.12,11.32,11.49,11.66,11.75,11.9,12.05,12.24,12.41,12.58,12.74,12.23,13.1,13.23,13.41,13.05,13.61,13.72,13.84,13.89,13.87,13.9,13.89,13.9,13.84
Southern Sub-Saharan Africa,,,8.85,8.74,8.57,8.41,8.29,8.14,8.15,8.11,7.81,7.41,7.17,6.72,6.41,6.16,5.92,5.77,5.69,5.57,5.49,5.48,5.56,5.68,5.79,5.93,6.09,6.2,6.33,6.53
Spain,,,19.69,19.71,19.74,19.67,19.59,19.65,19.6,19.54,19.52,19.52,19.29,19.12,18.9,18.4,18.41,18.29,18.01,17.75,17.34,17.09,16.88,16.58,16.4,16.09,15.88,15.71,15.49,15.36
Sri Lanka,,,10.94,10.69,10.92,11.2,11.47,11.36,11.53,11.66,11.67,11.87,11.82,11.93,11.88,11.85,8.84,11.37,11.33,11.39,10.83,10.27,10.29,11.12,10.95,10.58,10.53,10.34,10.2,10.07
Sub-Saharan Africa,,,2.35,2.35,2.36,2.34,2.2,2.35,2.36,2.38,2.39,2.37,2.39,2.37,2.36,2.35,2.35,2.35,2.37,2.38,2.4,2.41,2.44,2.47,2.52,2.56,2.59,2.65,2.7,2.73
Sudan,,,1.04,1.07,1.08,1.08,1.11,1.12,1.13,1.12,1.12,1.14,1.14,1.14,1.13,1.13,1.12,1.18,1.18,1.19,1.2,1.2,1.22,1.23,1.25,1.27,1.29,1.33,1.34,1.37
Suriname,,,9.61,9.75,9.85,10.02,9.94,9.68,9.69,9.77,9.9,10.01,10.18,10.2,10.3,10.32,10.34,10.48,10.41,10.39,10.37,10.47,10.57,10.61,10.64,10.76,10.85,11.02,11.06,11.08
Swaziland,,,5.91,5.94,5.84,5.7,5.49,5.2,4.9,4.51,4.23,3.98,3.82,3.68,3.61,3.54,3.46,3.4,3.37,3.36,3.36,3.38,3.46,3.64,3.74,3.87,4.13,4.45,4.7,4.93
Sweden,,,19.91,19.31,18.67,18.18,17.72,17.61,17.44,17.41,17.36,17.33,17.23,17.15,17.04,16.99,16.97,16.81,16.63,16.39,16.16,15.95,15.68,15.49,15.23,15.06,14.91,14.66,14.47,14.35
Switzerland,,,19.52,19.18,18.78,18.32,18.04,17.78,17.58,17.61,17.66,17.45,17.41,17.26,17.11,17.06,17.02,16.94,16.77,16.67,16.48,16.4,16.19,16.07,15.93,15.86,15.65,15.38,15.11,14.98
Syria,,,11.37,11.69,12.12,12.34,12.62,12.82,13.05,13.28,13.36,13.41,13.77,13.96,14.03,14.45,14.26,13.93,13.48,13.57,13.63,13.65,13.53,11.56,7.18,7.9,6.66,7.72,7.77,8.77
Taiwan,,,14.38,14.52,14.74,14.69,14.84,14.81,14.88,14.89,15.21,15.14,15.57,15.73,15.81,15.89,16.12,16.21,16.36,16.38,16.55,16.44,16.49,16.6,16.36,16.29,16.13,16.01,15.76,15.45
Tajikistan,,,8.5,8.76,8.03,6.62,9.48,9.51,8.98,9.38,9.1,9.14,9.06,8.96,9.04,9.05,9.1,9.19,9.16,9.17,9.05,8.88,8.74,8.71,8.57,8.42,8.4,8.51,8.55,8.68
Tanzania,,,2.42,2.39,2.37,2.37,2.37,2.37,2.39,2.41,2.47,2.52,2.57,2.6,2.65,2.72,2.79,2.84,2.93,3.04,3.13,3.19,3.28,3.39,3.59,3.79,3.97,4.13,4.3,4.43
Thailand,,,14.15,14.19,14.07,13.88,13.69,13.39,13.15,12.74,12.55,12.53,12.42,12.41,12.49,12.64,12.61,13.22,13.34,13.36,13.33,13.24,13.26,13.2,13.03,12.79,12.6,12.4,12.21,12.03
Timor,,,4.68,4.74,4.94,5.02,5.22,5.32,5.77,5.55,5.75,4.57,6.6,6.88,7.21,7.62,8.06,8.47,8.83,9.23,9.61,9.93,10.26,10.51,10.73,10.93,11.04,11.1,11.14,11.19
Togo,,,2.06,2.09,2.13,2.16,2.19,2.22,2.24,2.23,2.25,2.22,2.21,2.19,2.18,2.2,2.19,2.18,2.23,2.25,2.3,2.36,2.44,2.53,2.6,2.67,2.75,2.83,2.89,3.01
Tonga,,,12.24,12.36,12.38,12.36,12.38,12.38,12.34,12.14,12.36,12.44,12.35,12.26,12.16,12.09,12.04,11.95,11.92,11.87,11.77,10.58,11.74,11.69,11.65,11.61,11.55,11.53,11.49,11.46
Trinidad and Tobago,,,11.31,11.26,11.18,11.07,11.07,10.73,10.89,10.57,10.46,10.18,9.81,9.75,9.59,9.57,9.52,9.39,9.15,9.07,9.08,8.94,9.01,9.04,9.05,8.95,8.96,8.96,8.91,8.86
Tropical Latin America,,,15.85,15.96,16.26,16.49,16.48,16.43,16.47,16.45,16.47,16.39,16.24,16.08,15.86,15.68,15.48,15.17,14.93,14.69,14.45,14.2,13.98,13.73,13.49,13.22,12.95,12.75,12.57,12.44
Tunisia,,,12.68,13.17,13.63,13.99,14.32,14.7,14.95,15.16,15.4,15.45,15.47,15.46,15.42,15.39,15.43,15.45,15.47,15.46,15.47,15.47,15.53,15.5,15.71,15.79,15.89,15.98,16.09,16.2
Turkey,,,17.55,17.97,18.17,18.56,18.61,18.77,18.85,18.98,19.06,18.3,19.37,19.5,19.59,19.77,20.07,20.53,20.86,20.95,20.94,21.09,21.03,20.87,20.65,20.35,20.05,19.78,19.43,19.16
Turkmenistan,,,9.56,9.78,9.88,10.37,10.5,10.47,10.54,10.5,10.49,10.34,10.28,10.21,10.38,10.69,10.84,10.89,10.84,10.83,10.58,10.28,10.14,10.12,10.24,10.59,10.98,11.35,11.54,11.77
Uganda,,,0.93,0.96,0.99,1.03,1.09,1.13,1.18,1.22,1.26,1.32,1.37,1.43,1.47,1.5,1.55,1.6,1.66,1.71,1.76,1.82,1.87,1.94,2.03,2.14,2.23,2.31,2.35,2.39
Ukraine,,,18.57,18.73,18.96,18.88,19,19.25,19.2,19.15,18.94,18.91,18.96,18.73,18.51,18.02,17.75,17.29,16.91,16.83,16.69,16.15,15.97,15.98,16.02,16.11,15.96,16.98,17.06,16.97
United Arab Emirates,,,5.46,5.75,6.04,6.32,6.58,6.82,7,7.02,7.12,7.16,7.19,7.05,6.92,6.86,6.72,6.71,6.92,6.66,6.38,6.02,6.41,6.89,7.35,7.8,8.26,8.71,9.14,9.51
United Kingdom,,,26.85,26.27,25.71,25.2,24.56,23.99,23.39,22.76,22.17,21.61,21.02,20.46,19.97,19.51,19.07,18.63,18.26,17.81,17.43,17.08,16.76,16.5,16.18,16,15.79,15.6,15.43,15.27
United States,,,25.84,24.98,24.17,23.42,22.71,22.16,21.72,21.33,20.91,20.5,20.14,19.78,19.5,19.22,18.93,18.64,18.33,18,17.7,17.36,16.99,16.66,16.34,16.02,15.67,15.31,15.02,14.77
Upper-middle income,,,15.08,15.36,15.71,16.1,16.37,16.56,16.74,16.9,17.11,17.24,17.47,17.62,17.72,17.81,17.75,17.61,17.41,17.32,17.17,17.2,17.17,17.17,17.19,17.1,17.17,17.34,17.4,17.41
Uruguay,,,19.51,18.51,18.66,18.65,18.44,18.25,18.08,17.87,17.82,17.81,17.7,17.6,17.6,17.42,17.27,17.24,17.12,17.05,16.79,16.68,16.41,15.86,15.59,15.37,15.05,14.74,14.39,14.13
Uzbekistan,,,5.06,5.21,5.29,5.5,5.74,5.99,6.3,6.54,6.81,7.08,7.27,7.51,7.76,8.02,8.23,8.48,8.59,8.69,8.74,8.79,8.93,9.18,9.36,9.53,9.78,9.96,10.08,10.19
Vanuatu,,,10.66,10.67,10.64,10.6,10.61,10.58,10.55,9.73,10.47,10.09,10.38,10.33,10.31,10.29,10.28,10.28,10.31,10.35,10.38,10.4,10.43,10.46,10.48,10.5,10.46,10.47,10.51,10.47
Venezuela,,,12.77,13.25,13.15,12.85,12.54,12.51,12.39,12.09,11.85,8.83,11.14,10.92,10.56,10.27,10.22,10.11,9.97,9.79,9.64,9.48,9.36,9.32,9.23,9.1,9.07,9.1,9.18,9.23
Vietnam,,,10.19,10.46,10.74,11.01,11.26,11.48,11.7,11.85,12.18,12.43,12.71,12.97,13.17,13.32,13.45,13.53,13.63,13.74,13.85,13.95,14.01,14.08,14.14,14.2,14.24,14.24,14.25,14.24
Western Europe,,,21.7,21.47,21.24,21.03,20.77,20.52,20.23,19.94,19.66,19.39,19.07,18.75,18.41,18.1,17.86,17.6,17.35,17.08,16.8,16.57,16.35,16.12,15.92,15.74,15.51,15.31,15.11,14.98
Western Sub-Saharan Africa,,,1.56,1.55,1.55,1.54,1.53,1.52,1.5,1.49,1.47,1.46,1.45,1.43,1.41,1.4,1.39,1.38,1.39,1.39,1.4,1.41,1.43,1.45,1.48,1.5,1.51,1.55,1.58,1.6
World,,,12.22,12.25,12.36,12.49,12.43,12.57,12.57,12.54,12.53,12.53,12.57,12.6,12.63,12.68,12.57,12.56,12.48,12.47,12.42,12.47,12.43,12.51,12.55,12.53,12.54,12.65,12.69,12.69
Yemen,,,4.68,4.77,4.87,4.97,5.02,5.17,5.25,5.35,5.45,5.58,5.69,5.82,5.94,6.06,6.21,6.39,6.55,6.68,6.83,6.98,7.15,7.27,7.4,7.72,7.8,7.7,7.53,7.61
Zambia,,,2.61,2.58,2.57,2.59,2.6,2.61,2.61,2.6,2.6,2.57,2.57,2.49,2.51,2.5,2.48,2.48,2.51,2.57,2.7,2.82,3,3.15,3.28,3.38,3.49,3.6,3.67,3.68
