country,flag,color,1990,1991,1992,1993,1994,1995,1996,1997,1998,1999,2000,2001,2002,2003,2004,2005,2006,2007,2008,2009,2010,2011,2012,2013,2014,2015,2016,2017
Argentina,argentina,#79bee8,20.47,19.97,19.67,19.25,18.95,18.7,18.64,18.64,18.48,18.46,18.24,18.2,18.26,18.28,18.29,18.32,18.19,18.08,17.87,17.64,17.34,17.14,16.91,16.6,16.23,16.01,15.81,15.61
Bolivia,bolivia,#0e7a3e,5.34,5.34,5.25,5.25,5.23,5.24,5.24,5.28,5.31,5.36,5.39,5.45,5.5,5.56,5.61,5.66,5.7,5.74,5.8,5.85,5.88,5.91,5.94,5.96,5.97,6,6.01,6.03
Brasil,brazil,#009d2e,15.91,16.02,16.32,16.56,16.54,16.5,16.54,16.52,16.53,16.45,16.31,16.14,15.92,15.73,15.54,15.22,14.97,14.73,14.48,14.22,13.99,13.74,13.5,13.23,12.94,12.74,12.55,12.43
Chile,chile,#ff4b5c,12.41,11.91,11.47,11.28,11.14,11.08,10.94,10.76,10.63,10.58,10.55,10.67,10.74,10.78,10.75,10.73,10.68,10.6,10.5,10.43,10.25,10.16,10.04,9.93,9.73,9.54,9.4,9.26
Colombia,colombia,#ffdb2d,10.62,10.63,10.61,10.5,10.49,10.44,10.4,10.18,9.89,9.61,9.29,9.1,9.02,9.2,9.18,9.19,9.26,9.17,9.12,9.06,8.96,8.86,8.79,8.69,8.59,8.47,8.38,8.3
Costa Rica,costa-rica,#f93f52,12.16,11.96,11.88,11.7,11.62,11.51,11.33,11.22,11.21,11.21,11.05,10.85,10.63,10.52,10.43,10.2,10.15,9.93,9.88,9.77,9.8,9.74,9.63,9.48,9.41,9.43,9.46,9.36
Cuba,cuba,#f10d29,21.01,20.61,20.39,20.25,20.12,19.98,20.1,20.28,20.39,20.43,20.34,20.33,20.23,20.06,19.87,19.81,19.82,19.74,19.48,19.35,19.21,18.92,18.89,18.77,18.61,18.48,18.34,18.19
República Dominicana,dominicana,#042d61,7.9,8.02,8.19,8.39,8.55,8.74,8.97,9.24,9.38,9.68,9.7,9.78,9.98,10.13,10.1,10.39,10.62,10.76,10.99,11.13,11.26,11.16,11.25,11.34,11.52,11.59,11.58,11.52
Ecuador,ecuador,#ffc300,6.51,6.63,6.56,6.51,6.58,6.39,6.33,6.18,6.18,6.22,6.17,6.28,6.33,6.3,6.33,6.34,6.29,6.25,6.18,6.08,6.03,6.02,5.92,5.76,5.69,5.59,5.45,5.4
El Salvador,salvador,#008cc3,5.27,5.37,5.52,5.52,5.42,5.29,5.19,5.19,5.17,5.2,5.23,5.07,5.24,5.31,5.36,5.39,5.4,5.43,5.39,5.4,5.37,5.36,4.95,4.96,5,4.94,5.35,5.34
Guatemala,guatemala,#0098d3,4.07,4.34,4.5,4.62,4.64,4.44,4.37,4.56,4.71,4.77,4.84,4.87,4.76,4.87,4.91,4.84,4.88,4.7,4.58,4.55,4.49,4.48,4.41,4.37,4.34,4.29,4.28,4.23
Haití,haiti,#f42f4b,4.31,4.28,4.28,4.19,4.21,4.18,4.12,4.07,4.05,4.05,4.06,4.05,4.04,4.03,3.89,4.01,4.03,4.05,4.04,4.1,1.15,4,4.14,4.23,4.29,4.36,4.4,4.52
Honduras,honduras,#0074d2,6.85,6.91,7.15,7.18,7.33,7.66,7.76,7.83,5.37,7.94,8.04,8.14,8.27,8.34,8.4,8.49,8.5,8.51,8.54,8.61,8.59,8.73,7.91,8.06,8.03,7.96,8.91,8.95
México,mexico,#006843,9.24,9.24,9.3,9.38,9.47,9.52,9.55,9.59,9.56,9.5,9.47,9.38,9.39,9.4,9.34,9.32,9.16,9.02,8.89,8.67,8.45,8.26,8.13,8.04,7.94,7.75,7.59,7.25
Nicaragua,nicaragua,#0067ca,4.52,4.8,4.9,5.06,5.22,5.34,5.5,5.57,5.42,5.78,5.85,5.93,6.03,6.15,6.19,6.26,6.24,6.24,6.31,6.29,6.2,6.29,6.35,6.32,6.33,6.3,6.33,6.36
Panamá,panama,#0051b9,10.82,10.56,10.48,10.52,10.24,10.13,9.89,9.72,9.56,9.53,9.33,9.33,9.27,9.23,9.17,9.19,9.05,8.88,8.77,8.7,8.62,8.58,8.53,8.4,8.37,8.28,8.18,8.12
Paraguay,paraguay,#008cc3,12.84,12.84,13.11,13.22,13.36,13.26,13.25,13.2,13.38,13.48,13.33,13.23,13.17,13.17,13,13.24,13.33,13.35,13.3,13.41,13.46,13.36,13.28,13.18,13.1,13.15,13.18,13.12
Perú,peru,#fc0023,3.81,3.64,3.97,4.21,4.31,4.46,4.55,4.61,4.64,4.66,4.73,4.8,4.92,5.02,5.13,5.2,5.25,5.31,5.4,5.44,5.48,5.46,5.37,5.27,5.15,5.14,5.05,4.97
Puerto Rico,puerto-rico,#0052b5,7.61,7.41,7.26,7.16,7.07,7.06,7.06,7.1,7.24,7.13,7.08,7.08,6.98,6.95,6.91,6.91,6.86,6.79,6.68,6.67,6.51,6.43,6.32,6.25,6.15,6.1,5.91,5.4
Uruguay,uruguay,#0035ab,19.51,18.51,18.66,18.65,18.44,18.25,18.08,17.87,17.82,17.81,17.7,17.6,17.6,17.42,17.27,17.24,17.12,17.05,16.79,16.68,16.41,15.86,15.59,15.37,15.05,14.74,14.39,14.13
Venezuela,venezuela,#fc0023,12.77,13.25,13.15,12.85,12.54,12.51,12.39,12.09,11.85,8.83,11.14,10.92,10.56,10.27,10.22,10.11,9.97,9.79,9.64,9.48,9.36,9.32,9.23,9.1,9.07,9.1,9.18,9.23
