jugador,TEMP,PJ,PI,MIN,TCA,TCA%,3PT,3PT%,AS,BLK,TL,TL%,FC,PTS,REB,BR,BP,RE
Shaquille O'Neal,17,216,214,8097,2041,56.3,0,0,582,459,1168,50.4,769,5250,2508,117,649,
Kareem Abdul-Jabbar,18,237,140,8612,2356,53.3,0,0,767,476,1050,74,797,5762,2481,189,447,
