Country,flag,color,1990,1991,1992,1993,1994,1995,1996,1997,1998,1999,2000,2001,2002,2003,2004,2005,2006,2007,2008,2009,2010,2011,2012,2013,2014,2015,2016,2017,2018,2019,2020
Argentina,argentina,#79bee8,0,0,0,0.03,0.04,0.09,0.14,0.28,0.83,3.28,7.04,9.78,10.88,11.91,16.04,17.72,20.93,25.95,28.11,34,45,51,55.8,59.9,64.7,68.04,70.97,74.29,74.29,74.29,74.29
Bolivia,bolivia,#0e7a3e,0,0,0,0,0,0.07,0.2,0.45,0.63,0.98,1.44,2.12,3.12,3.51,4.44,5.23,6.2,10.5,12.5,16.8,22.4,30,35.34,36.99,34.6,35.56,39.7,43.83,44.29,44.29,44.29
Brasil,brazil,#009d2e,0,0,0.01,0.03,0.04,0.11,0.45,0.79,1.48,2.04,2.87,4.53,9.15,13.21,19.07,21.02,28.18,30.88,33.83,39.22,40.65,45.69,48.56,51.04,54.55,58.33,60.87,67.47,70.43,70.43,70.43
Chile,chile,#ff4b5c,0,0,0.04,0.07,0.14,0.35,0.68,1.06,1.66,4.1,16.6,19.1,22.1,25.47,28.18,31.18,34.5,35.9,37.3,41.56,45,52.25,55.05,58,61.11,76.63,83.56,82.33,82.33,82.33,82.33
Colombia,colombia,#0051b9,0,0,0,0,0.11,0.19,0.33,0.55,1.13,1.7,2.21,2.85,4.6,7.39,9.12,11.01,15.34,21.8,25.6,30,36.5,40.35,48.98,51.7,52.57,55.9,58.14,62.26,64.13,65.01,65.01
Costa Rica,costa-rica,#f93f52,0,0,0,0.08,0.28,0.42,0.84,1.64,2.67,3.9,5.8,9.56,19.89,20.33,20.79,22.07,25.1,28.4,32.29,34.33,36.5,39.21,47.5,45.96,53,59.76,65.88,71.58,73.48,81.2,81.2
Cuba,cuba,#f10d29,0,0,0,0,0,0,0.03,0.07,0.23,0.31,0.54,1.08,3.77,5.24,8.41,9.74,11.16,11.69,12.94,14.33,15.9,16.02,21.2,27.93,29.07,37.31,42.98,57.15,62.68,61.84,61.84
República Dominicana,dominicana,#042d61,0,0,0,0,0,0.02,0.07,0.14,0.23,1.1,3.7,4.43,6.82,7.9,8.87,11.48,14.84,17.66,20.82,27.72,31.4,38,42.32,45.9,49.58,54.22,63.87,67.57,74.82,74.82,74.82
Ecuador,ecuador,#ffc300,0,0,0.01,0.02,0.03,0.04,0.09,0.11,0.13,0.82,1.46,2.67,4.26,4.46,4.83,5.99,7.2,10.8,18.8,24.6,29.03,31.37,35.14,40.28,45.59,48.94,54.06,54.06,54.06,54.06,54.06
El Salvador,salvador,#008cc3,0,0,0,0,0,0,0.09,0.26,0.43,0.85,1.18,1.5,1.9,2.5,3.2,4.2,5.5,6.11,10.08,12.11,15.9,18.9,20.32,23.11,24.76,26.8,29,33.82,33.82,33.82,33.82
Guatemala,guatemala,#0098d3,0,0,0,0,0,0,0.02,0.1,0.47,0.59,0.71,1.74,3.39,4.55,5.1,5.7,6.5,7.3,8.3,9.3,10.5,12.3,16,19.7,23.4,28.81,34.51,40.7,40.7,40.7,40.7
Haití,haiti,#f42f4b,0,0,0,0,0,0,0.01,0.01,0.02,0.07,0.23,0.34,0.89,1.65,5.4,6.38,6.8,7.2,7.6,8.1,8.37,9,9.8,10.6,11.4,12.2,12.23,12.33,32.47,32.47,32.47
Honduras,honduras,#0074d2,0,0,0,0,0,0.04,0.04,0.17,0.3,0.57,1.2,1.42,2.6,4.8,5.6,6.5,7.8,9.4,9.6,9.8,11.09,15.9,18.12,17.8,19.08,27.1,29.5,32.14,32.14,32.14,32.14
México,mexico,#006843,0,0.01,0.02,0.03,0.04,0.1,0.2,0.63,1.27,1.86,5.08,7.04,11.9,12.9,14.1,17.21,19.52,20.81,21.71,26.34,31.05,37.18,39.75,43.46,44.39,57.43,59.54,63.85,65.77,70.07,70.07
Nicaragua,nicaragua,#0067ca,0,0,0,0,0.01,0.03,0.08,0.21,0.3,0.5,0.98,1.45,1.71,1.88,2.32,2.57,2.81,3.9,5.3,7.3,10,10.6,13.5,15.5,17.6,19.7,24.57,27.86,27.86,27.86,27.86
Panamá,panama,#0051b9,0,0,0,0,0.01,0.06,0.22,0.54,2.75,3.84,6.55,7.27,8.52,9.99,11.14,11.48,17.35,22.29,33.82,39.08,40.1,42.7,40.3,44.03,44.92,51.21,54,59.95,61.81,63.63,63.63
Paraguay,paraguay,#008cc3,0,0,0,0,0,0,0.02,0.1,0.19,0.38,0.75,1.1,1.79,2.11,3.45,7.91,7.96,11.21,14.27,18.9,19.8,24.76,29.34,36.9,43,49.72,53.4,61.08,64.99,68.52,68.52
Perú,peru,#fc0023,0,0,0,0,0.01,0.03,0.25,0.4,1.19,1.95,3.08,7.58,8.97,11.6,14.1,17.1,20.7,25.2,30.57,31.4,34.77,36.01,38.2,39.2,40.2,40.85,45.46,50.45,55.05,59.95,59.95
Puerto Rico,puerto-rico,#0051b9,0,0,0,0,0.03,0.14,0.27,1.33,2.65,5.27,10.47,15.63,17.55,19.71,22.13,23.4,25.44,27.86,38,41.5,45.3,48,69,69,69,63.47,68.64,68.74,70.86,70.87,70.87
Uruguay,uruguay,#0035ab,0,0,0,0,0.06,0.31,1.85,3.36,6.99,9.97,10.54,11.12,11.42,15.94,17.06,20.09,29.4,34,39.3,41.8,46.4,51.4,54.45,57.69,61.46,64.57,66.4,70.32,74.38,76.95,76.95
Venezuela,venezuela,#fc0023,0,0,0.01,0.04,0.06,0.12,0.25,0.39,1.38,2.84,3.36,4.64,4.91,7.5,8.4,12.55,15.22,20.83,25.88,32.7,37.37,40.22,49.05,54.9,57,64,60,64.31,64.31,64.31,64.31
