name,color,name,fase,Country,Country
Oxford (UK),,Oxford,3,united-kingdom,united-kingdom
Moderna (EE.UU.),,Moderna,3,united-states,united-states
Sinovac (CH),,Sinovac,3,china,china
Sinopharm / Inst. Wuhan (CH),,Sinopharm / Inst. Wuhan,3,china,china
Sinopharm / Inst. Pekín (CH),,Sinopharm / Inst. Pekín,3,china,china
Pfizer / BioNTech (DE/EE.UU.),,Pfizer / BioNTech,3,united-states|germany,united-states|germany
Gamaleya Institute (RUS),,Gamaleya Institute,3,russia,russia
CanSino (CH),,CanSino,3,china,china
JANSSEN PH. (EE.UU.),,JANSSEN PH.,3,united-states,united-states
Curevac (DE),,Curevac,2,germany,germany
Anhui Zhifei Longcom (CH),,Anhui Zhifei Longcom,2,china,china
Sanofi Pasteur / GSK (FR),,Sanofi Pasteur / GSK,1.5,france,france
Inovio (EE.UU.),,Inovio,1.5,united-states,united-states
Novavax (EE.UU.),,Novavax,1.5,united-states,united-states
I. de Biología Médica (CH),,I. de Biología Médica,1.5,china,china
Consorcio Genexine (KOR),,Consorcio Genexine,1.5,south-korea,south-korea
Cadila (IND),,Cadila,1.5,india,india
Univ. de Osaka (JPN),,Univ. de Osaka,1.5,japan,japan
Bharat Biotech (IND),,Bharat Biotech,1.5,india,india
Kentucky Bioprocessing (UK/EE.UU.),,Kentucky Bioprocessing,1.5,united-kingdom|united-states,united-kingdom|united-states
Arcturus (EE.UU./SGP),,Arcturus,1.5,united-states|singapore,united-states|singapore
I. Inv. Seguridad Biológica (KZ),,I. Inv. Seguridad Biológica,1.5,kazakhstan,kazakhstan
I. Finlay de Vacunas (CUB),,I. Finlay de Vacunas,1,cuba,cuba
ReiThera (IT/DE/BEL),,ReiThera,1,italy|germany|belgium,italy|germany|belgium
I. Pasteur (FR/EE.UU./AUS),,I. Pasteur,1,france|united-states|austria,france|united-states|austria
Imperial College (UK),,Imperial College,1,united-kingdom,united-kingdom
Clover (CH/UK/EE.UU.),,Clover,1,china|united-kingdom|united-states,china|united-kingdom|united-states
Ejército Pop. Lib. (CH),,Ejército Pop. Lib.,1,china,china
Vaxine Pty Ltd (AU/KOR),,Vaxine Pty Ltd,1,australia|south-korea,australia|south-korea
Medicago Inc. (CAN),,Medicago Inc.,1,canada,canada
Univ. de Queensland (AU),,Univ. de Queensland,1,australia,australia
Medigen (TWN/EE.UU.),,Medigen,1,taiwan|united-states,taiwan|united-states
FBRI SRC VB VECTOR (RUS),,FBRI SRC VB VECTOR,1,russia,russia
West China Hospital / Univ. Sichuan (CH),,West China Hospital / Univ. Sichuan,1,china,china
Beijing Wantai Biological Pharmacy,,Beijing Wantai Biological Pharmacy,1,china,china
